val/common_level0/arbiter_weighted_round_robin/dump.vcd
$date
	Fri Jan 12 18:32:25 2024
$end
$version
	Icarus Verilog
$end
$timescale
	1ps
$end
$scope module arbiter_weighted_round_robin $end
$var wire 1 ! i_block_arb $end
$var wire 1 " i_clk $end
$var wire 20 # i_max_thresh [19:0] $end
$var wire 5 $ i_req [4:0] $end
$var wire 1 % i_rst_n $end
$var wire 5 & w_req_post [4:0] $end
$var wire 1 ' w_replenish $end
$var wire 5 ( w_mask_req [4:0] $end
$var wire 5 ) w_has_crd [4:0] $end
$var wire 20 * w_crd_cnt_incr [19:0] $end
$var wire 5 + ow_grant [4:0] $end
$var reg 20 , r_crd_cnt [19:0] $end
$var reg 20 - w_crd_cnt_next [19:0] $end
$scope begin gen_credit_mgt[0] $end
$upscope $end
$scope begin gen_credit_mgt[1] $end
$upscope $end
$scope begin gen_credit_mgt[2] $end
$upscope $end
$scope begin gen_credit_mgt[3] $end
$upscope $end
$scope begin gen_credit_mgt[4] $end
$upscope $end
$scope module u_rrb_arb $end
$var wire 1 " i_clk $end
$var wire 1 ' i_replenish $end
$var wire 5 . i_req [4:0] $end
$var wire 1 % i_rst_n $end
$var wire 5 / w_mask_req [4:0] $end
$var wire 1 0 w_select_raw $end
$var wire 5 1 w_raw_grant [4:0] $end
$var wire 5 2 w_mask_grant [4:0] $end
$var wire 5 3 ow_grant [4:0] $end
$var reg 5 4 r_mask [4:0] $end
$scope module u_arb_mask $end
$var wire 5 5 i_req [4:0] $end
$var reg 5 6 ow_grant [4:0] $end
$var reg 1 7 w_found $end
$scope begin $ivl_for_loop0 $end
$var integer 32 8 i [31:0] $end
$upscope $end
$upscope $end
$scope module u_arb_raw $end
$var wire 5 9 i_req [4:0] $end
$var reg 5 : ow_grant [4:0] $end
$var reg 1 ; w_found $end
$scope begin $ivl_for_loop0 $end
$var integer 32 < i [31:0] $end
$upscope $end
$upscope $end
$scope begin $ivl_for_loop1 $end
$var integer 32 = i [31:0] $end
$upscope $end
$upscope $end
$upscope $end
$enddefinitions $end
#0
$dumpvars
b0 =
b101 <
0;
b0 :
b0 9
b101 8
07
b0 6
b0 5
b11111 4
b0 3
b0 2
b0 1
10
b0 /
b0 .
b0 -
b0 ,
b0 +
b10001000100010001 *
bx )
b0 (
1'
b0 &
0%
b0 $
bz #
1"
0!
$end
#5000
0"
#10000
b11111 )
b10001000100010001 #
b0 4
b101 =
1"
1%
#15000
b10000 -
b10 +
b10 3
1;
b10 1
b10 :
b101 <
b11110 (
b11110 .
b11110 9
0'
b11110 &
b11110 $
0"
#20000
b100 +
b100 3
b11100 (
b11100 .
b11100 9
10
b101 <
1;
b100 1
b100 :
07
b0 2
b0 6
b101 8
b11101 )
b100010000 -
b0 /
b0 5
b10001000100100001 *
b10 4
b10000 ,
b101 =
1"
#25000
b1 +
b1 3
b10001 -
b101 <
1;
b1 1
b1 :
b1001 (
b1001 .
b1001 9
b1011 &
b1011 $
0"
#30000
b1000 +
b1000 3
b1000 (
b1000 .
b1000 9
b11100 )
b1000000010001 -
10
b101 <
1;
b1000 1
b1000 :
07
b0 2
b0 6
b101 8
b10001000100100010 *
b0 /
b0 5
b10001 ,
b1 4
b101 =
1"
#35000
b100 +
b100 3
b100010001 -
b101 <
1;
b100 1
b100 :
b11100 (
b11100 .
b11100 9
b11110 &
b11110 $
0"
#40000
b1000 +
b1000 3
b11000 (
b11000 .
b11000 9
b11000 )
b1000100010001 -
10
b101 <
1;
b1000 1
b1000 :
07
b0 2
b0 6
b101 8
b10001001000100010 *
b0 /
b0 5
b100010001 ,
b100 4
b101 =
1"
#45000
b1000100010001 -
b101 <
1;
b1000 1
b1000 :
b1000 (
b1000 .
b1000 9
b1111 &
b1111 $
0"
#50000
b1 +
b1 3
b1111 (
b1111 .
b1111 9
1'
b10000 )
b1 -
10
b101 <
1;
b1 1
b1 :
17
b1000 2
b1000 6
b101 8
b10010001000100010 *
b1000 /
b1000 5
b1000100010001 ,
b1000 4
b101 =
1"
#55000
b101 8
07
b0 2
b0 6
b0 /
b0 5
b101 <
1;
b10000 1
b10000 :
b10000 +
b10000 3
b10000 (
b10000 .
b10000 9
10
b10001000100010001 -
0'
b10100 &
b10100 $
0"
#60000
b100 +
b100 3
b10100 (
b10100 .
b10100 9
1'
b0 )
b100000000 -
10
b101 <
1;
b100 1
b100 :
17
b10000 2
b10000 6
b101 8
b100010001000100010 *
b10000 /
b10000 5
b10001000100010001 ,
b10000 4
b101 =
1"
#65000
b101 8
07
b0 2
b0 6
b1 +
b1 3
b0 /
b0 5
b1 -
b101 <
1;
b1 1
b1 :
b1111 (
b1111 .
b1111 9
b1111 &
b1111 $
0"
#70000
b10 +
b10 3
b1110 (
b1110 .
b1110 9
10
b10001 -
0'
b11110 )
b101 <
1;
b10 1
b10 :
07
b0 2
b0 6
b101 8
b10001000100010010 *
b0 /
b0 5
b1 ,
b1 4
b101 =
1"
#75000
b10000 +
b10000 3
b10000000000000001 -
b101 <
1;
b10000 1
b10000 :
b10000 (
b10000 .
b10000 9
b10000 &
b10000 $
0"
#80000
1'
b1110 )
b10000000000000000 -
10
b101 <
1;
b10000 1
b10000 :
17
b10000 2
b10000 6
b101 8
b100001000100010010 *
b10000 /
b10000 5
b10000000000000001 ,
b10000 4
b101 =
1"
#85000
b10 +
b10 3
b101 8
07
b0 2
b0 6
b0 /
b0 5
b101 <
1;
b10 1
b10 :
b1110 (
b1110 .
b1110 9
10
b10000000000010001 -
0'
b1111 &
b1111 $
0"
#90000
b100 +
b100 3
b1100 (
b1100 .
b1100 9
b1100 )
b10000000100010001 -
10
b101 <
1;
b100 1
b100 :
07
b0 2
b0 6
b101 8
b100001000100100010 *
b0 /
b0 5
b10000000000010001 ,
b10 4
b101 =
1"
#95000
b1101 &
b1101 $
0"
#100000
b1000 +
b1000 3
b1000 (
b1000 .
b1000 9
b1000 )
b10001000100010001 -
10
b101 <
1;
b1000 1
b1000 :
07
b0 2
b0 6
b101 8
b100001001000100010 *
b0 /
b0 5
b10000000100010001 ,
b100 4
b101 =
1"
#105000
b11101 &
b11101 $
0"
#110000
b1 +
b1 3
b11101 (
b11101 .
b11101 9
1'
b0 )
b1 -
10
b101 <
1;
b1 1
b1 :
17
b1000 2
b1000 6
b101 8
b100010001000100010 *
b1000 /
b1000 5
b10001000100010001 ,
b1000 4
b101 =
1"
#115000
b10 +
b10 3
b10000 -
b101 <
1;
b10 1
b10 :
b11110 (
b11110 .
b11110 9
b11110 &
b11110 $
0"
#120000
b100 +
b100 3
b11100 (
b11100 .
b11100 9
10
b100010000 -
0'
b11101 )
b101 <
1;
b100 1
b100 :
b101 8
07
b0 2
b0 6
b10001000100100001 *
b0 /
b0 5
b10000 ,
b10 4
b101 =
1"
#125000
b1 +
b1 3
b10001 -
b101 <
1;
b1 1
b1 :
b10001 (
b10001 .
b10001 9
b10001 &
b10001 $
0"
#130000
b10000 +
b10000 3
b10000 (
b10000 .
b10000 9
b11100 )
b10000000000010001 -
10
b101 <
1;
b10000 1
b10000 :
07
b0 2
b0 6
b101 8
b10001000100100010 *
b0 /
b0 5
b10001 ,
b1 4
b101 =
1"
#135000
b100 +
b100 3
b100010001 -
b101 <
1;
b100 1
b100 :
b11100 (
b11100 .
b11100 9
b11110 &
b11110 $
0"
#140000
b1000 +
b1000 3
b11000 (
b11000 .
b11000 9
b11000 )
b1000100010001 -
10
b101 <
1;
b1000 1
b1000 :
07
b0 2
b0 6
b101 8
b10001001000100010 *
b0 /
b0 5
b100010001 ,
b100 4
b101 =
1"
#145000
b10000 +
b10000 3
b10000000100010001 -
b101 <
1;
b10000 1
b10000 :
b10000 (
b10000 .
b10000 9
b10000 &
b10000 $
0"
#150000
1'
b1000 )
b10000000000000000 -
10
b101 <
1;
b10000 1
b10000 :
17
b10000 2
b10000 6
b101 8
b100001001000100010 *
b10000 /
b10000 5
b10000000100010001 ,
b10000 4
b101 =
1"
#155000
b1000 +
b1000 3
b101 8
07
b0 2
b0 6
b0 /
b0 5
b101 <
1;
b1000 1
b1000 :
b1000 (
b1000 .
b1000 9
10
b10001000100010001 -
0'
b1111 &
b1111 $
0"
#160000
b1 +
b1 3
b1111 (
b1111 .
b1111 9
1'
b0 )
b1 -
10
b101 <
1;
b1 1
b1 :
17
b1000 2
b1000 6
b101 8
b100010001000100010 *
b1000 /
b1000 5
b10001000100010001 ,
b1000 4
b101 =
1"
#165000
b1 -
b101 <
1;
b1 1
b1 :
b11111 (
b11111 .
b11111 9
b11111 &
b11111 $
0"
#170000
b10 +
b10 3
b11110 (
b11110 .
b11110 9
10
b10001 -
0'
b11110 )
b101 <
1;
b10 1
b10 :
b101 8
07
b0 2
b0 6
b10001000100010010 *
b0 /
b0 5
b1 ,
b1 4
b101 =
1"
#175000
b100 +
b100 3
b100000001 -
b101 <
1;
b100 1
b100 :
b10100 (
b10100 .
b10100 9
b10101 &
b10101 $
0"
#180000
b10000 +
b10000 3
b10000 (
b10000 .
b10000 9
b11010 )
b10000000100000001 -
10
b101 <
1;
b10000 1
b10000 :
07
b0 2
b0 6
b101 8
b10001001000010010 *
b0 /
b0 5
b100000001 ,
b100 4
b101 =
1"
#185000
b1000 +
b1000 3
b1000100000001 -
b101 <
1;
b1000 1
b1000 :
b1000 (
b1000 .
b1000 9
b1101 &
b1101 $
0"
#190000
b1 +
b1 3
b1101 (
b1101 .
b1101 9
1'
b10010 )
b1 -
10
b101 <
1;
b1 1
b1 :
17
b1000 2
b1000 6
b101 8
b10010001000010010 *
b1000 /
b1000 5
b1000100000001 ,
b1000 4
b101 =
1"
#195000
b101 8
07
b0 2
b0 6
b0 /
b0 5
b101 <
1;
b10 1
b10 :
b10 +
b10 3
b10010 (
b10010 .
b10010 9
10
b1000100010001 -
0'
b10110 &
b10110 $
0"
#200000
b10000 +
b10000 3
b10000 (
b10000 .
b10000 9
b10000 )
b10001000100010001 -
10
b101 <
1;
b10000 1
b10000 :
07
b0 2
b0 6
b101 8
b10010001000100010 *
b0 /
b0 5
b1000100010001 ,
b10 4
b101 =
1"
#205000
b11111 &
b11111 $
0"
#210000
b1 +
b1 3
b11111 (
b11111 .
b11111 9
1'
b0 )
b1 -
10
b101 <
1;
b1 1
b1 :
17
b10000 2
b10000 6
b101 8
b100010001000100010 *
b10000 /
b10000 5
b10001000100010001 ,
b10000 4
b101 =
1"
#215000
b10 +
b10 3
b10000 -
b101 <
1;
b10 1
b10 :
b10010 (
b10010 .
b10010 9
b10010 &
b10010 $
0"
#220000
b10000 +
b10000 3
b10000 (
b10000 .
b10000 9
10
b10000000000010000 -
0'
b11101 )
b101 <
1;
b10000 1
b10000 :
b101 8
07
b0 2
b0 6
b10001000100100001 *
b0 /
b0 5
b10000 ,
b10 4
b101 =
1"
#225000
b1 +
b1 3
b10001 -
b101 <
1;
b1 1
b1 :
b11101 (
b11101 .
b11101 9
b11101 &
b11101 $
0"
#230000
b100 +
b100 3
b11100 (
b11100 .
b11100 9
b11100 )
b100010001 -
10
b101 <
1;
b100 1
b100 :
07
b0 2
b0 6
b101 8
b10001000100100010 *
b0 /
b0 5
b10001 ,
b1 4
b101 =
1"
#235000
b100010001 -
b101 <
1;
b100 1
b100 :
b10100 (
b10100 .
b10100 9
b10111 &
b10111 $
0"
#240000
b10000 +
b10000 3
b10000 (
b10000 .
b10000 9
b11000 )
b10000000100010001 -
10
b101 <
1;
b10000 1
b10000 :
07
b0 2
b0 6
b101 8
b10001001000100010 *
b0 /
b0 5
b100010001 ,
b100 4
b101 =
1"
#245000
b1000 +
b1000 3
b1000100010001 -
b101 <
1;
b1000 1
b1000 :
b11000 (
b11000 .
b11000 9
b11101 &
b11101 $
0"
#250000
b10000 +
b10000 3
b10000 (
b10000 .
b10000 9
b10000 )
b10001000100010001 -
10
b101 <
1;
b10000 1
b10000 :
07
b0 2
b0 6
b101 8
b10010001000100010 *
b0 /
b0 5
b1000100010001 ,
b1000 4
b101 =
1"
#255000
b10111 &
b10111 $
0"
#260000
b1 +
b1 3
b10111 (
b10111 .
b10111 9
1'
b0 )
b1 -
10
b101 <
1;
b1 1
b1 :
17
b10000 2
b10000 6
b101 8
b100010001000100010 *
b10000 /
b10000 5
b10001000100010001 ,
b10000 4
b101 =
1"
#265000
b101 8
07
b0 2
b0 6
b0 /
b0 5
b1 -
b101 <
1;
b1 1
b1 :
b1001 (
b1001 .
b1001 9
b1001 &
b1001 $
0"
#270000
b1000 +
b1000 3
b1000 (
b1000 .
b1000 9
10
b1000000000001 -
0'
b11110 )
b101 <
1;
b1000 1
b1000 :
07
b0 2
b0 6
b101 8
b10001000100010010 *
b0 /
b0 5
b1 ,
b1 4
b101 =
1"
#275000
b10 +
b10 3
b10001 -
b101 <
1;
b10 1
b10 :
b11110 (
b11110 .
b11110 9
b11111 &
b11111 $
0"
#280000
b100 +
b100 3
b11100 (
b11100 .
b11100 9
b11100 )
b100010001 -
10
b101 <
1;
b100 1
b100 :
07
b0 2
b0 6
b101 8
b10001000100100010 *
b0 /
b0 5
b10001 ,
b10 4
b101 =
1"
#285000
b100010001 -
b101 <
1;
b100 1
b100 :
b1100 (
b1100 .
b1100 9
b1101 &
b1101 $
0"
#290000
b1000 +
b1000 3
b1000 (
b1000 .
b1000 9
b11000 )
b1000100010001 -
10
b101 <
1;
b1000 1
b1000 :
07
b0 2
b0 6
b101 8
b10001001000100010 *
b0 /
b0 5
b100010001 ,
b100 4
b101 =
1"
#295000
b1000100010001 -
b101 <
1;
b1000 1
b1000 :
b11000 (
b11000 .
b11000 9
b11101 &
b11101 $
0"
#300000
b10000 +
b10000 3
b10000 (
b10000 .
b10000 9
b10000 )
b10001000100010001 -
10
b101 <
1;
b10000 1
b10000 :
07
b0 2
b0 6
b101 8
b10010001000100010 *
b0 /
b0 5
b1000100010001 ,
b1000 4
b101 =
1"
#305000
17
b1000 2
b1000 6
b101 8
b1 +
b1 3
b1000 /
b1000 5
b101 <
1;
b1 1
b1 :
b1011 (
b1011 .
b1011 9
b1 -
1'
b1011 &
b1011 $
0"
#310000
b101 <
1;
b1 1
b1 :
b101 8
17
b1 2
b1 6
b10001000100010010 *
b1 /
b1 5
b1 ,
b1 4
b1 +
b1 3
00
b10 -
0'
b101 =
b11111 )
1"
b11111111111111111111 #
#315000
b10 -
b101 <
1;
b1 1
b1 :
b11101 (
b11101 .
b11101 9
b11101 &
b11101 $
0"
#320000
b11 -
b10001000100010011 *
b10 ,
b1 4
b101 =
1"
#325000
b11 -
b101 <
1;
b1 1
b1 :
b1011 (
b1011 .
b1011 9
b1011 &
b1011 $
0"
#330000
b100 -
b10001000100010100 *
b11 ,
b1 4
b101 =
1"
#335000
b100 -
b101 <
1;
b1 1
b1 :
b11101 (
b11101 .
b11101 9
b11101 &
b11101 $
0"
#340000
b101 -
b10001000100010101 *
b100 ,
b1 4
b101 =
1"
#345000
b101 -
b101 <
1;
b1 1
b1 :
b11011 (
b11011 .
b11011 9
b11011 &
b11011 $
0"
#350000
b110 -
b10001000100010110 *
b101 ,
b1 4
b101 =
1"
#355000
b110 -
b101 <
1;
b1 1
b1 :
b10111 (
b10111 .
b10111 9
b10111 &
b10111 $
0"
#360000
b111 -
b10001000100010111 *
b110 ,
b1 4
b101 =
1"
#365000
b111 -
b101 <
1;
b1 1
b1 :
b11111 (
b11111 .
b11111 9
b11111 &
b11111 $
0"
#370000
b1000 -
b10001000100011000 *
b111 ,
b1 4
b101 =
1"
#375000
b1000 -
b101 <
1;
b1 1
b1 :
b1011 (
b1011 .
b1011 9
b1011 &
b1011 $
0"
#380000
b1001 -
b10001000100011001 *
b1000 ,
b1 4
b101 =
1"
#385000
b1001 -
b101 <
1;
b1 1
b1 :
b11111 (
b11111 .
b11111 9
b11111 &
b11111 $
0"
#390000
b1010 -
b10001000100011010 *
b1001 ,
b1 4
b101 =
1"
#395000
b1010 -
b101 <
1;
b1 1
b1 :
b1111 (
b1111 .
b1111 9
b1111 &
b1111 $
0"
#400000
b1011 -
b10001000100011011 *
b1010 ,
b1 4
b101 =
1"
#405000
b1011 -
b101 <
1;
b1 1
b1 :
b11101 (
b11101 .
b11101 9
b11101 &
b11101 $
0"
#410000
b1100 -
b10001000100011100 *
b1011 ,
b1 4
b101 =
1"
#415000
b10 +
b10 3
10
b101 8
07
b0 2
b0 6
b0 /
b0 5
b11011 -
b101 <
1;
b10 1
b10 :
b11110 (
b11110 .
b11110 9
b11110 &
b11110 $
0"
#420000
b101011 -
00
b101 <
1;
b10 1
b10 :
17
b10 2
b10 6
b101 8
b10001000100101100 *
b10 /
b10 5
b11011 ,
b10 4
b101 =
1"
#425000
b1 +
b1 3
10
b101 8
07
b0 2
b0 6
b0 /
b0 5
b11100 -
b101 <
1;
b1 1
b1 :
b11101 (
b11101 .
b11101 9
b11101 &
b11101 $
0"
#430000
b11101 -
00
b101 <
1;
b1 1
b1 :
17
b1 2
b1 6
b101 8
b10001000100101101 *
b1 /
b1 5
b11100 ,
b1 4
b101 =
1"
#435000
b10 +
b10 3
10
b101 8
07
b0 2
b0 6
b0 /
b0 5
b101100 -
b101 <
1;
b10 1
b10 :
b11110 (
b11110 .
b11110 9
b11110 &
b11110 $
0"
#440000
b111100 -
00
b101 <
1;
b10 1
b10 :
17
b10 2
b10 6
b101 8
b10001000100111101 *
b10 /
b10 5
b101100 ,
b10 4
b101 =
1"
#445000
b111100 -
b101 <
1;
b1 1
b1 :
b10111 (
b10111 .
b10111 9
b10111 &
b10111 $
0"
#450000
b1001100 -
b10001000101001101 *
b111100 ,
b10 4
b101 =
1"
#455000
b1001100 -
b101 <
1;
b10 1
b10 :
b11110 (
b11110 .
b11110 9
b11110 &
b11110 $
0"
#460000
b1011100 -
b10001000101011101 *
b1001100 ,
b10 4
b101 =
1"
#465000
b1011100 -
b101 <
1;
b1 1
b1 :
b11111 (
b11111 .
b11111 9
b11111 &
b11111 $
0"
#470000
b1101100 -
b10001000101101101 *
b1011100 ,
b10 4
b101 =
1"
#475000
b1101100 -
b101 <
1;
b10 1
b10 :
b1110 (
b1110 .
b1110 9
b1110 &
b1110 $
0"
#480000
b1111100 -
b10001000101111101 *
b1101100 ,
b10 4
b101 =
1"
#485000
b1111100 -
b101 <
1;
b1 1
b1 :
b11111 (
b11111 .
b11111 9
b11111 &
b11111 $
0"
#490000
b10001100 -
b10001000110001101 *
b1111100 ,
b10 4
b101 =
1"
#495000
0"
#500000
b10011100 -
b10001000110011101 *
b10001100 ,
b10 4
b101 =
1"
#505000
b10011100 -
b101 <
1;
b1 1
b1 :
b10111 (
b10111 .
b10111 9
b10111 &
b10111 $
0"
#510000
b10101100 -
b10001000110101101 *
b10011100 ,
b10 4
b101 =
1"
#515000
b1 +
b1 3
10
b101 8
07
b0 2
b0 6
b0 /
b0 5
b10011101 -
b101 <
1;
b1 1
b1 :
b11101 (
b11101 .
b11101 9
b11101 &
b11101 $
0"
#520000
b10011110 -
00
b101 <
1;
b1 1
b1 :
17
b1 2
b1 6
b101 8
b10001000110101110 *
b1 /
b1 5
b10011101 ,
b1 4
b101 =
1"
#525000
b10 +
b10 3
10
b101 8
07
b0 2
b0 6
b0 /
b0 5
b10101101 -
b101 <
1;
b10 1
b10 :
b10 (
b10 .
b10 9
b10 &
b10 $
0"
#530000
b10111101 -
00
b101 <
1;
b10 1
b10 :
17
b10 2
b10 6
b101 8
b10001000110111110 *
b10 /
b10 5
b10101101 ,
b10 4
b101 =
1"
#535000
b1000 +
b1000 3
10
b101 8
07
b0 2
b0 6
b0 /
b0 5
b1000010101101 -
b101 <
1;
b1000 1
b1000 :
b11000 (
b11000 .
b11000 9
b11000 &
b11000 $
0"
#540000
b10000010101101 -
00
b101 <
1;
b1000 1
b1000 :
17
b1000 2
b1000 6
b101 8
b10010000110111110 *
b1000 /
b1000 5
b1000010101101 ,
b1000 4
b101 =
1"
#545000
b10000010101101 -
b101 <
1;
b1 1
b1 :
b11111 (
b11111 .
b11111 9
b11111 &
b11111 $
0"
#550000
b11000010101101 -
b10011000110111110 *
b10000010101101 ,
b1000 4
b101 =
1"
#555000
b11000010101101 -
b101 <
1;
b1 1
b1 :
b11011 (
b11011 .
b11011 9
b11011 &
b11011 $
0"
#560000
b100000010101101 -
b10100000110111110 *
b11000010101101 ,
b1000 4
b101 =
1"
#565000
0"
#570000
b101000010101101 -
b10101000110111110 *
b100000010101101 ,
b1000 4
b101 =
1"
#575000
b101000010101101 -
b101 <
1;
b1000 1
b1000 :
b11000 (
b11000 .
b11000 9
b11000 &
b11000 $
0"
#580000
b110000010101101 -
b10110000110111110 *
b101000010101101 ,
b1000 4
b101 =
1"
#585000
b110000010101101 -
b101 <
1;
b1 1
b1 :
b11101 (
b11101 .
b11101 9
b11101 &
b11101 $
0"
#590000
b111000010101101 -
b10111000110111110 *
b110000010101101 ,
b1000 4
b101 =
1"
#595000
b100 +
b100 3
10
b101 8
07
b0 2
b0 6
b0 /
b0 5
b110000110101101 -
b101 <
1;
b100 1
b100 :
b10100 (
b10100 .
b10100 9
b10100 &
b10100 $
0"
#600000
b110001010101101 -
00
b101 <
1;
b100 1
b100 :
17
b100 2
b100 6
b101 8
b10111001010111110 *
b100 /
b100 5
b110000110101101 ,
b100 4
b101 =
1"
#605000
b110001010101101 -
b101 <
1;
b1 1
b1 :
b10111 (
b10111 .
b10111 9
b10111 &
b10111 $
0"
#610000
b110001110101101 -
b10111001110111110 *
b110001010101101 ,
b100 4
b101 =
1"
#615000
b110001110101101 -
b101 <
1;
b100 1
b100 :
b11100 (
b11100 .
b11100 9
b11100 &
b11100 $
0"
#620000
b110010010101101 -
b10111010010111110 *
b110001110101101 ,
b100 4
b101 =
1"
#625000
b110010010101101 -
b101 <
1;
b1 1
b1 :
b10111 (
b10111 .
b10111 9
b10111 &
b10111 $
0"
#630000
b110010110101101 -
b10111010110111110 *
b110010010101101 ,
b100 4
b101 =
1"
#635000
b110010110101101 -
b101 <
1;
b10 1
b10 :
b10110 (
b10110 .
b10110 9
b10110 &
b10110 $
0"
#640000
b110011010101101 -
b10111011010111110 *
b110010110101101 ,
b100 4
b101 =
1"
#645000
b110011010101101 -
b101 <
1;
b1 1
b1 :
b11111 (
b11111 .
b11111 9
b11111 &
b11111 $
0"
#650000
b110011110101101 -
b10111011110111110 *
b110011010101101 ,
b100 4
b101 =
1"
#655000
b110011110101101 -
b101 <
1;
b1 1
b1 :
b10101 (
b10101 .
b10101 9
b10101 &
b10101 $
0"
#660000
b110100010101101 -
b10111100010111110 *
b110011110101101 ,
b100 4
b101 =
1"
#665000
0"
#670000
b110100110101101 -
b10111100110111110 *
b110100010101101 ,
b100 4
b101 =
1"
#675000
b110100110101101 -
b101 <
1;
b1 1
b1 :
b11101 (
b11101 .
b11101 9
b11101 &
b11101 $
0"
#680000
b110101010101101 -
b10111101010111110 *
b110100110101101 ,
b100 4
b101 =
1"
#685000
b110101010101101 -
b101 <
1;
b1 1
b1 :
b111 (
b111 .
b111 9
b111 &
b111 $
0"
#690000
b110101110101101 -
b10111101110111110 *
b110101010101101 ,
b100 4
b101 =
1"
#695000
b110101110101101 -
b101 <
1;
b1 1
b1 :
b11111 (
b11111 .
b11111 9
b11111 &
b11111 $
0"
#700000
b110110010101101 -
b10111110010111110 *
b110101110101101 ,
b100 4
b101 =
1"
#705000
b110110010101101 -
b101 <
1;
b1 1
b1 :
b10111 (
b10111 .
b10111 9
b10111 &
b10111 $
0"
#710000
b110110110101101 -
b10111110110111110 *
b110110010101101 ,
b100 4
b101 =
1"
#715000
b110110110101101 -
b101 <
1;
b1 1
b1 :
b11111 (
b11111 .
b11111 9
b11111 &
b11111 $
0"
#720000
b110111010101101 -
b10111111010111110 *
b110110110101101 ,
b100 4
b101 =
1"
#725000
b10 +
b10 3
10
b101 8
07
b0 2
b0 6
b0 /
b0 5
b110110110111101 -
b101 <
1;
b10 1
b10 :
b10 (
b10 .
b10 9
b10 &
b10 $
0"
#730000
b110110111001101 -
00
b101 <
1;
b10 1
b10 :
17
b10 2
b10 6
b101 8
b10111111011001110 *
b10 /
b10 5
b110110110111101 ,
b10 4
b101 =
1"
#735000
b110110111001101 -
b101 <
1;
b1 1
b1 :
b1111 (
b1111 .
b1111 9
b1111 &
b1111 $
0"
#740000
b110110111011101 -
b10111111011011110 *
b110110111001101 ,
b10 4
b101 =
1"
#745000
b110110111011101 -
b101 <
1;
b10 1
b10 :
b110 (
b110 .
b110 9
b110 &
b110 $
0"
#750000
b110110111101101 -
b10111111011101110 *
b110110111011101 ,
b10 4
b101 =
1"
#755000
b110110111101101 -
b101 <
1;
b1 1
b1 :
b1111 (
b1111 .
b1111 9
b1111 &
b1111 $
0"
#760000
b110110111111101 -
b10111111011111110 *
b110110111101101 ,
b10 4
b101 =
1"
#765000
b1 +
b1 3
10
b101 8
07
b0 2
b0 6
b0 /
b0 5
b110110111101110 -
b101 <
1;
b1 1
b1 :
b10101 (
b10101 .
b10101 9
b10101 &
b10101 $
0"
#770000
b110110111101111 -
00
b101 <
1;
b1 1
b1 :
17
b1 2
b1 6
b101 8
b10111111011111111 *
b1 /
b1 5
b110110111101110 ,
b1 4
b101 =
1"
#775000
b110110111101111 -
b101 <
1;
b1 1
b1 :
b11111 (
b11111 .
b11111 9
b11111 &
b11111 $
0"
#780000
b110110111100000 -
b10111111011110000 *
b110110111101111 ,
b1 4
b101 =
1"
#785000
b110110111100000 -
b101 <
1;
b1 1
b1 :
b10011 (
b10011 .
b10011 9
b10011 &
b10011 $
0"
#790000
b110110111100001 -
b10111111011110001 *
b110110111100000 ,
b1 4
b101 =
1"
#795000
b110110111100001 -
b101 <
1;
b1 1
b1 :
b1101 (
b1101 .
b1101 9
b1101 &
b1101 $
0"
#800000
b110110111100010 -
b10111111011110010 *
b110110111100001 ,
b1 4
b101 =
1"
#805000
b110110111100010 -
b101 <
1;
b1 1
b1 :
b1111 (
b1111 .
b1111 9
b1111 &
b1111 $
0"
#810000
b110110111100011 -
b10111111011110011 *
b110110111100010 ,
b1 4
b101 =
1"
#815000
b100 +
b100 3
10
b101 8
07
b0 2
b0 6
b0 /
b0 5
b110111011100010 -
b101 <
1;
b100 1
b100 :
b11100 (
b11100 .
b11100 9
b11100 &
b11100 $
0"
#820000
b110111111100010 -
00
b101 <
1;
b100 1
b100 :
17
b100 2
b100 6
b101 8
b10111111111110011 *
b100 /
b100 5
b110111011100010 ,
b100 4
b101 =
1"
#825000
b110111111100010 -
b101 <
1;
b1 1
b1 :
b1111 (
b1111 .
b1111 9
b1111 &
b1111 $
0"
#830000
b110000011100010 -
b10111000011110011 *
b110111111100010 ,
b100 4
b101 =
1"
#835000
b110000011100010 -
b101 <
1;
b10 1
b10 :
b1110 (
b1110 .
b1110 9
b1110 &
b1110 $
0"
#840000
b110000111100010 -
b10111000111110011 *
b110000011100010 ,
b100 4
b101 =
1"
#845000
b110000111100010 -
b101 <
1;
b1 1
b1 :
b11111 (
b11111 .
b11111 9
b11111 &
b11111 $
0"
#850000
b110001011100010 -
b10111001011110011 *
b110000111100010 ,
b100 4
b101 =
1"
#855000
b110001011100010 -
b101 <
1;
b1 1
b1 :
b1111 (
b1111 .
b1111 9
b1111 &
b1111 $
0"
#860000
b110001111100010 -
b10111001111110011 *
b110001011100010 ,
b100 4
b101 =
1"
#865000
b110001111100010 -
b101 <
1;
b1 1
b1 :
b11111 (
b11111 .
b11111 9
b11111 &
b11111 $
0"
#870000
b110010011100010 -
b10111010011110011 *
b110001111100010 ,
b100 4
b101 =
1"
#875000
b110010011100010 -
b101 <
1;
b1 1
b1 :
b11101 (
b11101 .
b11101 9
b11101 &
b11101 $
0"
#880000
b110010111100010 -
b10111010111110011 *
b110010011100010 ,
b100 4
b101 =
1"
#885000
0"
#890000
b110011011100010 -
b10111011011110011 *
b110010111100010 ,
b100 4
b101 =
1"
#895000
b1 +
b1 3
10
b101 8
07
b0 2
b0 6
b0 /
b0 5
b110010111100011 -
b101 <
1;
b1 1
b1 :
b11011 (
b11011 .
b11011 9
b11011 &
b11011 $
0"
#900000
b110010111100100 -
00
b101 <
1;
b1 1
b1 :
17
b1 2
b1 6
b101 8
b10111011011110100 *
b1 /
b1 5
b110010111100011 ,
b1 4
b101 =
1"
#905000
b110010111100100 -
b101 <
1;
b1 1
b1 :
b10001 (
b10001 .
b10001 9
b10001 &
b10001 $
0"
#910000
b110010111100101 -
b10111011011110101 *
b110010111100100 ,
b1 4
b101 =
1"
#915000
b110010111100101 -
b101 <
1;
b1 1
b1 :
b11111 (
b11111 .
b11111 9
b11111 &
b11111 $
0"
#920000
b110010111100110 -
b10111011011110110 *
b110010111100101 ,
b1 4
b101 =
1"
#925000
b110010111100110 -
b101 <
1;
b1 1
b1 :
b11101 (
b11101 .
b11101 9
b11101 &
b11101 $
0"
#930000
b110010111100111 -
b10111011011110111 *
b110010111100110 ,
b1 4
b101 =
1"
#935000
b110010111100111 -
b101 <
1;
b1 1
b1 :
b11111 (
b11111 .
b11111 9
b11111 &
b11111 $
0"
#940000
b110010111101000 -
b10111011011111000 *
b110010111100111 ,
b1 4
b101 =
1"
#945000
b10 +
b10 3
10
b101 8
07
b0 2
b0 6
b0 /
b0 5
b110010111110111 -
b101 <
1;
b10 1
b10 :
b1110 (
b1110 .
b1110 9
b1110 &
b1110 $
0"
#950000
b110010100000111 -
00
b101 <
1;
b10 1
b10 :
17
b10 2
b10 6
b101 8
b10111011000001000 *
b10 /
b10 5
b110010111110111 ,
b10 4
b101 =
1"
#955000
b110010100000111 -
b101 <
1;
b1 1
b1 :
b11111 (
b11111 .
b11111 9
b11111 &
b11111 $
0"
#960000
b110010100010111 -
b10111011000011000 *
b110010100000111 ,
b10 4
b101 =
1"
