val/common_level0_min/dataint_crc/dump.vcd
$date
	Thu Feb 29 21:54:46 2024
$end
$version
	Icarus Verilog
$end
$timescale
	1ps
$end
$scope module dataint_crc $end
$var wire 1 ! i_cascade_sel $end
$var wire 1 " i_clk $end
$var wire 8 # i_data [7:0] $end
$var wire 1 $ i_load_crc_start $end
$var wire 1 % i_load_from_cascade $end
$var wire 1 & i_rst_n $end
$var wire 8 ' w_result_xor [7:0] $end
$var wire 8 ( w_result [7:0] $end
$var wire 8 ) flat_w_cascade [7:0] $end
$var wire 8 * flat_w_block_data [7:0] $end
$var reg 8 + o_crc [7:0] $end
$var reg 8 , r_crc_value [7:0] $end
$var reg 8 - w_poly [7:0] $end
$var reg 8 . w_selected_cascade_output [7:0] $end
$scope begin gen_direct_assign_inputs $end
$scope begin gen_ch_direct[0] $end
$upscope $end
$upscope $end
$scope begin gen_flatten_w_block_data[0] $end
$upscope $end
$scope begin gen_flatten_w_cascade[0] $end
$upscope $end
$scope begin gen_xor_shift_cascade[0] $end
$scope begin gen_xor_cascade_0 $end
$scope module dataint_crc_xor_shift_cascade_0 $end
$var wire 8 / i_block_input [7:0] $end
$var wire 8 0 i_data_input [7:0] $end
$var wire 8 1 i_poly [7:0] $end
$var wire 8 2 ow_block_output [7:0] $end
$scope begin gen_xor_shift_cascade[0] $end
$scope begin gen_xor_shift_0 $end
$scope module dataint_crc_xor_shift $end
$var wire 1 3 i_new_bit $end
$var wire 8 4 i_poly [7:0] $end
$var wire 8 5 i_stage_input [7:0] $end
$var wire 8 6 ow_stage_output [7:0] $end
$upscope $end
$upscope $end
$upscope $end
$scope begin gen_xor_shift_cascade[1] $end
$scope begin gen_xor_shift_N $end
$scope module dataint_crc_xor_shift $end
$var wire 1 7 i_new_bit $end
$var wire 8 8 i_poly [7:0] $end
$var wire 8 9 i_stage_input [7:0] $end
$var wire 8 : ow_stage_output [7:0] $end
$upscope $end
$upscope $end
$upscope $end
$scope begin gen_xor_shift_cascade[2] $end
$scope begin gen_xor_shift_N $end
$scope module dataint_crc_xor_shift $end
$var wire 1 ; i_new_bit $end
$var wire 8 < i_poly [7:0] $end
$var wire 8 = i_stage_input [7:0] $end
$var wire 8 > ow_stage_output [7:0] $end
$upscope $end
$upscope $end
$upscope $end
$scope begin gen_xor_shift_cascade[3] $end
$scope begin gen_xor_shift_N $end
$scope module dataint_crc_xor_shift $end
$var wire 1 ? i_new_bit $end
$var wire 8 @ i_poly [7:0] $end
$var wire 8 A i_stage_input [7:0] $end
$var wire 8 B ow_stage_output [7:0] $end
$upscope $end
$upscope $end
$upscope $end
$scope begin gen_xor_shift_cascade[4] $end
$scope begin gen_xor_shift_N $end
$scope module dataint_crc_xor_shift $end
$var wire 1 C i_new_bit $end
$var wire 8 D i_poly [7:0] $end
$var wire 8 E i_stage_input [7:0] $end
$var wire 8 F ow_stage_output [7:0] $end
$upscope $end
$upscope $end
$upscope $end
$scope begin gen_xor_shift_cascade[5] $end
$scope begin gen_xor_shift_N $end
$scope module dataint_crc_xor_shift $end
$var wire 1 G i_new_bit $end
$var wire 8 H i_poly [7:0] $end
$var wire 8 I i_stage_input [7:0] $end
$var wire 8 J ow_stage_output [7:0] $end
$upscope $end
$upscope $end
$upscope $end
$scope begin gen_xor_shift_cascade[6] $end
$scope begin gen_xor_shift_N $end
$scope module dataint_crc_xor_shift $end
$var wire 1 K i_new_bit $end
$var wire 8 L i_poly [7:0] $end
$var wire 8 M i_stage_input [7:0] $end
$var wire 8 N ow_stage_output [7:0] $end
$upscope $end
$upscope $end
$upscope $end
$scope begin gen_xor_shift_cascade[7] $end
$scope begin gen_xor_shift_N $end
$scope module dataint_crc_xor_shift $end
$var wire 1 O i_new_bit $end
$var wire 8 P i_poly [7:0] $end
$var wire 8 Q i_stage_input [7:0] $end
$var wire 8 R ow_stage_output [7:0] $end
$upscope $end
$upscope $end
$upscope $end
$upscope $end
$upscope $end
$upscope $end
$scope begin genblk11 $end
$upscope $end
$scope begin $ivl_for_loop0 $end
$var integer 32 S i [31:0] $end
$upscope $end
$upscope $end
$enddefinitions $end
#0
$dumpvars
b1 S
b0 R
b0 Q
b111 P
0O
b0 N
b0 M
b111 L
0K
b0 J
b0 I
b111 H
0G
b0 F
b0 E
b111 D
0C
b0 B
b0 A
b111 @
0?
b0 >
b0 =
b111 <
0;
b0 :
b0 9
b111 8
07
b0 6
b0 5
b111 4
03
b0 2
b111 1
b0 0
b0 /
b0 .
b111 -
b0 ,
b0 +
b0 *
b0 )
b0 (
b0 '
0&
0%
0$
b0 #
1"
0!
$end
#5000
0"
#10000
1"
#15000
0"
#20000
1"
#25000
0"
#30000
1"
#35000
0"
#40000
1"
#40100
1&
#45000
0"
#50000
1"
#55000
0"
#60000
1"
#65000
0"
#70000
1"
#75000
0"
#80000
1"
#85000
0"
#90000
1"
#90100
1$
#95000
0"
#100000
1"
#100100
b1 S
1!
1%
0$
#105000
0"
#110000
1"
#110100
b1 S
0!
0%
#115000
0"
#120000
1"
#120100
1$
#125000
0"
#130000
1"
#130100
b11110011 .
b111 6
b111 9
b1001 :
b1001 =
b10101 >
b10101 A
b101101 B
b101101 E
b1011101 F
b1011101 I
b10111101 J
b10111101 M
b1111010 N
b1111010 Q
b11110011 )
b11110011 2
b11110011 R
b1 S
13
17
1;
1?
1C
1G
1K
1O
1!
1%
b11111111 *
b11111111 0
b11111111 #
0$
#135000
0"
#140000
b1 S
b100100 .
b100100 )
b100100 2
b100100 R
b10010010 N
b10010010 Q
b11001001 J
b11001001 M
b1100111 F
b1100111 I
b110000 B
b110000 E
b10011000 >
b10011000 A
b11001100 :
b11001100 =
b11100110 6
b11100110 9
b11110011 '
b11110011 (
b11110011 ,
b11110011 /
b11110011 5
1"
#140100
b11100001 6
b11100001 9
b11000101 :
b11000101 =
b10001101 >
b10001101 A
b11101 B
b11101 E
b111010 F
b111010 I
b1110100 J
b1110100 M
b11101000 N
b11101000 Q
b11010111 )
b11010111 2
b11010111 R
b1 S
b0 .
03
07
0;
0?
0C
0G
0K
0O
0!
0%
b0 *
b0 0
b0 #
#145000
0"
#150000
b11110011 +
1"
#150100
1$
#155000
0"
#160000
b1 S
b0 )
b0 2
b0 R
b0 N
b0 Q
b0 J
b0 M
b0 F
b0 I
b0 B
b0 E
b0 >
b0 A
b0 :
b0 =
b0 6
b0 9
b0 '
b0 (
b0 ,
b0 /
b0 5
b0 +
1"
#160100
b111 .
b111 )
b111 2
b111 R
b1 S
1O
1!
1%
b1 *
b1 0
b1 #
0$
#165000
0"
#170000
b1 S
b10010 .
b10010 )
b10010 2
b10010 R
b10001001 N
b10001001 Q
b11000111 J
b11000111 M
b11100000 F
b11100000 I
b1110000 B
b1110000 E
b111000 >
b111000 A
b11100 :
b11100 =
b1110 6
b1110 9
b111 '
b111 (
b111 ,
b111 /
b111 5
1"
#170100
b10101 )
b10101 2
b10101 R
b1 S
b0 .
0O
0!
0%
b0 *
b0 0
b0 #
#175000
0"
#180000
b111 +
1"
#180100
1$
#185000
0"
#190000
b1 S
b0 )
b0 2
b0 R
b0 N
b0 Q
b0 J
b0 M
b0 F
b0 I
b0 B
b0 E
b0 >
b0 A
b0 :
b0 =
b0 6
b0 9
b0 '
b0 +
b0 (
b0 ,
b0 /
b0 5
1"
#190100
b1110 .
b1110 )
b1110 2
b1110 R
b111 N
b111 Q
b1 S
1K
1!
1%
b10 *
b10 0
b10 #
0$
#195000
0"
#200000
b1 S
b100100 .
b100100 )
b100100 2
b100100 R
b10010 N
b10010 Q
b10001001 J
b10001001 M
b11000111 F
b11000111 I
b11100000 B
b11100000 E
b1110000 >
b1110000 A
b111000 :
b111000 =
b11100 6
b11100 9
b1110 '
b1110 (
b1110 ,
b1110 /
b1110 5
1"
#200100
b101010 )
b101010 2
b101010 R
b10101 N
b10101 Q
b1 S
b0 .
0K
0!
0%
b0 *
b0 0
b0 #
#205000
0"
#210000
b1110 +
1"
#210100
1$
#215000
0"
#220000
b1 S
b0 )
b0 2
b0 R
b0 N
b0 Q
b0 J
b0 M
b0 F
b0 I
b0 B
b0 E
b0 >
b0 A
b0 :
b0 =
b0 6
b0 9
b0 '
b0 (
b0 ,
b0 /
b0 5
b0 +
1"
#220100
b11100 .
b11100 )
b11100 2
b11100 R
b1110 N
b1110 Q
b111 J
b111 M
b1 S
1G
1!
1%
b100 *
b100 0
b100 #
0$
#225000
0"
#230000
b1 S
b1001000 .
b1001000 )
b1001000 2
b1001000 R
b100100 N
b100100 Q
b10010 J
b10010 M
b10001001 F
b10001001 I
b11000111 B
b11000111 E
b11100000 >
b11100000 A
b1110000 :
b1110000 =
b111000 6
b111000 9
b11100 '
b11100 (
b11100 ,
b11100 /
b11100 5
1"
#230100
b1010100 )
b1010100 2
b1010100 R
b101010 N
b101010 Q
b10101 J
b10101 M
b1 S
b0 .
0G
0!
0%
b0 *
b0 0
b0 #
#235000
0"
#240000
b11100 +
1"
#240100
1$
#245000
0"
#250000
b1 S
b0 )
b0 2
b0 R
b0 N
b0 Q
b0 J
b0 M
b0 F
b0 I
b0 B
b0 E
b0 >
b0 A
b0 :
b0 =
b0 6
b0 9
b0 '
b0 +
b0 (
b0 ,
b0 /
b0 5
1"
#250100
b111000 .
b111000 )
b111000 2
b111000 R
b11100 N
b11100 Q
b1110 J
b1110 M
b111 F
b111 I
b1 S
1C
1!
1%
b1000 *
b1000 0
b1000 #
0$
#255000
0"
#260000
b1 S
b10010000 .
b10010000 )
b10010000 2
b10010000 R
b1001000 N
b1001000 Q
b100100 J
b100100 M
b10010 F
b10010 I
b10001001 B
b10001001 E
b11000111 >
b11000111 A
b11100000 :
b11100000 =
b1110000 6
b1110000 9
b111000 '
b111000 (
b111000 ,
b111000 /
b111000 5
1"
#260100
b10101000 )
b10101000 2
b10101000 R
b1010100 N
b1010100 Q
b101010 J
b101010 M
b10101 F
b10101 I
b1 S
b0 .
0C
0!
0%
b0 *
b0 0
b0 #
#265000
0"
#270000
b111000 +
1"
#270100
1$
#275000
0"
#280000
b1 S
b0 )
b0 2
b0 R
b0 N
b0 Q
b0 J
b0 M
b0 F
b0 I
b0 B
b0 E
b0 >
b0 A
b0 :
b0 =
b0 6
b0 9
b0 '
b0 (
b0 ,
b0 /
b0 5
b0 +
1"
#280100
b1110000 .
b1110000 )
b1110000 2
b1110000 R
b111000 N
b111000 Q
b11100 J
b11100 M
b1110 F
b1110 I
b111 B
b111 E
b1 S
1?
1!
1%
b10000 *
b10000 0
b10000 #
0$
#285000
0"
#290000
b1 S
b100111 .
b100111 )
b100111 2
b100111 R
b10010000 N
b10010000 Q
b1001000 J
b1001000 M
b100100 F
b100100 I
b10010 B
b10010 E
b10001001 >
b10001001 A
b11000111 :
b11000111 =
b11100000 6
b11100000 9
b1110000 '
b1110000 (
b1110000 ,
b1110000 /
b1110000 5
1"
#290100
b1010111 )
b1010111 2
b1010111 R
b10101000 N
b10101000 Q
b1010100 J
b1010100 M
b101010 F
b101010 I
b10101 B
b10101 E
b1 S
b0 .
0?
0!
0%
b0 *
b0 0
b0 #
#295000
0"
#300000
b1110000 +
1"
#300100
1$
#305000
0"
#310000
b1 S
b0 )
b0 2
b0 R
b0 N
b0 Q
b0 J
b0 M
b0 F
b0 I
b0 B
b0 E
b0 >
b0 A
b0 :
b0 =
b0 6
b0 9
b0 '
b0 +
b0 (
b0 ,
b0 /
b0 5
1"
#310100
b11100000 .
b11100000 )
b11100000 2
b11100000 R
b1110000 N
b1110000 Q
b111000 J
b111000 M
b11100 F
b11100 I
b1110 B
b1110 E
b111 >
b111 A
b1 S
1;
1!
1%
b100000 *
b100000 0
b100000 #
0$
#315000
0"
#320000
b1 S
b1001110 .
b1001110 )
b1001110 2
b1001110 R
b100111 N
b100111 Q
b10010000 J
b10010000 M
b1001000 F
b1001000 I
b100100 B
b100100 E
b10010 >
b10010 A
b10001001 :
b10001001 =
b11000111 6
b11000111 9
b11100000 '
b11100000 (
b11100000 ,
b11100000 /
b11100000 5
1"
#320100
b10101110 )
b10101110 2
b10101110 R
b1010111 N
b1010111 Q
b10101000 J
b10101000 M
b1010100 F
b1010100 I
b101010 B
b101010 E
b10101 >
b10101 A
b1 S
b0 .
0;
0!
0%
b0 *
b0 0
b0 #
#325000
0"
#330000
b11100000 +
1"
#330100
1$
#335000
0"
#340000
b1 S
b0 )
b0 2
b0 R
b0 N
b0 Q
b0 J
b0 M
b0 F
b0 I
b0 B
b0 E
b0 >
b0 A
b0 :
b0 =
b0 6
b0 9
b0 '
b0 (
b0 ,
b0 /
b0 5
b0 +
1"
#340100
b11000111 .
b11000111 )
b11000111 2
b11000111 R
b11100000 N
b11100000 Q
b1110000 J
b1110000 M
b111000 F
b111000 I
b11100 B
b11100 E
b1110 >
b1110 A
b111 :
b111 =
b1 S
17
1!
1%
b1000000 *
b1000000 0
b1000000 #
0$
#345000
0"
#350000
b1 S
b10011100 .
b10011100 )
b10011100 2
b10011100 R
b1001110 N
b1001110 Q
b100111 J
b100111 M
b10010000 F
b10010000 I
b1001000 B
b1001000 E
b100100 >
b100100 A
b10010 :
b10010 =
b10001001 6
b10001001 9
b11000111 '
b11000111 (
b11000111 ,
b11000111 /
b11000111 5
1"
#350100
b1011011 )
b1011011 2
b1011011 R
b10101110 N
b10101110 Q
b1010111 J
b1010111 M
b10101000 F
b10101000 I
b1010100 B
b1010100 E
b101010 >
b101010 A
b10101 :
b10101 =
b1 S
b0 .
07
0!
0%
b0 *
b0 0
b0 #
#355000
0"
#360000
b11000111 +
1"
#360100
1$
#365000
0"
#370000
b1 S
b0 )
b0 2
b0 R
b0 N
b0 Q
b0 J
b0 M
b0 F
b0 I
b0 B
b0 E
b0 >
b0 A
b0 :
b0 =
b0 6
b0 9
b0 '
b0 +
b0 (
b0 ,
b0 /
b0 5
1"
#370100
b10001001 .
b10001001 )
b10001001 2
b10001001 R
b11000111 N
b11000111 Q
b11100000 J
b11100000 M
b1110000 F
b1110000 I
b111000 B
b111000 E
b11100 >
b11100 A
b1110 :
b1110 =
b111 6
b111 9
b1 S
13
1!
1%
b10000000 *
b10000000 0
b10000000 #
0$
#375000
0"
#380000
b1 S
b111111 .
b111111 )
b111111 2
b111111 R
b10011100 N
b10011100 Q
b1001110 J
b1001110 M
b100111 F
b100111 I
b10010000 B
b10010000 E
b1001000 >
b1001000 A
b100100 :
b100100 =
b10010 6
b10010 9
b10001001 '
b10001001 (
b10001001 ,
b10001001 /
b10001001 5
1"
#380100
b10110110 )
b10110110 2
b10110110 R
b1011011 N
b1011011 Q
b10101110 J
b10101110 M
b1010111 F
b1010111 I
b10101000 B
b10101000 E
b1010100 >
b1010100 A
b101010 :
b101010 =
b10101 6
b10101 9
b1 S
b0 .
03
0!
0%
b0 *
b0 0
b0 #
#385000
0"
#390000
b10001001 +
1"
#390100
1$
#395000
0"
#400000
b1 S
b0 )
b0 2
b0 R
b0 N
b0 Q
b0 J
b0 M
b0 F
b0 I
b0 B
b0 E
b0 >
b0 A
b0 :
b0 =
b0 6
b0 9
b0 '
b0 (
b0 ,
b0 /
b0 5
b0 +
1"
#400100
b11110100 .
b11110100 )
b11110100 2
b11110100 R
b111 6
b111 9
b1001 :
b1001 =
b10101 >
b10101 A
b101101 B
b101101 E
b1011101 F
b1011101 I
b10111101 J
b10111101 M
b1111010 N
b1111010 Q
b1 S
13
17
1;
1?
1C
1G
1K
1!
1%
b11111110 *
b11111110 0
b11111110 #
0$
#405000
0"
#410000
b1 S
b110110 .
b110110 )
b110110 2
b110110 R
b11011 N
b11011 Q
b1110 J
b1110 M
b10000111 F
b10000111 I
b1000000 B
b1000000 E
b10100000 >
b10100000 A
b11010000 :
b11010000 =
b11101000 6
b11101000 9
b11110100 '
b11110100 (
b11110100 ,
b11110100 /
b11110100 5
1"
#410100
b11000010 )
b11000010 2
b11000010 R
b11101111 6
b11101111 9
b11011001 :
b11011001 =
b10110101 >
b10110101 A
b1101101 B
b1101101 E
b11011010 F
b11011010 I
b10110011 J
b10110011 M
b1100001 N
b1100001 Q
b1 S
b0 .
03
07
0;
0?
0C
0G
0K
0!
0%
b0 *
b0 0
b0 #
#415000
0"
#420000
b11110100 +
1"
#420100
1$
#425000
0"
#430000
b1 S
b0 )
b0 2
b0 R
b0 N
b0 Q
b0 J
b0 M
b0 F
b0 I
b0 B
b0 E
b0 >
b0 A
b0 :
b0 =
b0 6
b0 9
b0 '
b0 +
b0 (
b0 ,
b0 /
b0 5
1"
#430100
b1111101 N
b1111101 Q
b11111101 .
b111 6
b111 9
b1001 :
b1001 =
b10101 >
b10101 A
b101101 B
b101101 E
b1011101 F
b1011101 I
b10111101 J
b10111101 M
b11111101 )
b11111101 2
b11111101 R
b1 S
13
17
1;
1?
1C
1G
1O
1!
1%
b11111101 *
b11111101 0
b11111101 #
0$
#435000
0"
#440000
b1 S
b0 .
b0 )
b0 2
b0 R
b10000000 N
b10000000 Q
b1000000 J
b1000000 M
b10100000 F
b10100000 I
b11010000 B
b11010000 E
b11101000 >
b11101000 A
b11110100 :
b11110100 =
b11111010 6
b11111010 9
b11111101 '
b11111101 (
b11111101 ,
b11111101 /
b11111101 5
1"
#440100
b11111101 N
b11111101 Q
b11111101 6
b11111101 9
b11111101 :
b11111101 =
b11111101 >
b11111101 A
b11111101 B
b11111101 E
b11111101 F
b11111101 I
b11111101 J
b11111101 M
b11111101 )
b11111101 2
b11111101 R
b1 S
03
07
0;
0?
0C
0G
0O
0!
0%
b0 *
b0 0
b0 #
#445000
0"
#450000
b11111101 +
1"
#450100
1$
#455000
0"
#460000
b1 S
b0 )
b0 2
b0 R
b0 N
b0 Q
b0 J
b0 M
b0 F
b0 I
b0 B
b0 E
b0 >
b0 A
b0 :
b0 =
b0 6
b0 9
b0 '
b0 (
b0 ,
b0 /
b0 5
b0 +
1"
#460100
b10111010 J
b10111010 M
b11101111 .
b111 6
b111 9
b1001 :
b1001 =
b10101 >
b10101 A
b101101 B
b101101 E
b1011101 F
b1011101 I
b1110100 N
b1110100 Q
b11101111 )
b11101111 2
b11101111 R
b1 S
13
17
1;
1?
1C
1K
1O
1!
1%
b11111011 *
b11111011 0
b11111011 #
0$
#465000
0"
#470000
b1 S
b1101100 .
b1101100 )
b1101100 2
b1101100 R
b10110110 N
b10110110 Q
b11011011 J
b11011011 M
b11101110 F
b11101110 I
b11110111 B
b11110111 E
b1111000 >
b1111000 A
b10111100 :
b10111100 =
b11011110 6
b11011110 9
b11101111 '
b11101111 (
b11101111 ,
b11101111 /
b11101111 5
1"
#470100
b1100001 J
b1100001 M
b11011001 6
b11011001 9
b10110101 :
b10110101 =
b1101101 >
b1101101 A
b11011010 B
b11011010 E
b10110011 F
b10110011 I
b11000010 N
b11000010 Q
b10000011 )
b10000011 2
b10000011 R
b1 S
b0 .
03
07
0;
0?
0C
0K
0O
0!
0%
b0 *
b0 0
b0 #
#475000
0"
#480000
b11101111 +
1"
#480100
1$
#485000
0"
#490000
b1 S
b0 )
b0 2
b0 R
b0 N
b0 Q
b0 J
b0 M
b0 F
b0 I
b0 B
b0 E
b0 >
b0 A
b0 :
b0 =
b0 6
b0 9
b0 '
b0 +
b0 (
b0 ,
b0 /
b0 5
1"
#490100
b1011010 F
b1011010 I
b11001011 .
b111 6
b111 9
b1001 :
b1001 =
b10101 >
b10101 A
b101101 B
b101101 E
b10110011 J
b10110011 M
b1100110 N
b1100110 Q
b11001011 )
b11001011 2
b11001011 R
b1 S
13
17
1;
1?
1G
1K
1O
1!
1%
b11110111 *
b11110111 0
b11110111 #
0$
#495000
0"
#500000
b1 S
b10110100 .
b10110100 )
b10110100 2
b10110100 R
b11011010 N
b11011010 Q
b11101101 J
b11101101 M
b1110101 F
b1110101 I
b10111001 B
b10111001 E
b1011111 >
b1011111 A
b101100 :
b101100 =
b10010110 6
b10010110 9
b11001011 '
b11001011 (
b11001011 ,
b11001011 /
b11001011 5
1"
#500100
b101111 F
b101111 I
b10010001 6
b10010001 9
b100101 :
b100101 =
b1001010 >
b1001010 A
b10010100 B
b10010100 E
b1011110 J
b1011110 M
b10111100 N
b10111100 Q
b1111111 )
b1111111 2
b1111111 R
b1 S
b0 .
03
07
0;
0?
0G
0K
0O
0!
0%
b0 *
b0 0
b0 #
#505000
0"
#510000
b11001011 +
1"
#510100
1$
#515000
0"
#520000
b1 S
b0 )
b0 2
b0 R
b0 N
b0 Q
b0 J
b0 M
b0 F
b0 I
b0 B
b0 E
b0 >
b0 A
b0 :
b0 =
b0 6
b0 9
b0 '
b0 (
b0 ,
b0 /
b0 5
b0 +
1"
#520100
b101010 B
b101010 E
b10000011 .
b111 6
b111 9
b1001 :
b1001 =
b10101 >
b10101 A
b1010011 F
b1010011 I
b10100001 J
b10100001 M
b1000010 N
b1000010 Q
b10000011 )
b10000011 2
b10000011 R
b1 S
13
17
1;
1C
1G
1K
1O
1!
1%
b11101111 *
b11101111 0
b11101111 #
0$
#525000
0"
#530000
b1 S
b11 .
b11 )
b11 2
b11 R
b10 N
b10 Q
b10000001 J
b10000001 M
b1000011 F
b1000011 I
b100010 B
b100010 E
b10001 >
b10001 A
b1011 :
b1011 =
b110 6
b110 9
b10000011 '
b10000011 (
b10000011 ,
b10000011 /
b10000011 5
1"
#530100
b1000 B
b1000 E
b1 6
b1 9
b10 :
b10 =
b100 >
b100 A
b10000 F
b10000 I
b100000 J
b100000 M
b1000000 N
b1000000 Q
b10000000 )
b10000000 2
b10000000 R
b1 S
b0 .
03
07
0;
0C
0G
0K
0O
0!
0%
b0 *
b0 0
b0 #
#535000
0"
#540000
b10000011 +
1"
#540100
1$
#545000
0"
#550000
b1 S
b0 )
b0 2
b0 R
b0 N
b0 Q
b0 J
b0 M
b0 F
b0 I
b0 B
b0 E
b0 >
b0 A
b0 :
b0 =
b0 6
b0 9
b0 '
b0 +
b0 (
b0 ,
b0 /
b0 5
1"
#550100
b10010 >
b10010 A
b10011 .
b111 6
b111 9
b1001 :
b1001 =
b100011 B
b100011 E
b1000001 F
b1000001 I
b10000101 J
b10000101 M
b1010 N
b1010 Q
b10011 )
b10011 2
b10011 R
b1 S
13
17
1?
1C
1G
1K
1O
1!
1%
b11011111 *
b11011111 0
b11011111 #
0$
#555000
0"
#560000
b1 S
b1101010 .
b1101010 )
b1101010 2
b1101010 R
b10110101 N
b10110101 Q
b1011001 J
b1011001 M
b101111 F
b101111 I
b10100 B
b10100 E
b10001010 >
b10001010 A
b1000101 :
b1000101 =
b100001 6
b100001 9
b10011 '
b10011 (
b10011 ,
b10011 /
b10011 5
1"
#560100
b10011000 >
b10011000 A
b100110 6
b100110 9
b1001100 :
b1001100 =
b110111 B
b110111 E
b1101110 F
b1101110 I
b11011100 J
b11011100 M
b10111111 N
b10111111 Q
b1111001 )
b1111001 2
b1111001 R
b1 S
b0 .
03
07
0?
0C
0G
0K
0O
0!
0%
b0 *
b0 0
b0 #
#565000
0"
#570000
b10011 +
1"
#570100
1$
#575000
0"
#580000
b1 S
b0 )
b0 2
b0 R
b0 N
b0 Q
b0 J
b0 M
b0 F
b0 I
b0 B
b0 E
b0 >
b0 A
b0 :
b0 =
b0 6
b0 9
b0 '
b0 (
b0 ,
b0 /
b0 5
b0 +
1"
#580100
b1110 :
b1110 =
b110100 .
b111 6
b111 9
b11011 >
b11011 A
b110001 B
b110001 E
b1100101 F
b1100101 I
b11001101 J
b11001101 M
b10011010 N
b10011010 Q
b110100 )
b110100 2
b110100 R
b1 S
13
1;
1?
1C
1G
1K
1O
1!
1%
b10111111 *
b10111111 0
b10111111 #
0$
#585000
0"
#590000
b1 S
b10111000 .
b10111000 )
b10111000 2
b10111000 R
b11011100 N
b11011100 Q
b11101110 J
b11101110 M
b11110111 F
b11110111 I
b1111000 B
b1111000 E
b10111100 >
b10111100 A
b11011110 :
b11011110 =
b1101111 6
b1101111 9
b110100 '
b110100 (
b110100 ,
b110100 /
b110100 5
1"
#590100
b11010000 :
b11010000 =
b1101000 6
b1101000 9
b10100111 >
b10100111 A
b1001001 B
b1001001 E
b10010010 F
b10010010 I
b100011 J
b100011 M
b1000110 N
b1000110 Q
b10001100 )
b10001100 2
b10001100 R
b1 S
b0 .
03
0;
0?
0C
0G
0K
0O
0!
0%
b0 *
b0 0
b0 #
#595000
0"
#600000
b110100 +
1"
#600100
1$
#605000
0"
#610000
b1 S
b0 )
b0 2
b0 R
b0 N
b0 Q
b0 J
b0 M
b0 F
b0 I
b0 B
b0 E
b0 >
b0 A
b0 :
b0 =
b0 6
b0 9
b0 '
b0 +
b0 (
b0 ,
b0 /
b0 5
1"
#610100
b1111010 .
b111 :
b111 =
b1001 >
b1001 A
b10101 B
b10101 E
b101101 F
b101101 I
b1011101 J
b1011101 M
b10111101 N
b10111101 Q
b1111010 )
b1111010 2
b1111010 R
b1 S
17
1;
1?
1C
1G
1K
1O
1!
1%
b1111111 *
b1111111 0
b1111111 #
0$
#615000
0"
#620000
b1 S
b11011 .
b11011 )
b11011 2
b11011 R
b1110 N
b1110 Q
b10000111 J
b10000111 M
b1000000 F
b1000000 I
b10100000 B
b10100000 E
b11010000 >
b11010000 A
b11101000 :
b11101000 =
b11110100 6
b11110100 9
b1111010 '
b1111010 (
b1111010 ,
b1111010 /
b1111010 5
1"
#620100
b11101111 :
b11101111 =
b11011001 >
b11011001 A
b10110101 B
b10110101 E
b1101101 F
b1101101 I
b11011010 J
b11011010 M
b10110011 N
b10110011 Q
b1100001 )
b1100001 2
b1100001 R
b1 S
b0 .
07
0;
0?
0C
0G
0K
0O
0!
0%
b0 *
b0 0
b0 #
#625000
0"
#630000
b1111010 +
1"
#630100
1$
#635000
0"
#640000
b1 S
b0 )
b0 2
b0 R
b0 N
b0 Q
b0 J
b0 M
b0 F
b0 I
b0 B
b0 E
b0 >
b0 A
b0 :
b0 =
b0 6
b0 9
b0 '
b0 (
b0 ,
b0 /
b0 5
b0 +
1"
#640100
b1010111 N
b1010111 Q
b10101000 J
b10101000 M
b1010100 F
b1010100 I
b101010 B
b101010 E
b10101001 .
b111 6
b111 9
b1001 :
b1001 =
b10101 >
b10101 A
b10101001 )
b10101001 2
b10101001 R
b1 S
13
17
1;
1O
1!
1%
b11100001 *
b11100001 0
b11100001 #
0$
#645000
0"
#650000
b1 S
b11111111 .
b11111111 )
b11111111 2
b11111111 R
b1111100 N
b1111100 Q
b111110 J
b111110 M
b11111 F
b11111 I
b10001100 B
b10001100 E
b1000110 >
b1000110 A
b10100011 :
b10100011 =
b1010010 6
b1010010 9
b10101001 '
b10101001 (
b10101001 ,
b10101001 /
b10101001 5
1"
#650100
b101011 N
b101011 Q
b10010110 J
b10010110 M
b1001011 F
b1001011 I
b10100110 B
b10100110 E
b1010101 6
b1010101 9
b10101010 :
b10101010 =
b1010011 >
b1010011 A
b1010110 )
b1010110 2
b1010110 R
b1 S
b0 .
03
07
0;
0O
0!
0%
b0 *
b0 0
b0 #
#655000
0"
#660000
b10101001 +
1"
#660100
1$
#665000
0"
#670000
b1 S
b0 )
b0 2
b0 R
b0 N
b0 Q
b0 J
b0 M
b0 F
b0 I
b0 B
b0 E
b0 >
b0 A
b0 :
b0 =
b0 6
b0 9
b0 '
b0 +
b0 (
b0 ,
b0 /
b0 5
1"
#670100
b101010 J
b101010 M
b10100001 .
b111 >
b111 A
b1001 B
b1001 E
b10101 F
b10101 I
b1010011 N
b1010011 Q
b10100001 )
b10100001 2
b10100001 R
b1 S
1;
1?
1C
1K
1O
1!
1%
b111011 *
b111011 0
b111011 #
0$
#675000
0"
#680000
b1 S
b11001111 .
b11001111 )
b11001111 2
b11001111 R
b1100100 N
b1100100 Q
b10110010 J
b10110010 M
b1011001 F
b1011001 I
b101111 B
b101111 E
b10100 >
b10100 A
b10001010 :
b10001010 =
b1000101 6
b1000101 9
b10100001 '
b10100001 (
b10100001 ,
b10100001 /
b10100001 5
1"
#680100
b10011000 J
b10011000 M
b10011 >
b10011 A
b100110 B
b100110 E
b1001100 F
b1001100 I
b110111 N
b110111 Q
b1101110 )
b1101110 2
b1101110 R
b1 S
b0 .
0;
0?
0C
0K
0O
0!
0%
b0 *
b0 0
b0 #
#685000
0"
#690000
b10100001 +
1"
#690100
1$
#695000
0"
#700000
b1 S
b0 )
b0 2
b0 R
b0 N
b0 Q
b0 J
b0 M
b0 F
b0 I
b0 B
b0 E
b0 >
b0 A
b0 :
b0 =
b0 6
b0 9
b0 '
b0 (
b0 ,
b0 /
b0 5
b0 +
1"
#700100
b1001 .
b111 N
b111 Q
b1001 )
b1001 2
b1001 R
b1 S
1K
1O
1!
1%
b11 *
b11 0
b11 #
0$
#705000
0"
#710000
b1 S
b110110 .
b110110 )
b110110 2
b110110 R
b10011011 N
b10011011 Q
b1001110 J
b1001110 M
b100111 F
b100111 I
b10010000 B
b10010000 E
b1001000 >
b1001000 A
b100100 :
b100100 =
b10010 6
b10010 9
b1001 '
b1001 (
b1001 ,
b1001 /
b1001 5
1"
#710100
b10011100 N
b10011100 Q
b111111 )
b111111 2
b111111 R
b1 S
b0 .
0K
0O
0!
0%
b0 *
b0 0
b0 #
#715000
0"
#720000
b1001 +
1"
#720100
1$
#725000
0"
#730000
b1 S
b0 )
b0 2
b0 R
b0 N
b0 Q
b0 J
b0 M
b0 F
b0 I
b0 B
b0 E
b0 >
b0 A
b0 :
b0 =
b0 6
b0 9
b0 '
b0 +
b0 (
b0 ,
b0 /
b0 5
1"
#730100
b11001010 .
b1110 B
b1110 E
b11001010 )
b11001010 2
b11001010 R
b111 >
b111 A
b11011 F
b11011 I
b110001 J
b110001 M
b1100101 N
b1100101 Q
b1 S
1;
1C
1G
1K
1!
1%
b101110 *
b101110 0
b101110 #
0$
#735000
0"
