val/common_level0/fifo_sync/dump.vcd
$date
	Sun Feb 18 12:44:15 2024
$end
$version
	Icarus Verilog
$end
$timescale
	1ps
$end
$scope module fifo_sync $end
$var wire 1 ! i_clk $end
$var wire 1 " i_read $end
$var wire 1 # i_rst_n $end
$var wire 8 $ i_wr_data [7:0] $end
$var wire 1 % i_write $end
$var wire 8 & ow_rd_data [7:0] $end
$var wire 3 ' w_wr_ptr_bin_next [2:0] $end
$var wire 3 ( w_rd_ptr_bin_next [2:0] $end
$var wire 3 ) r_wr_ptr_bin [2:0] $end
$var wire 2 * r_wr_addr [1:0] $end
$var wire 3 + r_rd_ptr_bin [2:0] $end
$var wire 2 , r_rd_addr [1:0] $end
$var wire 1 - o_wr_full $end
$var wire 1 . o_wr_almost_full $end
$var wire 1 / o_rd_empty $end
$var wire 1 0 o_rd_almost_empty $end
$var wire 32 1 flat_r_mem [31:0] $end
$scope begin gen_flatten_memory[0] $end
$upscope $end
$scope begin gen_flatten_memory[1] $end
$upscope $end
$scope begin gen_flatten_memory[2] $end
$upscope $end
$scope begin gen_flatten_memory[3] $end
$upscope $end
$scope module fifo_control_inst $end
$var wire 1 ! i_rd_clk $end
$var wire 1 # i_rd_rst_n $end
$var wire 1 ! i_wr_clk $end
$var wire 1 # i_wr_rst_n $end
$var wire 1 2 w_rd_empty_d $end
$var wire 1 3 w_rdom_ptr_xor $end
$var wire 1 4 w_wdom_ptr_xor $end
$var wire 1 5 w_wr_full_d $end
$var wire 1 6 w_wr_almost_full_d $end
$var wire 1 7 w_rd_almost_empty_d $end
$var wire 2 8 w_almost_full_count [1:0] $end
$var wire 2 9 w_almost_empty_count [1:0] $end
$var wire 3 : iw_wr_ptr_bin [2:0] $end
$var wire 3 ; iw_wdom_rd_ptr_bin [2:0] $end
$var wire 3 < iw_rdom_wr_ptr_bin [2:0] $end
$var wire 3 = iw_rd_ptr_bin [2:0] $end
$var reg 1 0 o_rd_almost_empty $end
$var reg 1 / o_rd_empty $end
$var reg 1 . o_wr_almost_full $end
$var reg 1 - o_wr_full $end
$upscope $end
$scope module read_pointer_inst $end
$var wire 1 ! i_clk $end
$var wire 1 > i_enable $end
$var wire 1 # i_rst_n $end
$var reg 3 ? o_counter_bin [2:0] $end
$var reg 3 @ ow_counter_bin_next [2:0] $end
$upscope $end
$scope module write_pointer_inst $end
$var wire 1 ! i_clk $end
$var wire 1 A i_enable $end
$var wire 1 # i_rst_n $end
$var reg 3 B o_counter_bin [2:0] $end
$var reg 3 C ow_counter_bin_next [2:0] $end
$upscope $end
$upscope $end
$enddefinitions $end
#0
$dumpvars
b0 C
b0 B
0A
b0 @
b0 ?
0>
b0 =
b0 <
b0 ;
b0 :
b0 9
b0 8
07
06
x5
x4
x3
x2
bx 1
00
0/
0.
0-
b0 ,
b0 +
b0 *
b0 )
b0 (
b0 '
bx &
0%
b0 $
0#
0"
1!
$end
#1000
12
05
03
04
#5000
0!
#10000
1!
#15000
0!
#20000
1/
1!
1#
#25000
0!
#30000
1!
#35000
0!
#40000
17
b1 9
b1 8
02
b1 '
b1 :
b1 <
b1 C
1A
b11100001 $
1%
1!
#45000
0!
#50000
07
b10 9
b10 8
b10 '
b10 :
b10 <
b10 C
b1 *
10
0/
b1 )
b1 B
bx11100001 1
b11100001 &
1!
#50100
17
b1 9
b1 8
b1 '
b1 :
b1 <
b1 C
0A
0%
#55000
0!
#60000
1!
#65000
0!
#70000
1!
#75000
0!
#80000
07
b10 9
b10 8
b10 '
b10 :
b10 <
b10 C
1A
b111011 $
1%
1!
#85000
0!
#90000
b11 9
16
b11 8
b11 '
b11 :
b11 <
b11 C
b10 *
00
b10 )
b10 B
bx0011101111100001 1
1!
#90100
b10 9
06
b10 8
b10 '
b10 :
b10 <
b10 C
0A
0%
#95000
0!
#100000
1!
#105000
0!
#110000
1!
#115000
0!
#120000
b11 9
16
b11 8
b11 '
b11 :
b11 <
b11 C
1A
b11 $
1%
1!
#125000
0!
#130000
b0 9
06
b0 8
12
b100 '
b100 :
b100 <
b100 C
b11 *
1.
b11 )
b11 B
bx000000110011101111100001 1
1!
#130100
b11 9
16
b11 8
02
b11 '
b11 :
b11 <
b11 C
0A
0%
#135000
0!
#140000
1!
#145000
0!
#150000
1!
#155000
0!
#160000
b0 9
06
b0 8
12
b100 '
b100 :
b100 <
b100 C
1A
b101110 $
1%
1!
#161000
02
15
13
14
#165000
0!
#170000
b0 9
06
b0 8
15
0A
b100 '
b100 :
b100 <
b100 C
b0 *
0.
1-
b100 )
b100 B
b101110000000110011101111100001 1
1!
#170100
b11 9
16
b11 8
05
b1 (
b1 ;
b1 =
b1 @
1>
1"
0%
#175000
0!
#180000
b10 9
06
b10 8
b10 (
b10 ;
b10 =
b10 @
b111011 &
b1 ,
b1 +
b1 ?
1.
0-
1!
#185000
0!
#190000
17
b1 9
b1 8
b11 (
b11 ;
b11 =
b11 @
b11 &
b10 ,
0.
b10 +
b10 ?
1!
#195000
0!
#200000
16
b101 '
b101 :
b101 <
b101 C
1A
b10001 $
1%
07
b11 9
b11 8
05
b100 (
b100 ;
b100 =
b100 @
b101110 &
b11 ,
b11 +
b11 ?
10
1!
#201000
17
b1 9
06
b1 8
03
04
#205000
0!
#210000
b101 (
b101 ;
b101 =
b101 @
b10001 &
b0 ,
b110 '
b110 :
b110 <
b110 C
b1 *
b100 +
b100 ?
b101 )
b101 B
b101110000000110011101100010001 1
1!
#210100
07
b0 9
b0 8
12
b101 '
b101 :
b101 <
b101 C
0A
0%
#215000
0!
#220000
b111011 &
b1 ,
0>
b101 +
b101 ?
00
1/
1!
#220100
0"
#225000
0!
#230000
1!
#235000
0!
#240000
17
b1 9
b1 8
02
b110 '
b110 :
b110 <
b110 C
1A
b101010 $
1%
1!
#245000
0!
#250000
07
b10 9
b10 8
b111 '
b111 :
b111 <
b111 C
b10 *
10
0/
b110 )
b110 B
b101110000000110010101000010001 1
b101010 &
1!
#250100
b0 9
b0 8
12
b110 (
b110 ;
b110 =
b110 @
b110 '
b110 :
b110 <
b110 C
1>
0A
1"
0%
#255000
0!
#260000
b11 &
b10 ,
0>
b110 +
b110 ?
00
1/
1!
#260100
0"
#265000
0!
#270000
1!
#275000
0!
#280000
17
b1 9
b1 8
02
b111 '
b111 :
b111 <
b111 C
1A
b110010 $
1%
1!
#285000
0!
#290000
07
b10 9
b10 8
b0 '
b0 :
b0 <
b0 C
b11 *
10
0/
b111 )
b111 B
b101110001100100010101000010001 1
b110010 &
1!
#290100
b0 9
b0 8
12
b111 (
b111 ;
b111 =
b111 @
b111 '
b111 :
b111 <
b111 C
1>
0A
1"
0%
#295000
0!
#300000
b101110 &
b11 ,
0>
b111 +
b111 ?
00
1/
1!
#300100
0"
#305000
0!
#310000
1!
#315000
0!
#320000
17
b1 9
b1 8
02
b0 '
b0 :
b0 <
b0 C
1A
b10110101 $
1%
1!
#321000
13
14
#325000
0!
#330000
07
b0 9
b0 8
b1 '
b1 :
b1 <
b1 C
b0 *
10
0/
b0 )
b0 B
b10110101001100100010101000010001 1
b10110101 &
1!
#330100
15
b0 (
b0 ;
b0 =
b0 @
b0 '
b0 :
b0 <
b0 C
1>
0A
1"
0%
#331100
12
05
03
04
#335000
0!
#340000
b10001 &
b0 ,
0>
b0 +
b0 ?
00
1/
1!
#340100
0"
#345000
0!
#350000
1!
#355000
0!
#360000
b0 $
1!
#365000
0!
#370000
1!
#375000
0!
#380000
1!
#385000
0!
#390000
1!
#395000
0!
#400000
1!
#405000
0!
#410000
1!
#415000
0!
#420000
1!
#425000
0!
#430000
1!
#435000
0!
#440000
1!
#445000
0!
#450000
1!
#455000
0!
#460000
1!
#465000
0!
#470000
1!
#475000
0!
#480000
1!
#485000
0!
#490000
1!
#495000
0!
#500000
1!
#505000
0!
#510000
1!
#515000
0!
#520000
1!
#525000
0!
#530000
1!
#535000
0!
#540000
1!
#545000
0!
#550000
17
b1 9
b1 8
02
b1 '
b1 :
b1 <
b1 C
1A
b1000 $
1%
1!
#555000
0!
#560000
07
b10 9
b10 8
b10 '
b10 :
b10 <
b10 C
b1 *
b1 )
b1 B
10
0/
b10110101001100100010101000001000 1
b1000 &
1!
#560100
b10110001 $
#565000
0!
#570000
b11 9
16
b11 8
b11 '
b11 :
b11 <
b11 C
b10 *
00
b10 )
b10 B
b10110101001100101011000100001000 1
1!
#570100
b11110111 $
#575000
0!
#580000
b0 9
06
b0 8
12
b100 '
b100 :
b100 <
b100 C
b11 *
b11 )
b11 B
1.
b10110101111101111011000100001000 1
1!
#580100
b11101101 $
#581000
02
15
13
14
#585000
0!
#590000
b0 9
06
b0 8
15
0A
b100 '
b100 :
b100 <
b100 C
b0 *
0.
1-
b100 )
b100 B
b11101101111101111011000100001000 1
1!
#590100
b0 $
0%
#595000
0!
#600000
1!
#605000
0!
#610000
1!
#615000
0!
#620000
1!
#625000
0!
#630000
1!
#635000
0!
#640000
1!
#645000
0!
#650000
1!
#655000
0!
#660000
1!
#665000
0!
#670000
b11 9
16
b11 8
05
b1 (
b1 ;
b1 =
b1 @
1>
1"
1!
#675000
0!
#680000
b10 9
06
b10 8
b10 (
b10 ;
b10 =
b10 @
b10110001 &
b1 ,
b1 +
b1 ?
1.
0-
1!
#680100
15
b101 '
b101 :
b101 <
b101 C
b1 (
b1 ;
b1 =
b1 @
1A
0>
b1001100 $
1%
0"
#685000
0!
#690000
b10 (
b10 ;
b10 =
b10 @
1>
1"
17
b1 9
b1 8
05
0A
b101 '
b101 :
b101 <
b101 C
b1 *
0.
1-
b101 )
b101 B
b11101101111101111011000101001100 1
1!
#690100
b0 $
0%
#695000
0!
#700000
07
b0 9
b0 8
b11 (
b11 ;
b11 =
b11 @
b11110111 &
b10 ,
b10 +
b10 ?
0-
10
1!
#700100
15
b110 '
b110 :
b110 <
b110 C
b10 (
b10 ;
b10 =
b10 @
1A
0>
b101110 $
1%
0"
#705000
0!
#710000
b11 (
b11 ;
b11 =
b11 @
1>
1"
b11 9
16
b11 8
05
0A
b110 '
b110 :
b110 <
b110 C
b10 *
00
1-
b110 )
b110 B
b11101101111101110010111001001100 1
1!
#710100
b0 $
0%
#715000
0!
#720000
b10 9
06
b10 8
b100 (
b100 ;
b100 =
b100 @
b11101101 &
b11 ,
b11 +
b11 ?
1.
0-
1!
#720100
15
b111 '
b111 :
b111 <
b111 C
b11 (
b11 ;
b11 =
b11 @
1A
0>
b1011101 $
1%
0"
#725000
0!
#730000
b100 (
b100 ;
b100 =
b100 @
1>
1"
17
b1 9
b1 8
05
0A
b111 '
b111 :
b111 <
b111 C
b11 *
0.
1-
b111 )
b111 B
b11101101010111010010111001001100 1
1!
#730100
b0 $
0%
#731000
07
b11 9
16
b11 8
03
04
#735000
0!
#740000
b10 9
06
b10 8
b101 (
b101 ;
b101 =
b101 @
b1001100 &
b0 ,
b100 +
b100 ?
1.
0-
1!
#740100
b0 9
b0 8
12
b0 '
b0 :
b0 <
b0 C
b100 (
b100 ;
b100 =
b100 @
1A
0>
b111010 $
1%
0"
#741100
02
15
13
14
#745000
0!
#750000
b101 (
b101 ;
b101 =
b101 @
1>
1"
b11 9
16
b11 8
05
0A
b0 '
b0 :
b0 <
b0 C
b0 *
0.
1-
b0 )
b0 B
b111010010111010010111001001100 1
1!
#750100
b0 $
0%
#755000
0!
#760000
b10 9
06
b10 8
b110 (
b110 ;
b110 =
b110 @
b101110 &
b1 ,
b101 +
b101 ?
1.
0-
1!
#760100
b11 9
16
b11 8
b101 (
b101 ;
b101 =
b101 @
0>
0"
#765000
0!
#770000
b10 9
06
b10 8
b110 (
b110 ;
b110 =
b110 @
1>
1"
1!
#775000
0!
#780000
17
b1 9
b1 8
b111 (
b111 ;
b111 =
b111 @
b1011101 &
b10 ,
b110 +
b110 ?
0.
1!
#780100
07
b10 9
b10 8
b110 (
b110 ;
b110 =
b110 @
0>
0"
#785000
0!
#790000
17
b1 9
b1 8
b111 (
b111 ;
b111 =
b111 @
1>
1"
1!
#795000
0!
#800000
07
b0 9
b0 8
15
b0 (
b0 ;
b0 =
b0 @
b111010 &
b11 ,
b111 +
b111 ?
10
1!
#800100
17
b1 9
b1 8
05
b111 (
b111 ;
b111 =
b111 @
0>
0"
#805000
0!
#810000
07
b0 9
b0 8
15
b0 (
b0 ;
b0 =
b0 @
1>
1"
1!
#811000
12
05
03
04
#815000
0!
#820000
b1001100 &
b0 ,
0>
b0 +
b0 ?
00
1/
1!
#820100
0"
