val/common_level0/dataint_ecc_hamming_decode_secded/dump.vcd
$date
	Wed Feb 28 16:58:55 2024
$end
$version
	Icarus Verilog
$end
$timescale
	1ps
$end
$scope module dataint_ecc_hamming_decode_secded $end
$var wire 1 ! i_clk $end
$var wire 1 " i_enable $end
$var wire 13 # i_hamming_data [12:0] $end
$var wire 1 $ i_rst_n $end
$var wire 4 % w_syndrome_0_based [3:0] $end
$var wire 8 & o_data [7:0] $end
$var reg 1 ' o_double_error_detected $end
$var reg 1 ( o_error_detected $end
$var reg 13 ) r_data_with_parity [12:0] $end
$var reg 13 * w_covered_bits [12:0] $end
$var reg 1 + w_overall_parity $end
$var reg 1 , w_overall_parity_in $end
$var reg 4 - w_syndrome [3:0] $end
$var reg 4 . w_syndrome_in [3:0] $end
$var integer 32 / bit_index [31:0] $end
$var integer 32 0 i [31:0] $end
$var integer 32 1 parity_pos [31:0] $end
$scope function bit_position $end
$upscope $end
$scope function get_covered_bits $end
$upscope $end
$scope begin gen_block[0] $end
$upscope $end
$scope begin gen_block[1] $end
$upscope $end
$scope begin gen_block[2] $end
$upscope $end
$scope begin gen_block[3] $end
$upscope $end
$scope begin gen_block[4] $end
$upscope $end
$scope begin gen_block[5] $end
$upscope $end
$scope begin gen_block[6] $end
$upscope $end
$scope begin gen_block[7] $end
$upscope $end
$scope begin check_overall_parity $end
$upscope $end
$scope begin correct_the_data_and_flag_errors_output_data $end
$upscope $end
$scope begin create_syndrome_covered_bits $end
$upscope $end
$upscope $end
$enddefinitions $end
#0
$dumpvars
bx 1
bx 0
bx /
bx .
b0 -
x,
0+
bx *
b0 )
0(
0'
b0 &
b1111 %
0$
b0 #
0"
1!
$end
#5000
0!
#10000
1!
#15000
0!
#20000
1!
#25000
0!
#30000
1!
#35000
0!
#40000
1!
#40500
0,
b1101 /
b111110000000 *
b0 .
b111 1
b100 0
1"
1$
#45000
0!
#50000
1!
#50500
0"
#55000
0!
#60000
1!
#60500
1+
b0 %
b1 -
b1101 /
b111110000000 *
b1 .
b111 1
b100 0
1"
b1 #
#65000
0!
#70000
1(
b0 )
1!
#70500
0+
b1111 %
b0 -
0"
b0 #
#75000
0!
#80000
1!
#80500
1+
b1 %
b10 -
b1101 /
b111110000000 *
b10 .
b111 1
b100 0
1"
b10 #
#85000
0!
#90000
1(
b0 )
1!
#90500
0+
b1111 %
b0 -
0"
b0 #
#95000
0!
#100000
1!
#100500
1+
b0 .
b10 %
b11 -
b1101 /
b111110000000 *
b111 1
b100 0
1"
b100 #
#105000
0!
#110000
1(
b0 &
b0 )
1!
#110500
0+
b1111 %
b0 -
0"
b0 #
#115000
0!
#120000
1!
#120500
1+
b11 %
b100 -
b100 .
b1101 /
b111110000000 *
b111 1
b100 0
1"
b1000 #
#125000
0!
#130000
1(
b0 )
1!
#130500
0+
b1111 %
b0 -
0"
b0 #
#135000
0!
#140000
1!
#140500
1+
b0 .
b100 %
b101 -
b1101 /
b111110000000 *
b111 1
b100 0
1"
b10000 #
#145000
0!
#150000
1(
b0 &
b0 )
1!
#150500
0+
b1111 %
b0 -
0"
b0 #
#155000
0!
#160000
1!
#160500
1+
b101 %
b110 -
b1101 /
b111110000000 *
b111 1
b100 0
1"
b100000 #
#165000
0!
#170000
1(
b0 &
b0 )
1!
#170500
0+
b1111 %
b0 -
0"
b0 #
#175000
0!
#180000
1!
#180500
1+
b110 %
b111 -
b1101 /
b111110000000 *
b111 1
b100 0
1"
b1000000 #
#185000
0!
#190000
1(
b0 &
b0 )
1!
#190500
0+
b1111 %
b0 -
0"
b0 #
#195000
0!
#200000
1!
#200500
1+
b111 %
b1000 -
b1000 .
b1101 /
b111110000000 *
b111 1
b100 0
1"
b10000000 #
#205000
0!
#210000
1(
b0 )
1!
#210500
0+
b1111 %
b0 -
0"
b0 #
#215000
0!
#220000
1!
#220500
1+
b0 .
b1000 %
b1001 -
b1101 /
b111110000000 *
b111 1
b100 0
1"
b100000000 #
#225000
0!
#230000
1(
b0 &
b0 )
1!
#230500
0+
b1111 %
b0 -
0"
b0 #
#235000
0!
#240000
1!
#240500
1+
b1001 %
b1010 -
b1101 /
b111110000000 *
b111 1
b100 0
1"
b1000000000 #
#245000
0!
#250000
1(
b0 &
b0 )
1!
#250500
0+
b1111 %
b0 -
0"
b0 #
#255000
0!
#260000
1!
#260500
1+
b1010 %
b1011 -
b1101 /
b111110000000 *
b111 1
b100 0
1"
b10000000000 #
#265000
0!
#270000
1(
b0 &
b0 )
1!
#270500
0+
b1111 %
b0 -
0"
b0 #
#275000
0!
#280000
1!
#280500
1+
b1011 %
b1100 -
b1101 /
b111110000000 *
b111 1
b100 0
1"
b100000000000 #
#285000
0!
#290000
1(
b0 &
b0 )
1!
#290500
0+
b1111 %
b0 -
0"
b0 #
#295000
0!
#300000
1!
#300500
1,
b1101 /
b111110000000 *
b111 1
b100 0
1"
b1000000000000 #
#305000
0!
#310000
1(
b1000000000000 )
1!
#310500
0"
b0 #
#315000
0!
#320000
1!
#320500
0,
b10 %
b11 -
b1101 /
b111110000000 *
b11 .
b111 1
b100 0
1"
b11 #
#325000
0!
#330000
1'
1(
b11 )
1!
#330500
b1111 %
b0 -
0"
b0 #
#335000
0!
#340000
1!
#340500
b1 .
b1 %
b10 -
b1101 /
b111110000000 *
b111 1
b100 0
1"
b101 #
#345000
0!
#350000
1'
1(
b1 &
b101 )
1!
#350500
b1111 %
b0 -
0"
b0 #
#355000
0!
#360000
1!
#360500
b101 .
b100 %
b101 -
b1101 /
b111110000000 *
b111 1
b100 0
1"
b1001 #
#365000
0!
#370000
1'
1(
b0 &
b1001 )
1!
#370500
b1111 %
b0 -
0"
b0 #
#375000
0!
#380000
1!
#380500
b1 .
b11 %
b100 -
b1101 /
b111110000000 *
b111 1
b100 0
1"
b10001 #
#385000
0!
#390000
1'
1(
b10 &
b10001 )
1!
#390500
b1111 %
b0 -
0"
b0 #
#395000
0!
#400000
1!
#400500
b110 %
b111 -
b1101 /
b111110000000 *
b111 1
b100 0
1"
b100001 #
#405000
0!
#410000
1'
1(
b100 &
b100001 )
1!
#410500
b1111 %
b0 -
0"
b0 #
#415000
0!
#420000
1!
#420500
b101 %
b110 -
b1101 /
b111110000000 *
b111 1
b100 0
1"
b1000001 #
#425000
0!
#430000
1'
1(
b1000 &
b1000001 )
1!
#430500
b1111 %
b0 -
0"
b0 #
#435000
0!
#440000
1!
#440500
b1001 .
b1000 %
b1001 -
b1101 /
b111110000000 *
b111 1
b100 0
1"
b10000001 #
#445000
0!
#450000
1'
1(
b0 &
b10000001 )
1!
#450500
b1111 %
b0 -
0"
b0 #
#455000
0!
#460000
1!
#460500
b1 .
b111 %
b1000 -
b1101 /
b111110000000 *
b111 1
b100 0
1"
b100000001 #
#465000
0!
#470000
1'
1(
b10000 &
b100000001 )
1!
#470500
b1111 %
b0 -
0"
b0 #
#475000
0!
#480000
1!
#480500
b1010 %
b1011 -
b1101 /
b111110000000 *
b111 1
b100 0
1"
b1000000001 #
#485000
0!
#490000
1'
1(
b100000 &
b1000000001 )
1!
#490500
b1111 %
b0 -
0"
b0 #
#495000
0!
#500000
1!
#500500
b1001 %
b1010 -
b1101 /
b111110000000 *
b111 1
b100 0
1"
b10000000001 #
#505000
0!
#510000
1'
1(
b1000000 &
b10000000001 )
1!
#510500
b1111 %
b0 -
0"
b0 #
#515000
0!
#520000
1!
#520500
b1100 %
b1101 -
b1101 /
b111110000000 *
b111 1
b100 0
1"
b100000000001 #
#525000
0!
#530000
1'
1(
b10000000 &
b100000000001 )
1!
#530500
b1111 %
b0 -
0"
b0 #
#535000
0!
#540000
1!
#540500
1,
1+
b0 %
b1 -
b1101 /
b111110000000 *
b111 1
b100 0
1"
b1000000000001 #
#545000
0!
#550000
1'
1(
b0 &
b1000000000001 )
1!
#550500
0+
b1111 %
b0 -
0"
b0 #
#555000
0!
#560000
1!
#560500
0,
b0 %
b1 -
b1101 /
b111110000000 *
b10 .
b111 1
b100 0
1"
b110 #
#565000
0!
#570000
1'
1(
b1 &
b110 )
1!
#570500
b1111 %
b0 -
0"
b0 #
#575000
0!
#580000
1!
#580500
b110 .
b101 %
b110 -
b1101 /
b111110000000 *
b111 1
b100 0
1"
b1010 #
#585000
0!
#590000
1'
1(
b0 &
b1010 )
1!
#590500
b1111 %
b0 -
0"
b0 #
#595000
0!
#600000
1!
#600500
b10 .
b110 %
b111 -
b1101 /
b111110000000 *
b111 1
b100 0
1"
b10010 #
#605000
0!
#610000
1'
1(
b10 &
b10010 )
1!
#610500
b1111 %
b0 -
0"
b0 #
#615000
0!
#620000
1!
#620500
b11 %
b100 -
b1101 /
b111110000000 *
b111 1
b100 0
1"
b100010 #
#625000
0!
#630000
1'
1(
b100 &
b100010 )
1!
#630500
b1111 %
b0 -
0"
b0 #
#635000
0!
#640000
1!
#640500
b100 %
b101 -
b1101 /
b111110000000 *
b111 1
b100 0
1"
b1000010 #
#645000
0!
#650000
1'
1(
b1000 &
b1000010 )
1!
#650500
b1111 %
b0 -
0"
b0 #
#655000
0!
#660000
1!
#660500
b1010 .
b1001 %
b1010 -
b1101 /
b111110000000 *
b111 1
b100 0
1"
b10000010 #
#665000
0!
#670000
1'
1(
b0 &
b10000010 )
1!
#670500
b1111 %
b0 -
0"
b0 #
#675000
0!
#680000
1!
#680500
b10 .
b1010 %
b1011 -
b1101 /
b111110000000 *
b111 1
b100 0
1"
b100000010 #
#685000
0!
#690000
1'
1(
b10000 &
b100000010 )
1!
#690500
b1111 %
b0 -
0"
b0 #
#695000
0!
#700000
1!
#700500
b111 %
b1000 -
b1101 /
b111110000000 *
b111 1
b100 0
1"
b1000000010 #
#705000
0!
#710000
1'
1(
b100000 &
b1000000010 )
1!
#710500
b1111 %
b0 -
0"
b0 #
#715000
0!
#720000
1!
#720500
b1000 %
b1001 -
b1101 /
b111110000000 *
b111 1
b100 0
1"
b10000000010 #
#725000
0!
#730000
1'
1(
b1000000 &
b10000000010 )
1!
#730500
b1111 %
b0 -
0"
b0 #
#735000
0!
#740000
1!
#740500
b1101 %
b1110 -
b1101 /
b111110000000 *
b111 1
b100 0
1"
b100000000010 #
#745000
0!
#750000
1'
1(
b10000000 &
b100000000010 )
1!
#750500
b1111 %
b0 -
0"
b0 #
#755000
0!
#760000
1!
#760500
1,
1+
b1 %
b10 -
b1101 /
b111110000000 *
b111 1
b100 0
1"
b1000000000010 #
#765000
0!
#770000
1'
1(
b0 &
b1000000000010 )
1!
#770500
0+
b1111 %
b0 -
0"
b0 #
#775000
0!
#780000
1!
#780500
0,
b100 .
b110 %
b111 -
b1101 /
b111110000000 *
b111 1
b100 0
1"
b1100 #
#785000
0!
#790000
1'
1(
b1 &
b1100 )
1!
#790500
b1111 %
b0 -
0"
b0 #
#795000
0!
#800000
1!
#800500
b0 .
b101 %
b110 -
b1101 /
b111110000000 *
b111 1
b100 0
1"
b10100 #
#805000
0!
#810000
1'
1(
b11 &
b10100 )
1!
#810500
b1111 %
b0 -
0"
b0 #
#815000
0!
#820000
1!
#820500
b100 %
b101 -
b1101 /
b111110000000 *
b111 1
b100 0
1"
b100100 #
#825000
0!
#830000
1'
1(
b101 &
b100100 )
1!
#830500
b1111 %
b0 -
0"
b0 #
#835000
0!
#840000
1!
#840500
b11 %
b100 -
b1101 /
b111110000000 *
b111 1
b100 0
1"
b1000100 #
#845000
0!
#850000
1'
1(
b1001 &
b1000100 )
1!
#850500
b1111 %
b0 -
0"
b0 #
#855000
0!
#860000
1!
#860500
b1000 .
b1010 %
b1011 -
b1101 /
b111110000000 *
b111 1
b100 0
1"
b10000100 #
#865000
0!
#870000
1'
1(
b1 &
b10000100 )
1!
#870500
b1111 %
b0 -
0"
b0 #
#875000
0!
#880000
1!
#880500
b0 .
b1001 %
b1010 -
b1101 /
b111110000000 *
b111 1
b100 0
1"
b100000100 #
#885000
0!
#890000
1'
1(
b10001 &
b100000100 )
1!
#890500
b1111 %
b0 -
0"
b0 #
#895000
0!
#900000
1!
#900500
b1000 %
b1001 -
b1101 /
b111110000000 *
b111 1
b100 0
1"
b1000000100 #
#905000
0!
#910000
1'
1(
b100001 &
b1000000100 )
1!
#910500
b1111 %
b0 -
0"
b0 #
#915000
0!
#920000
1!
#920500
b111 %
b1000 -
b1101 /
b111110000000 *
b111 1
b100 0
1"
b10000000100 #
#925000
0!
#930000
1'
1(
b1000001 &
b10000000100 )
1!
#930500
b1111 %
b0 -
0"
b0 #
#935000
0!
#940000
1!
#940500
b1110 %
b1111 -
b1101 /
b111110000000 *
b111 1
b100 0
1"
b100000000100 #
#945000
0!
#950000
1'
1(
b10000001 &
b100000000100 )
1!
#950500
b1111 %
b0 -
0"
b0 #
#955000
0!
#960000
1!
#960500
1,
1+
b10 %
b11 -
b1101 /
b111110000000 *
b111 1
b100 0
1"
b1000000000100 #
#965000
0!
#970000
1'
1(
b1 &
b1000000000100 )
1!
#970500
0+
b1111 %
b0 -
0"
b0 #
#975000
0!
#980000
1!
#980500
0,
b100 .
b0 %
b1 -
b1101 /
b111110000000 *
b111 1
b100 0
1"
b11000 #
#985000
0!
#990000
1'
1(
b10 &
b11000 )
1!
#990500
b1111 %
b0 -
0"
b0 #
#995000
0!
#1000000
1!
#1000500
b1 %
b10 -
b1101 /
b111110000000 *
b111 1
b100 0
1"
b101000 #
#1005000
0!
#1010000
1'
1(
b100 &
b101000 )
1!
#1010500
b1111 %
b0 -
0"
b0 #
#1015000
0!
#1020000
1!
#1020500
b10 %
b11 -
b1101 /
b111110000000 *
b111 1
b100 0
1"
b1001000 #
#1025000
0!
#1030000
1'
1(
b1000 &
b1001000 )
1!
#1030500
b1111 %
b0 -
0"
b0 #
#1035000
0!
#1040000
1!
#1040500
b1100 .
b1011 %
b1100 -
b1101 /
b111110000000 *
b111 1
b100 0
1"
b10001000 #
#1045000
0!
#1050000
1'
1(
b0 &
b10001000 )
1!
#1050500
b1111 %
b0 -
0"
b0 #
#1055000
0!
#1060000
1!
#1060500
b100 .
b1100 %
b1101 -
b1101 /
b111110000000 *
b111 1
b100 0
1"
b100001000 #
#1065000
0!
#1070000
1'
1(
b10000 &
b100001000 )
1!
#1070500
b1111 %
b0 -
0"
b0 #
#1075000
0!
#1080000
1!
#1080500
b1101 %
b1110 -
b1101 /
b111110000000 *
b111 1
b100 0
1"
b1000001000 #
#1085000
0!
#1090000
1'
1(
b100000 &
b1000001000 )
1!
#1090500
b1111 %
b0 -
0"
b0 #
#1095000
0!
#1100000
1!
#1100500
b1110 %
b1111 -
b1101 /
b111110000000 *
b111 1
b100 0
1"
b10000001000 #
#1105000
0!
#1110000
1'
1(
b1000000 &
b10000001000 )
1!
#1110500
b1111 %
b0 -
0"
b0 #
#1115000
0!
#1120000
1!
#1120500
b111 %
b1000 -
b1101 /
b111110000000 *
b111 1
b100 0
1"
b100000001000 #
#1125000
0!
#1130000
1'
1(
b10000000 &
b100000001000 )
1!
#1130500
b1111 %
b0 -
0"
b0 #
#1135000
0!
#1140000
1!
#1140500
1,
1+
b11 %
b100 -
b1101 /
b111110000000 *
b111 1
b100 0
1"
b1000000001000 #
#1145000
0!
#1150000
1'
1(
b0 &
b1000000001000 )
1!
#1150500
0+
b1111 %
b0 -
0"
b0 #
#1155000
0!
#1160000
1!
#1160500
0,
b0 .
b10 %
b11 -
b1101 /
b111110000000 *
b111 1
b100 0
1"
b110000 #
#1165000
0!
#1170000
1'
1(
b110 &
b110000 )
1!
#1170500
b1111 %
b0 -
0"
b0 #
#1175000
0!
#1180000
1!
#1180500
b1 %
b10 -
b1101 /
b111110000000 *
b111 1
b100 0
1"
b1010000 #
#1185000
0!
#1190000
1'
1(
b1010 &
b1010000 )
1!
#1190500
b1111 %
b0 -
0"
b0 #
#1195000
0!
#1200000
1!
#1200500
b1000 .
b1100 %
b1101 -
b1101 /
b111110000000 *
b111 1
b100 0
1"
b10010000 #
#1205000
0!
#1210000
1'
1(
b10 &
b10010000 )
1!
#1210500
b1111 %
b0 -
0"
b0 #
#1215000
0!
#1220000
1!
#1220500
b0 .
b1011 %
b1100 -
b1101 /
b111110000000 *
b111 1
b100 0
1"
b100010000 #
#1225000
0!
#1230000
1'
1(
b10010 &
b100010000 )
1!
#1230500
b1111 %
b0 -
0"
b0 #
#1235000
0!
#1240000
1!
#1240500
b1110 %
b1111 -
b1101 /
b111110000000 *
b111 1
b100 0
1"
b1000010000 #
#1245000
0!
#1250000
1'
1(
b100010 &
b1000010000 )
1!
#1250500
b1111 %
b0 -
0"
b0 #
#1255000
0!
#1260000
1!
#1260500
b1101 %
b1110 -
b1101 /
b111110000000 *
b111 1
b100 0
1"
b10000010000 #
#1265000
0!
#1270000
1'
1(
b1000010 &
b10000010000 )
1!
#1270500
b1111 %
b0 -
0"
b0 #
#1275000
0!
#1280000
1!
#1280500
b1000 %
b1001 -
b1101 /
b111110000000 *
b111 1
b100 0
1"
b100000010000 #
#1285000
0!
#1290000
1'
1(
b10000010 &
b100000010000 )
1!
#1290500
b1111 %
b0 -
0"
b0 #
#1295000
0!
#1300000
1!
#1300500
1,
1+
b100 %
b101 -
b1101 /
b111110000000 *
b111 1
b100 0
1"
b1000000010000 #
#1305000
0!
#1310000
1'
1(
b10 &
b1000000010000 )
1!
#1310500
0+
b1111 %
b0 -
0"
b0 #
#1315000
0!
#1320000
1!
#1320500
0,
b0 %
b1 -
b1101 /
b111110000000 *
b111 1
b100 0
1"
b1100000 #
#1325000
0!
#1330000
1'
1(
b1100 &
b1100000 )
1!
#1330500
b1111 %
b0 -
0"
b0 #
#1335000
0!
#1340000
1!
#1340500
b1000 .
b1101 %
b1110 -
b1101 /
b111110000000 *
b111 1
b100 0
1"
b10100000 #
#1345000
0!
#1350000
1'
1(
b100 &
b10100000 )
1!
#1350500
b1111 %
b0 -
0"
b0 #
#1355000
0!
#1360000
1!
#1360500
b0 .
b1110 %
b1111 -
b1101 /
b111110000000 *
b111 1
b100 0
1"
b100100000 #
#1365000
0!
#1370000
1'
1(
b10100 &
b100100000 )
1!
#1370500
b1111 %
b0 -
0"
b0 #
#1375000
0!
#1380000
1!
#1380500
b1011 %
b1100 -
b1101 /
b111110000000 *
b111 1
b100 0
1"
b1000100000 #
#1385000
0!
#1390000
1'
1(
b100100 &
b1000100000 )
1!
#1390500
b1111 %
b0 -
0"
b0 #
#1395000
0!
#1400000
1!
#1400500
b1100 %
b1101 -
b1101 /
b111110000000 *
b111 1
b100 0
1"
b10000100000 #
#1405000
0!
#1410000
1'
1(
b1000100 &
b10000100000 )
1!
#1410500
b1111 %
b0 -
0"
b0 #
#1415000
0!
#1420000
1!
#1420500
b1001 %
b1010 -
b1101 /
b111110000000 *
b111 1
b100 0
1"
b100000100000 #
#1425000
0!
#1430000
1'
1(
b10000100 &
b100000100000 )
1!
#1430500
b1111 %
b0 -
0"
b0 #
#1435000
0!
#1440000
1!
#1440500
1,
1+
b101 %
b110 -
b1101 /
b111110000000 *
b111 1
b100 0
1"
b1000000100000 #
#1445000
0!
#1450000
1'
1(
b100 &
b1000000100000 )
1!
#1450500
0+
b1111 %
b0 -
0"
b0 #
#1455000
0!
#1460000
1!
#1460500
0,
b1000 .
b1110 %
b1111 -
b1101 /
b111110000000 *
b111 1
b100 0
1"
b11000000 #
#1465000
0!
#1470000
1'
1(
b1000 &
b11000000 )
1!
#1470500
b1111 %
b0 -
0"
b0 #
#1475000
0!
#1480000
1!
#1480500
b0 .
b1101 %
b1110 -
b1101 /
b111110000000 *
b111 1
b100 0
1"
b101000000 #
#1485000
0!
#1490000
1'
1(
b11000 &
b101000000 )
1!
#1490500
b1111 %
b0 -
0"
b0 #
#1495000
0!
#1500000
1!
#1500500
b1100 %
b1101 -
b1101 /
b111110000000 *
b111 1
b100 0
1"
b1001000000 #
#1505000
0!
#1510000
1'
1(
b101000 &
b1001000000 )
1!
#1510500
b1111 %
b0 -
0"
b0 #
#1515000
0!
#1520000
1!
#1520500
b1011 %
b1100 -
b1101 /
b111110000000 *
b111 1
b100 0
1"
b10001000000 #
#1525000
0!
#1530000
1'
1(
b1001000 &
b10001000000 )
1!
#1530500
b1111 %
b0 -
0"
b0 #
#1535000
0!
#1540000
1!
#1540500
b1010 %
b1011 -
b1101 /
b111110000000 *
b111 1
b100 0
1"
b100001000000 #
#1545000
0!
#1550000
1'
1(
b10001000 &
b100001000000 )
1!
#1550500
b1111 %
b0 -
0"
b0 #
#1555000
0!
#1560000
1!
#1560500
1,
1+
b110 %
b111 -
b1101 /
b111110000000 *
b111 1
b100 0
1"
b1000001000000 #
#1565000
0!
#1570000
1'
1(
b1000 &
b1000001000000 )
1!
#1570500
0+
b1111 %
b0 -
0"
b0 #
#1575000
0!
#1580000
1!
#1580500
0,
b1000 .
b0 %
b1 -
b1101 /
b111110000000 *
b111 1
b100 0
1"
b110000000 #
#1585000
0!
#1590000
1'
1(
b10000 &
b110000000 )
1!
#1590500
b1111 %
b0 -
0"
b0 #
#1595000
0!
#1600000
1!
#1600500
b1 %
b10 -
b1101 /
b111110000000 *
b111 1
b100 0
1"
b1010000000 #
#1605000
0!
#1610000
1'
1(
b100000 &
b1010000000 )
1!
#1610500
b1111 %
b0 -
0"
b0 #
#1615000
0!
#1620000
1!
#1620500
b10 %
b11 -
b1101 /
b111110000000 *
b111 1
b100 0
1"
b10010000000 #
#1625000
0!
#1630000
1'
1(
b1000000 &
b10010000000 )
1!
#1630500
b1111 %
b0 -
0"
b0 #
#1635000
0!
#1640000
1!
#1640500
b11 %
b100 -
b1101 /
b111110000000 *
b111 1
b100 0
1"
b100010000000 #
#1645000
0!
#1650000
1'
1(
b10000000 &
b100010000000 )
1!
#1650500
b1111 %
b0 -
0"
b0 #
#1655000
0!
#1660000
1!
#1660500
1,
1+
b111 %
b1000 -
b1101 /
b111110000000 *
b111 1
b100 0
1"
b1000010000000 #
#1665000
0!
#1670000
1'
1(
b0 &
b1000010000000 )
1!
#1670500
0+
b1111 %
b0 -
0"
b0 #
#1675000
0!
#1680000
1!
#1680500
0,
b0 .
b10 %
b11 -
b1101 /
b111110000000 *
b111 1
b100 0
1"
b1100000000 #
#1685000
0!
#1690000
1'
1(
b110000 &
b1100000000 )
1!
#1690500
b1111 %
b0 -
0"
b0 #
#1695000
0!
#1700000
1!
#1700500
b1 %
b10 -
b1101 /
b111110000000 *
b111 1
b100 0
1"
b10100000000 #
#1705000
0!
#1710000
1'
1(
b1010000 &
b10100000000 )
1!
#1710500
b1111 %
b0 -
0"
b0 #
#1715000
0!
#1720000
1!
#1720500
b100 %
b101 -
b1101 /
b111110000000 *
b111 1
b100 0
1"
b100100000000 #
#1725000
0!
#1730000
1'
1(
b10010000 &
b100100000000 )
1!
#1730500
b1111 %
b0 -
0"
b0 #
#1735000
0!
#1740000
1!
#1740500
1,
1+
b1000 %
b1001 -
b1101 /
b111110000000 *
b111 1
b100 0
1"
b1000100000000 #
#1745000
0!
#1750000
1'
1(
b10000 &
b1000100000000 )
1!
#1750500
0+
b1111 %
b0 -
0"
b0 #
#1755000
0!
#1760000
1!
#1760500
0,
b0 %
b1 -
b1101 /
b111110000000 *
b111 1
b100 0
1"
b11000000000 #
#1765000
0!
#1770000
1'
1(
b1100000 &
b11000000000 )
1!
#1770500
b1111 %
b0 -
0"
b0 #
#1775000
0!
#1780000
1!
#1780500
b101 %
b110 -
b1101 /
b111110000000 *
b111 1
b100 0
1"
b101000000000 #
#1785000
0!
#1790000
1'
1(
b10100000 &
b101000000000 )
1!
#1790500
b1111 %
b0 -
0"
b0 #
#1795000
0!
#1800000
1!
#1800500
1,
1+
b1001 %
b1010 -
b1101 /
b111110000000 *
b111 1
b100 0
1"
b1001000000000 #
#1805000
0!
#1810000
1'
1(
b100000 &
b1001000000000 )
1!
#1810500
0+
b1111 %
b0 -
0"
b0 #
#1815000
0!
#1820000
1!
#1820500
0,
b110 %
b111 -
b1101 /
b111110000000 *
b111 1
b100 0
1"
b110000000000 #
#1825000
0!
#1830000
1'
1(
b11000000 &
b110000000000 )
1!
#1830500
b1111 %
b0 -
0"
b0 #
#1835000
0!
#1840000
1!
#1840500
1,
1+
b1010 %
b1011 -
b1101 /
b111110000000 *
b111 1
b100 0
1"
b1010000000000 #
#1845000
0!
#1850000
1'
1(
b1000000 &
b1010000000000 )
1!
#1850500
0+
b1111 %
b0 -
0"
b0 #
#1855000
0!
#1860000
1!
#1860500
1+
b1011 %
b1100 -
b1101 /
b111110000000 *
b111 1
b100 0
1"
b1100000000000 #
#1865000
0!
#1870000
1'
1(
b10000000 &
b1100000000000 )
1!
#1870500
0+
b1111 %
b0 -
0"
b0 #
#1875000
0!
#1880000
1!
#1880500
0,
b1111 %
b0 -
b1101 /
b111110000000 *
b11 .
b111 1
b100 0
1"
b111101110111 #
#1885000
0!
#1890000
0'
0(
b11111111 &
b111101110111 )
1!
#1890500
0"
b0 #
#1895000
0!
#1900000
1!
#1900500
1+
b0 %
b1 -
b1101 /
b111110000000 *
b10 .
b111 1
b100 0
1"
b111101110110 #
#1905000
0!
#1910000
1(
b111101110111 )
1!
#1910500
0+
b1111 %
b0 -
0"
b0 #
#1915000
0!
#1920000
1!
#1920500
1+
b1 %
b10 -
b1101 /
b111110000000 *
b1 .
b111 1
b100 0
1"
b111101110101 #
#1925000
0!
#1930000
1(
b111101110111 )
1!
#1930500
0+
b1111 %
b0 -
0"
b0 #
#1935000
0!
#1940000
1!
#1940500
1+
b11 .
b10 %
b11 -
b1101 /
b111110000000 *
b111 1
b100 0
1"
b111101110011 #
#1945000
0!
#1950000
1(
b11111111 &
b111101110111 )
1!
#1950500
0+
b1111 %
b0 -
0"
b0 #
#1955000
0!
#1960000
1!
#1960500
1+
b111 .
b11 %
b100 -
b1101 /
b111110000000 *
b111 1
b100 0
1"
b111101111111 #
#1965000
0!
#1970000
1(
b111101110111 )
1!
#1970500
0+
b1111 %
b0 -
0"
b0 #
#1975000
0!
#1980000
1!
#1980500
1+
b11 .
b100 %
b101 -
b1101 /
b111110000000 *
b111 1
b100 0
1"
b111101100111 #
#1985000
0!
#1990000
1(
b11111111 &
b111101110111 )
1!
#1990500
0+
b1111 %
b0 -
0"
b0 #
#1995000
0!
#2000000
1!
#2000500
1+
b101 %
b110 -
b1101 /
b111110000000 *
b111 1
b100 0
1"
b111101010111 #
#2005000
0!
#2010000
1(
b11111111 &
b111101110111 )
1!
#2010500
0+
b1111 %
b0 -
0"
b0 #
#2015000
0!
#2020000
1!
#2020500
1+
b110 %
b111 -
b1101 /
b111110000000 *
b111 1
b100 0
1"
b111100110111 #
#2025000
0!
#2030000
1(
b11111111 &
b111101110111 )
1!
#2030500
0+
b1111 %
b0 -
0"
b0 #
#2035000
0!
#2040000
1!
#2040500
1+
b1011 .
b111 %
b1000 -
b1101 /
b111110000000 *
b111 1
b100 0
1"
b111111110111 #
#2045000
0!
#2050000
1(
b111101110111 )
1!
#2050500
0+
b1111 %
b0 -
0"
b0 #
#2055000
0!
#2060000
1!
#2060500
1+
b11 .
b1000 %
b1001 -
b1101 /
b111110000000 *
b111 1
b100 0
1"
b111001110111 #
#2065000
0!
#2070000
1(
b11111111 &
b111101110111 )
1!
#2070500
0+
b1111 %
b0 -
0"
b0 #
#2075000
0!
#2080000
1!
#2080500
1+
b1001 %
b1010 -
b1101 /
b111110000000 *
b111 1
b100 0
1"
b110101110111 #
#2085000
0!
#2090000
1(
b11111111 &
b111101110111 )
1!
#2090500
0+
b1111 %
b0 -
0"
b0 #
#2095000
0!
#2100000
1!
#2100500
1+
b1010 %
b1011 -
b1101 /
b111110000000 *
b111 1
b100 0
1"
b101101110111 #
#2105000
0!
#2110000
1(
b11111111 &
b111101110111 )
1!
#2110500
0+
b1111 %
b0 -
0"
b0 #
#2115000
0!
#2120000
1!
#2120500
1+
b1011 %
b1100 -
b1101 /
b111110000000 *
b111 1
b100 0
1"
b11101110111 #
#2125000
0!
#2130000
1(
b11111111 &
b111101110111 )
1!
#2130500
0+
b1111 %
b0 -
0"
b0 #
#2135000
0!
#2140000
1!
#2140500
1,
b1111 %
b0 -
b1101 /
b111110000000 *
b111 1
b100 0
1"
b1111101110111 #
#2145000
0!
#2150000
1(
b1111101110111 )
1!
#2150500
0"
b0 #
#2155000
0!
#2160000
1!
#2160500
0,
b10 %
b11 -
b1101 /
b111110000000 *
b0 .
b111 1
b100 0
1"
b111101110100 #
#2165000
0!
#2170000
1'
1(
b111101110100 )
1!
#2170500
b1111 %
b0 -
0"
b0 #
#2175000
0!
#2180000
1!
#2180500
b10 .
b1 %
b10 -
b1101 /
b111110000000 *
b111 1
b100 0
1"
b111101110010 #
#2185000
0!
#2190000
1'
1(
b11111110 &
b111101110010 )
1!
#2190500
b1111 %
b0 -
0"
b0 #
#2195000
0!
#2200000
1!
#2200500
b110 .
b100 %
b101 -
b1101 /
b111110000000 *
b111 1
b100 0
1"
b111101111110 #
#2205000
0!
#2210000
1'
1(
b11111111 &
b111101111110 )
1!
#2210500
b1111 %
b0 -
0"
b0 #
#2215000
0!
#2220000
1!
#2220500
b10 .
b11 %
b100 -
b1101 /
b111110000000 *
b111 1
b100 0
1"
b111101100110 #
#2225000
0!
#2230000
1'
1(
b11111101 &
b111101100110 )
1!
#2230500
b1111 %
b0 -
0"
b0 #
#2235000
0!
#2240000
1!
#2240500
b110 %
b111 -
b1101 /
b111110000000 *
b111 1
b100 0
1"
b111101010110 #
#2245000
0!
#2250000
1'
1(
b11111011 &
b111101010110 )
1!
#2250500
b1111 %
b0 -
0"
b0 #
#2255000
0!
#2260000
1!
#2260500
b101 %
b110 -
b1101 /
b111110000000 *
b111 1
b100 0
1"
b111100110110 #
#2265000
0!
#2270000
1'
1(
b11110111 &
b111100110110 )
1!
#2270500
b1111 %
b0 -
0"
b0 #
#2275000
0!
#2280000
1!
