val/common_level0/shifter_lfsr_galois/dump.vcd
$date
	Thu Feb 29 00:40:54 2024
$end
$version
	Icarus Verilog
$end
$timescale
	1ps
$end
$scope module shifter_lfsr_galois $end
$var wire 1 ! i_clk $end
$var wire 1 " i_enable $end
$var wire 1 # i_rst_n $end
$var wire 8 $ i_seed_data [7:0] $end
$var wire 1 % i_seed_load $end
$var wire 48 & i_taps [47:0] $end
$var wire 1 ' ow_lfsr_done $end
$var reg 8 ( o_lfsr_out [7:0] $end
$var integer 32 ) i [31:0] $end
$var integer 32 * j [31:0] $end
$upscope $end
$enddefinitions $end
#0
$dumpvars
bx *
b100 )
b11111111 (
0'
b0 &
0%
b0 $
0#
0"
1!
$end
#5000
0!
#10000
1!
#15000
1#
0!
#20000
1!
#25000
0!
#30000
1!
#35000
b100 )
b1000000000000110000000000101000000000100 &
b11110111 $
1%
0!
#40000
1!
#45000
0!
#50000
1!
#55000
1"
0%
0!
#60000
b1000111 (
b100 *
1!
#65000
0!
#70000
b110 (
b100 *
1!
#75000
0!
#80000
b100 (
b100 *
1!
#85000
0!
#90000
b0 (
b100 *
1!
#95000
0!
#100000
b100 *
1!
#105000
0!
#110000
b100 *
1!
#115000
0!
#120000
b100 *
1!
#125000
0!
#130000
b100 *
1!
#135000
0!
#140000
b100 *
1!
#145000
0!
#150000
b100 *
1!
#155000
0!
#160000
b100 *
1!
#165000
0!
#170000
b100 *
1!
#175000
0!
#180000
b100 *
1!
#185000
0!
#190000
b100 *
1!
#195000
0!
#200000
b100 *
1!
#205000
0!
#210000
b100 *
1!
#215000
0!
#220000
b100 *
1!
#225000
0!
#230000
b100 *
1!
#235000
0!
#240000
b100 *
1!
#245000
0!
#250000
b100 *
1!
#255000
0!
#260000
b100 *
1!
#265000
0!
#270000
b100 *
1!
#275000
0!
#280000
b100 *
1!
#285000
0!
#290000
b100 *
1!
#295000
0!
#300000
b100 *
1!
#305000
0!
#310000
b100 *
1!
#315000
0!
#320000
b100 *
1!
#325000
0!
#330000
b100 *
1!
#335000
0!
#340000
b100 *
1!
#345000
0!
#350000
b100 *
1!
#355000
0!
#360000
b100 *
1!
#365000
0!
#370000
b100 *
1!
#375000
0!
#380000
b100 *
1!
#385000
0!
#390000
b100 *
1!
#395000
0!
#400000
b100 *
1!
#405000
0!
#410000
b100 *
1!
#415000
0!
#420000
b100 *
1!
#425000
0!
#430000
b100 *
1!
#435000
0!
#440000
b100 *
1!
#445000
0!
#450000
b100 *
1!
#455000
0!
#460000
b100 *
1!
#465000
0!
#470000
b100 *
1!
#475000
0!
#480000
b100 *
1!
#485000
0!
#490000
b100 *
1!
#495000
0!
#500000
b100 *
1!
#505000
0!
#510000
b100 *
1!
#515000
0!
#520000
b100 *
1!
#525000
0!
#530000
b100 *
1!
#535000
0!
#540000
b100 *
1!
#545000
0!
#550000
b100 *
1!
#555000
0!
#560000
b100 *
1!
#565000
0!
#570000
b100 *
1!
#575000
0!
#580000
b100 *
1!
#585000
0!
#590000
b100 *
1!
#595000
0!
#600000
b100 *
1!
#605000
0!
#610000
b100 *
1!
#615000
0!
#620000
b100 *
1!
#625000
0!
#630000
b100 *
1!
#635000
0!
#640000
b100 *
1!
#645000
0!
#650000
b100 *
1!
#655000
0!
#660000
b100 *
1!
#665000
0!
#670000
b100 *
1!
#675000
0!
#680000
b100 *
1!
#685000
0!
#690000
b100 *
1!
#695000
0!
#700000
b100 *
1!
#705000
0!
#710000
b100 *
1!
#715000
0!
#720000
b100 *
1!
#725000
0!
#730000
b100 *
1!
#735000
0!
#740000
b100 *
1!
#745000
0!
#750000
b100 *
1!
#755000
0!
#760000
b100 *
1!
#765000
0!
#770000
b100 *
1!
#775000
0!
#780000
b100 *
1!
#785000
0!
#790000
b100 *
1!
#795000
0!
#800000
b100 *
1!
#805000
0!
#810000
b100 *
1!
#815000
0!
#820000
b100 *
1!
#825000
0!
#830000
b100 *
1!
#835000
0!
#840000
b100 *
1!
#845000
0!
#850000
b100 *
1!
#855000
0!
#860000
b100 *
1!
#865000
0!
#870000
b100 *
1!
#875000
0!
#880000
b100 *
1!
#885000
0!
#890000
b100 *
1!
#895000
0!
#900000
b100 *
1!
#905000
0!
#910000
b100 *
1!
#915000
0!
#920000
b100 *
1!
#925000
0!
#930000
b100 *
1!
#935000
0!
#940000
b100 *
1!
#945000
0!
#950000
b100 *
1!
#955000
0!
#960000
b100 *
1!
#965000
0!
#970000
b100 *
1!
#975000
0!
#980000
b100 *
1!
#985000
0!
#990000
b100 *
1!
#995000
0!
#1000000
b100 *
1!
#1005000
0!
#1010000
b100 *
1!
#1015000
0!
#1020000
b100 *
1!
#1025000
0!
#1030000
b100 *
1!
#1035000
0!
#1040000
b100 *
1!
#1045000
0!
#1050000
b100 *
1!
#1055000
0!
#1060000
b100 *
1!
#1065000
0!
#1070000
b100 *
1!
#1075000
0!
#1080000
b100 *
1!
#1085000
0!
#1090000
b100 *
1!
#1095000
0!
#1100000
b100 *
1!
#1105000
0!
#1110000
b100 *
1!
#1115000
0!
#1120000
b100 *
1!
#1125000
0!
#1130000
b100 *
1!
#1135000
0!
#1140000
b100 *
1!
#1145000
0!
#1150000
b100 *
1!
#1155000
0!
#1160000
b100 *
1!
#1165000
0!
#1170000
b100 *
1!
#1175000
0!
#1180000
b100 *
1!
#1185000
0!
#1190000
b100 *
1!
#1195000
0!
#1200000
b100 *
1!
#1205000
0!
#1210000
b100 *
1!
#1215000
0!
#1220000
b100 *
1!
#1225000
0!
#1230000
b100 *
1!
#1235000
0!
#1240000
b100 *
1!
#1245000
0!
#1250000
b100 *
1!
#1255000
0!
#1260000
b100 *
1!
#1265000
0!
#1270000
b100 *
1!
#1275000
0!
#1280000
b100 *
1!
#1285000
0!
#1290000
b100 *
1!
#1295000
0!
#1300000
b100 *
1!
#1305000
0!
#1310000
b100 *
1!
#1315000
0!
#1320000
b100 *
1!
#1325000
0!
#1330000
b100 *
1!
#1335000
0!
#1340000
b100 *
1!
#1345000
0!
#1350000
b100 *
1!
#1355000
0!
#1360000
b100 *
1!
#1365000
0!
#1370000
b100 *
1!
#1375000
0!
#1380000
b100 *
1!
#1385000
0!
#1390000
b100 *
1!
#1395000
0!
#1400000
b100 *
1!
#1405000
0!
#1410000
b100 *
1!
#1415000
0!
#1420000
b100 *
1!
#1425000
0!
#1430000
b100 *
1!
#1435000
0!
#1440000
b100 *
1!
#1445000
0!
#1450000
b100 *
1!
#1455000
0!
#1460000
b100 *
1!
#1465000
0!
#1470000
b100 *
1!
#1475000
0!
#1480000
b100 *
1!
#1485000
0!
#1490000
b100 *
1!
#1495000
0!
#1500000
b100 *
1!
#1505000
0!
#1510000
b100 *
1!
#1515000
0!
#1520000
b100 *
1!
#1525000
0!
#1530000
b100 *
1!
#1535000
0!
#1540000
b100 *
1!
#1545000
0!
#1550000
b100 *
1!
#1555000
0!
#1560000
b100 *
1!
#1565000
0!
#1570000
b100 *
1!
#1575000
0!
#1580000
b100 *
1!
#1585000
0!
#1590000
b100 *
1!
#1595000
0!
#1600000
b100 *
1!
#1605000
0!
#1610000
b100 *
1!
#1615000
0!
#1620000
b100 *
1!
#1625000
0!
#1630000
b100 *
1!
#1635000
0!
#1640000
b100 *
1!
#1645000
0!
#1650000
b100 *
1!
#1655000
0!
#1660000
b100 *
1!
#1665000
0!
#1670000
b100 *
1!
#1675000
0!
#1680000
b100 *
1!
#1685000
0!
#1690000
b100 *
1!
#1695000
0!
#1700000
b100 *
1!
#1705000
0!
#1710000
b100 *
1!
#1715000
0!
#1720000
b100 *
1!
#1725000
0!
#1730000
b100 *
1!
#1735000
0!
#1740000
b100 *
1!
#1745000
0!
#1750000
b100 *
1!
#1755000
0!
#1760000
b100 *
1!
#1765000
0!
#1770000
b100 *
1!
#1775000
0!
#1780000
b100 *
1!
#1785000
0!
#1790000
b100 *
1!
#1795000
0!
#1800000
b100 *
1!
#1805000
0!
#1810000
b100 *
1!
#1815000
0!
#1820000
b100 *
1!
#1825000
0!
#1830000
b100 *
1!
#1835000
0!
#1840000
b100 *
1!
#1845000
0!
#1850000
b100 *
1!
#1855000
0!
#1860000
b100 *
1!
#1865000
0!
#1870000
b100 *
1!
#1875000
0!
#1880000
b100 *
1!
#1885000
0!
#1890000
b100 *
1!
#1895000
0!
#1900000
b100 *
1!
#1905000
0!
#1910000
b100 *
1!
#1915000
0!
#1920000
b100 *
1!
#1925000
0!
#1930000
b100 *
1!
#1935000
0!
#1940000
b100 *
1!
#1945000
0!
#1950000
b100 *
1!
#1955000
0!
#1960000
b100 *
1!
#1965000
0!
#1970000
b100 *
1!
#1975000
0!
#1980000
b100 *
1!
#1985000
0!
#1990000
b100 *
1!
#1995000
0!
#2000000
b100 *
1!
#2005000
0!
#2010000
b100 *
1!
#2015000
0!
#2020000
b100 *
1!
#2025000
0!
#2030000
b100 *
1!
#2035000
0!
#2040000
b100 *
1!
#2045000
0!
#2050000
b100 *
1!
#2055000
0!
#2060000
b100 *
1!
#2065000
0!
#2070000
b100 *
1!
#2075000
0!
#2080000
b100 *
1!
#2085000
0!
#2090000
b100 *
1!
#2095000
0!
#2100000
b100 *
1!
#2105000
0!
#2110000
b100 *
1!
#2115000
0!
#2120000
b100 *
1!
#2125000
0!
#2130000
b100 *
1!
#2135000
0!
#2140000
b100 *
1!
#2145000
0!
#2150000
b100 *
1!
#2155000
0!
#2160000
b100 *
1!
#2165000
0!
#2170000
b100 *
1!
#2175000
0!
#2180000
b100 *
1!
#2185000
0!
#2190000
b100 *
1!
#2195000
0!
#2200000
b100 *
1!
#2205000
0!
#2210000
b100 *
1!
#2215000
0!
#2220000
b100 *
1!
#2225000
0!
#2230000
b100 *
1!
#2235000
0!
#2240000
b100 *
1!
#2245000
0!
#2250000
b100 *
1!
#2255000
0!
#2260000
b100 *
1!
#2265000
0!
#2270000
b100 *
1!
#2275000
0!
#2280000
b100 *
1!
#2285000
0!
#2290000
b100 *
1!
#2295000
0!
#2300000
b100 *
1!
#2305000
0!
#2310000
b100 *
1!
#2315000
0!
#2320000
b100 *
1!
#2325000
0!
#2330000
b100 *
1!
#2335000
0!
#2340000
b100 *
1!
#2345000
0!
#2350000
b100 *
1!
#2355000
0!
#2360000
b100 *
1!
#2365000
0!
#2370000
b100 *
1!
#2375000
0!
#2380000
b100 *
1!
#2385000
0!
#2390000
b100 *
1!
#2395000
0!
#2400000
b100 *
1!
#2405000
0!
#2410000
b100 *
1!
#2415000
0!
#2420000
b100 *
1!
#2425000
0!
#2430000
b100 *
1!
#2435000
0!
#2440000
b100 *
1!
#2445000
0!
#2450000
b100 *
1!
#2455000
0!
#2460000
b100 *
1!
#2465000
0!
#2470000
b100 *
1!
#2475000
0!
#2480000
b100 *
1!
#2485000
0!
#2490000
b100 *
1!
#2495000
0!
#2500000
b100 *
1!
#2505000
0!
#2510000
b100 *
1!
#2515000
0!
#2520000
b100 *
1!
#2525000
0!
#2530000
b100 *
1!
#2535000
0!
#2540000
b100 *
1!
#2545000
0!
#2550000
b100 *
1!
#2555000
0!
#2560000
b100 *
1!
#2565000
0!
#2570000
b100 *
1!
#2575000
0!
#2580000
b100 *
1!
#2585000
0!
#2590000
b100 *
1!
#2595000
0!
#2600000
b100 *
1!
#2605000
0!
#2610000
b100 *
1!
#2615000
0!
#2620000
b100 *
1!
