val/common_level1/arbiter_round_robin_wrapper/dump.vcd
$date
	Fri Jan 19 23:21:07 2024
$end
$version
	Icarus Verilog
$end
$timescale
	1ps
$end
$scope module round_robin_wrapper $end
$scope module u_fifo_sync_A $end
$var wire 1 ! i_clk $end
$var wire 1 " i_read $end
$var wire 1 # i_rst_n $end
$var wire 8 $ i_wr_data [7:0] $end
$var wire 1 % i_write $end
$var wire 8 & ow_rd_data [7:0] $end
$var wire 1 ' ow_rd_empty $end
$var wire 1 ( ow_wr_full $end
$var wire 1 ) w_ptr_xor $end
$var wire 4 * w_almost_full_count [3:0] $end
$var wire 4 + w_almost_empty_count [3:0] $end
$var wire 5 , r_wr_ptr_bin [4:0] $end
$var wire 4 - r_wr_addr [3:0] $end
$var wire 5 . r_rd_ptr_bin [4:0] $end
$var wire 4 / r_rd_addr [3:0] $end
$var wire 1 0 ow_wr_almost_full $end
$var wire 1 1 ow_rd_almost_empty $end
$var wire 128 2 flat_r_mem [127:0] $end
$scope begin gen_flatten_memory[0] $end
$upscope $end
$scope begin gen_flatten_memory[1] $end
$upscope $end
$scope begin gen_flatten_memory[2] $end
$upscope $end
$scope begin gen_flatten_memory[3] $end
$upscope $end
$scope begin gen_flatten_memory[4] $end
$upscope $end
$scope begin gen_flatten_memory[5] $end
$upscope $end
$scope begin gen_flatten_memory[6] $end
$upscope $end
$scope begin gen_flatten_memory[7] $end
$upscope $end
$scope begin gen_flatten_memory[8] $end
$upscope $end
$scope begin gen_flatten_memory[9] $end
$upscope $end
$scope begin gen_flatten_memory[10] $end
$upscope $end
$scope begin gen_flatten_memory[11] $end
$upscope $end
$scope begin gen_flatten_memory[12] $end
$upscope $end
$scope begin gen_flatten_memory[13] $end
$upscope $end
$scope begin gen_flatten_memory[14] $end
$upscope $end
$scope begin gen_flatten_memory[15] $end
$upscope $end
$scope module read_counter $end
$var wire 1 ! i_clk $end
$var wire 1 3 i_enable $end
$var wire 1 # i_rst_n $end
$var reg 5 4 o_counter_bin [4:0] $end
$upscope $end
$scope module write_counter $end
$var wire 1 ! i_clk $end
$var wire 1 5 i_enable $end
$var wire 1 # i_rst_n $end
$var reg 5 6 o_counter_bin [4:0] $end
$upscope $end
$upscope $end
$upscope $end
$scope module round_robin_wrapper $end
$scope module u_fifo_sync_B $end
$var wire 1 ! i_clk $end
$var wire 1 7 i_read $end
$var wire 1 # i_rst_n $end
$var wire 8 8 i_wr_data [7:0] $end
$var wire 1 9 i_write $end
$var wire 8 : ow_rd_data [7:0] $end
$var wire 1 ; ow_rd_empty $end
$var wire 1 < ow_wr_full $end
$var wire 1 = w_ptr_xor $end
$var wire 3 > w_almost_full_count [2:0] $end
$var wire 3 ? w_almost_empty_count [2:0] $end
$var wire 4 @ r_wr_ptr_bin [3:0] $end
$var wire 3 A r_wr_addr [2:0] $end
$var wire 4 B r_rd_ptr_bin [3:0] $end
$var wire 3 C r_rd_addr [2:0] $end
$var wire 1 D ow_wr_almost_full $end
$var wire 1 E ow_rd_almost_empty $end
$var wire 64 F flat_r_mem [63:0] $end
$scope begin gen_flatten_memory[0] $end
$upscope $end
$scope begin gen_flatten_memory[1] $end
$upscope $end
$scope begin gen_flatten_memory[2] $end
$upscope $end
$scope begin gen_flatten_memory[3] $end
$upscope $end
$scope begin gen_flatten_memory[4] $end
$upscope $end
$scope begin gen_flatten_memory[5] $end
$upscope $end
$scope begin gen_flatten_memory[6] $end
$upscope $end
$scope begin gen_flatten_memory[7] $end
$upscope $end
$scope module read_counter $end
$var wire 1 ! i_clk $end
$var wire 1 G i_enable $end
$var wire 1 # i_rst_n $end
$var reg 4 H o_counter_bin [3:0] $end
$upscope $end
$scope module write_counter $end
$var wire 1 ! i_clk $end
$var wire 1 I i_enable $end
$var wire 1 # i_rst_n $end
$var reg 4 J o_counter_bin [3:0] $end
$upscope $end
$upscope $end
$upscope $end
$scope module round_robin_wrapper $end
$scope module u_fifo_sync_C $end
$var wire 1 ! i_clk $end
$var wire 1 K i_read $end
$var wire 1 # i_rst_n $end
$var wire 8 L i_wr_data [7:0] $end
$var wire 1 M i_write $end
$var wire 8 N ow_rd_data [7:0] $end
$var wire 1 O ow_rd_empty $end
$var wire 1 P ow_wr_full $end
$var wire 1 Q w_ptr_xor $end
$var wire 2 R w_almost_full_count [1:0] $end
$var wire 2 S w_almost_empty_count [1:0] $end
$var wire 3 T r_wr_ptr_bin [2:0] $end
$var wire 2 U r_wr_addr [1:0] $end
$var wire 3 V r_rd_ptr_bin [2:0] $end
$var wire 2 W r_rd_addr [1:0] $end
$var wire 1 X ow_wr_almost_full $end
$var wire 1 Y ow_rd_almost_empty $end
$var wire 32 Z flat_r_mem [31:0] $end
$scope begin gen_flatten_memory[0] $end
$upscope $end
$scope begin gen_flatten_memory[1] $end
$upscope $end
$scope begin gen_flatten_memory[2] $end
$upscope $end
$scope begin gen_flatten_memory[3] $end
$upscope $end
$scope module read_counter $end
$var wire 1 ! i_clk $end
$var wire 1 [ i_enable $end
$var wire 1 # i_rst_n $end
$var reg 3 \ o_counter_bin [2:0] $end
$upscope $end
$scope module write_counter $end
$var wire 1 ! i_clk $end
$var wire 1 ] i_enable $end
$var wire 1 # i_rst_n $end
$var reg 3 ^ o_counter_bin [2:0] $end
$upscope $end
$upscope $end
$upscope $end
$scope module round_robin_wrapper $end
$scope module u_fifo_sync_D $end
$var wire 1 ! i_clk $end
$var wire 1 _ i_read $end
$var wire 1 # i_rst_n $end
$var wire 8 ` i_wr_data [7:0] $end
$var wire 1 a i_write $end
$var wire 8 b ow_rd_data [7:0] $end
$var wire 1 c ow_rd_empty $end
$var wire 1 d ow_wr_full $end
$var wire 1 e w_ptr_xor $end
$var wire 2 f w_almost_full_count [1:0] $end
$var wire 2 g w_almost_empty_count [1:0] $end
$var wire 3 h r_wr_ptr_bin [2:0] $end
$var wire 2 i r_wr_addr [1:0] $end
$var wire 3 j r_rd_ptr_bin [2:0] $end
$var wire 2 k r_rd_addr [1:0] $end
$var wire 1 l ow_wr_almost_full $end
$var wire 1 m ow_rd_almost_empty $end
$var wire 32 n flat_r_mem [31:0] $end
$scope begin gen_flatten_memory[0] $end
$upscope $end
$scope begin gen_flatten_memory[1] $end
$upscope $end
$scope begin gen_flatten_memory[2] $end
$upscope $end
$scope begin gen_flatten_memory[3] $end
$upscope $end
$scope module read_counter $end
$var wire 1 ! i_clk $end
$var wire 1 o i_enable $end
$var wire 1 # i_rst_n $end
$var reg 3 p o_counter_bin [2:0] $end
$upscope $end
$scope module write_counter $end
$var wire 1 ! i_clk $end
$var wire 1 q i_enable $end
$var wire 1 # i_rst_n $end
$var reg 3 r o_counter_bin [2:0] $end
$upscope $end
$upscope $end
$upscope $end
$scope module round_robin_wrapper $end
$scope module u_pwm $end
$var wire 1 ! i_clk $end
$var wire 11 s i_duty [10:0] $end
$var wire 11 t i_period [10:0] $end
$var wire 11 u i_repeat_count [10:0] $end
$var wire 1 # i_rst_n $end
$var wire 1 v i_start $end
$var wire 1 w ow_done $end
$var reg 1 x o_pwm $end
$scope begin gen_channel[0] $end
$var wire 1 y w_counting $end
$var wire 1 z w_done_repeat $end
$var wire 1 { w_count_met $end
$var reg 11 | r_count [10:0] $end
$var reg 11 } r_repeat_value [10:0] $end
$upscope $end
$upscope $end
$upscope $end
$scope module round_robin_wrapper $end
$scope module u_arbiter_round_robin $end
$var wire 1 ! i_clk $end
$var wire 4 ~ i_req [3:0] $end
$var wire 1 # i_rst_n $end
$var wire 4 !" w_req_masked [3:0] $end
$var wire 1 "" w_vld_ffs_reqm $end
$var wire 1 #" w_vld_ffs_req $end
$var wire 3 $" w_reqm_location [2:0] $end
$var wire 4 %" w_req_win_mask [3:0] $end
$var wire 4 &" w_req_post [3:0] $end
$var wire 3 '" w_req_location [2:0] $end
$var wire 1 x i_block_arb $end
$var reg 4 (" o_gnt [3:0] $end
$var reg 4 )" r_mask [3:0] $end
$var reg 4 *" r_win_mask_only [3:0] $end
$var reg 1 +" w_win_vld $end
$var reg 3 ," w_winner [2:0] $end
$scope module u_req_leading_one_trailing_one $end
$var wire 4 -" i_data [3:0] $end
$var wire 1 ." ow_all_zeroes $end
$var wire 1 #" ow_valid $end
$var wire 3 /" ow_trailingone [2:0] $end
$var wire 3 0" ow_leadingone [2:0] $end
$var wire 1 1" ow_all_ones $end
$var reg 4 2" ow_leadingone_vector [3:0] $end
$var reg 4 3" ow_trailingone_vector [3:0] $end
$scope module u_find_first_set $end
$var wire 4 4" i_data [3:0] $end
$var reg 3 5" ow_index [2:0] $end
$scope function find_set_index $end
$scope begin $ivl_for_loop0 $end
$upscope $end
$upscope $end
$upscope $end
$scope module u_find_last_set $end
$var wire 4 6" i_data [3:0] $end
$var reg 3 7" ow_index [2:0] $end
$scope function find_last_set_index $end
$scope begin $ivl_for_loop1 $end
$upscope $end
$upscope $end
$upscope $end
$upscope $end
$scope module u_reqm_leading_one_trailing_one $end
$var wire 4 8" i_data [3:0] $end
$var wire 1 9" ow_all_zeroes $end
$var wire 1 "" ow_valid $end
$var wire 3 :" ow_trailingone [2:0] $end
$var wire 3 ;" ow_leadingone [2:0] $end
$var wire 1 <" ow_all_ones $end
$var reg 4 =" ow_leadingone_vector [3:0] $end
$var reg 4 >" ow_trailingone_vector [3:0] $end
$scope module u_find_first_set $end
$var wire 4 ?" i_data [3:0] $end
$var reg 3 @" ow_index [2:0] $end
$scope function find_set_index $end
$scope begin $ivl_for_loop0 $end
$upscope $end
$upscope $end
$upscope $end
$scope module u_find_last_set $end
$var wire 4 A" i_data [3:0] $end
$var reg 3 B" ow_index [2:0] $end
$scope function find_last_set_index $end
$scope begin $ivl_for_loop1 $end
$upscope $end
$upscope $end
$upscope $end
$upscope $end
$upscope $end
$upscope $end
$scope module round_robin_wrapper $end
$scope module u_fifo_sync_E $end
$var wire 1 ! i_clk $end
$var wire 1 C" i_read $end
$var wire 1 # i_rst_n $end
$var wire 8 D" i_wr_data [7:0] $end
$var wire 1 E" i_write $end
$var wire 8 F" ow_rd_data [7:0] $end
$var wire 1 G" ow_rd_empty $end
$var wire 1 H" ow_wr_full $end
$var wire 1 I" w_ptr_xor $end
$var wire 2 J" w_almost_full_count [1:0] $end
$var wire 2 K" w_almost_empty_count [1:0] $end
$var wire 3 L" r_wr_ptr_bin [2:0] $end
$var wire 2 M" r_wr_addr [1:0] $end
$var wire 3 N" r_rd_ptr_bin [2:0] $end
$var wire 2 O" r_rd_addr [1:0] $end
$var wire 1 P" ow_wr_almost_full $end
$var wire 1 Q" ow_rd_almost_empty $end
$var wire 32 R" flat_r_mem [31:0] $end
$scope begin gen_flatten_memory[0] $end
$upscope $end
$scope begin gen_flatten_memory[1] $end
$upscope $end
$scope begin gen_flatten_memory[2] $end
$upscope $end
$scope begin gen_flatten_memory[3] $end
$upscope $end
$scope module read_counter $end
$var wire 1 ! i_clk $end
$var wire 1 S" i_enable $end
$var wire 1 # i_rst_n $end
$var reg 3 T" o_counter_bin [2:0] $end
$upscope $end
$scope module write_counter $end
$var wire 1 ! i_clk $end
$var wire 1 U" i_enable $end
$var wire 1 # i_rst_n $end
$var reg 3 V" o_counter_bin [2:0] $end
$upscope $end
$upscope $end
$upscope $end
$scope module round_robin_wrapper $end
$var wire 1 ! i_clk $end
$var wire 1 # i_rst_n $end
$var wire 8 W" i_wr_data_A [7:0] $end
$var wire 8 X" i_wr_data_B [7:0] $end
$var wire 8 Y" i_wr_data_C [7:0] $end
$var wire 8 Z" i_wr_data_D [7:0] $end
$var wire 1 % i_write_A $end
$var wire 1 9 i_write_B $end
$var wire 1 M i_write_C $end
$var wire 1 a i_write_D $end
$var wire 1 [" req_A_mask $end
$var wire 1 \" req_B_mask $end
$var wire 1 ]" req_C_mask $end
$var wire 1 ^" req_D_mask $end
$var wire 1 v start_pwm $end
$var wire 4 _" request [3:0] $end
$var wire 1 `" req_D $end
$var wire 1 a" req_C $end
$var wire 1 b" req_B $end
$var wire 1 c" req_A $end
$var wire 1 x pwm_sig $end
$var wire 1 H" ow_wr_full_E $end
$var wire 1 d ow_wr_full_D $end
$var wire 1 P ow_wr_full_C $end
$var wire 1 < ow_wr_full_B $end
$var wire 1 ( ow_wr_full_A $end
$var wire 1 P" ow_wr_almost_full_E $end
$var wire 1 l ow_wr_almost_full_D $end
$var wire 1 X ow_wr_almost_full_C $end
$var wire 1 D ow_wr_almost_full_B $end
$var wire 1 0 ow_wr_almost_full_A $end
$var wire 1 G" ow_rd_empty_E $end
$var wire 1 c ow_rd_empty_D $end
$var wire 1 O ow_rd_empty_C $end
$var wire 1 ; ow_rd_empty_B $end
$var wire 1 ' ow_rd_empty_A $end
$var wire 8 d" ow_rd_data_E [7:0] $end
$var wire 8 e" ow_rd_data_D [7:0] $end
$var wire 8 f" ow_rd_data_C [7:0] $end
$var wire 8 g" ow_rd_data_B [7:0] $end
$var wire 8 h" ow_rd_data_A [7:0] $end
$var wire 1 Q" ow_rd_almost_empty_E $end
$var wire 1 m ow_rd_almost_empty_D $end
$var wire 1 Y ow_rd_almost_empty_C $end
$var wire 1 E ow_rd_almost_empty_B $end
$var wire 1 1 ow_rd_almost_empty_A $end
$var wire 1 E" i_write_E $end
$var wire 8 i" i_wr_data_E [7:0] $end
$var wire 1 C" i_read_E $end
$var wire 1 _ i_read_D $end
$var wire 1 K i_read_C $end
$var wire 1 7 i_read_B $end
$var wire 1 " i_read_A $end
$var wire 4 j" grant [3:0] $end
$var wire 1 w done $end
$var reg 4 k" req_mask [3:0] $end
$var reg 4 l" req_orig [3:0] $end
$scope module u_arbiter_round_robin $end
$scope module u_req_leading_one_trailing_one $end
$scope module u_find_first_set $end
$scope function find_set_index $end
$scope begin $ivl_for_loop0 $end
$upscope $end
$upscope $end
$upscope $end
$scope module u_find_last_set $end
$scope function find_last_set_index $end
$scope begin $ivl_for_loop1 $end
$upscope $end
$upscope $end
$upscope $end
$upscope $end
$scope module u_reqm_leading_one_trailing_one $end
$scope module u_find_first_set $end
$scope function find_set_index $end
$scope begin $ivl_for_loop0 $end
$upscope $end
$upscope $end
$upscope $end
$scope module u_find_last_set $end
$scope function find_last_set_index $end
$scope begin $ivl_for_loop1 $end
$upscope $end
$upscope $end
$upscope $end
$upscope $end
$upscope $end
$scope module u_fifo_sync_A $end
$scope begin gen_flatten_memory[0] $end
$upscope $end
$scope begin gen_flatten_memory[1] $end
$upscope $end
$scope begin gen_flatten_memory[2] $end
$upscope $end
$scope begin gen_flatten_memory[3] $end
$upscope $end
$scope begin gen_flatten_memory[4] $end
$upscope $end
$scope begin gen_flatten_memory[5] $end
$upscope $end
$scope begin gen_flatten_memory[6] $end
$upscope $end
$scope begin gen_flatten_memory[7] $end
$upscope $end
$scope begin gen_flatten_memory[8] $end
$upscope $end
$scope begin gen_flatten_memory[9] $end
$upscope $end
$scope begin gen_flatten_memory[10] $end
$upscope $end
$scope begin gen_flatten_memory[11] $end
$upscope $end
$scope begin gen_flatten_memory[12] $end
$upscope $end
$scope begin gen_flatten_memory[13] $end
$upscope $end
$scope begin gen_flatten_memory[14] $end
$upscope $end
$scope begin gen_flatten_memory[15] $end
$upscope $end
$scope module read_counter $end
$upscope $end
$scope module write_counter $end
$upscope $end
$upscope $end
$scope module u_fifo_sync_B $end
$scope begin gen_flatten_memory[0] $end
$upscope $end
$scope begin gen_flatten_memory[1] $end
$upscope $end
$scope begin gen_flatten_memory[2] $end
$upscope $end
$scope begin gen_flatten_memory[3] $end
$upscope $end
$scope begin gen_flatten_memory[4] $end
$upscope $end
$scope begin gen_flatten_memory[5] $end
$upscope $end
$scope begin gen_flatten_memory[6] $end
$upscope $end
$scope begin gen_flatten_memory[7] $end
$upscope $end
$scope module read_counter $end
$upscope $end
$scope module write_counter $end
$upscope $end
$upscope $end
$scope module u_fifo_sync_C $end
$scope begin gen_flatten_memory[0] $end
$upscope $end
$scope begin gen_flatten_memory[1] $end
$upscope $end
$scope begin gen_flatten_memory[2] $end
$upscope $end
$scope begin gen_flatten_memory[3] $end
$upscope $end
$scope module read_counter $end
$upscope $end
$scope module write_counter $end
$upscope $end
$upscope $end
$scope module u_fifo_sync_D $end
$scope begin gen_flatten_memory[0] $end
$upscope $end
$scope begin gen_flatten_memory[1] $end
$upscope $end
$scope begin gen_flatten_memory[2] $end
$upscope $end
$scope begin gen_flatten_memory[3] $end
$upscope $end
$scope module read_counter $end
$upscope $end
$scope module write_counter $end
$upscope $end
$upscope $end
$scope module u_fifo_sync_E $end
$scope begin gen_flatten_memory[0] $end
$upscope $end
$scope begin gen_flatten_memory[1] $end
$upscope $end
$scope begin gen_flatten_memory[2] $end
$upscope $end
$scope begin gen_flatten_memory[3] $end
$upscope $end
$scope module read_counter $end
$upscope $end
$scope module write_counter $end
$upscope $end
$upscope $end
$scope module u_pwm $end
$scope begin gen_channel[0] $end
$upscope $end
$upscope $end
$upscope $end
$enddefinitions $end
#0
$dumpvars
b0 l"
b0 k"
b0 j"
bx i"
bx h"
bx g"
bx f"
bx e"
bx d"
0c"
0b"
0a"
0`"
b0 _"
0^"
0]"
0\"
0["
b0 Z"
b0 Y"
b0 X"
b0 W"
b0 V"
0U"
b0 T"
0S"
bx R"
0Q"
0P"
b0 O"
b0 N"
b0 M"
b0 L"
b0 K"
b0 J"
0I"
0H"
1G"
bx F"
0E"
bx D"
0C"
b0 B"
b0 A"
b0 @"
b0 ?"
b0 >"
b0 ="
0<"
b0 ;"
b0 :"
19"
b0 8"
b0 7"
b0 6"
b0 5"
b0 4"
b0 3"
b0 2"
01"
b0 0"
b0 /"
1."
b0 -"
b0 ,"
0+"
b0 *"
b0 )"
b0 ("
b0 '"
b0 &"
b0 %"
b0 $"
0#"
0""
b0 !"
b0 ~
b0 }
b0 |
0{
0z
0y
1x
0w
0v
b1 u
b11111111111 t
b1111111 s
b0 r
0q
b0 p
0o
bx n
0m
0l
b0 k
b0 j
b0 i
b0 h
b0 g
b0 f
0e
0d
1c
bx b
0a
b0 `
0_
b0 ^
0]
b0 \
0[
bx Z
0Y
0X
b0 W
b0 V
b0 U
b0 T
b0 S
b0 R
0Q
0P
1O
bx N
0M
b0 L
0K
b0 J
0I
b0 H
0G
bx F
0E
0D
b0 C
b0 B
b0 A
b0 @
b0 ?
b0 >
0=
0<
1;
bx :
09
b0 8
07
b0 6
05
b0 4
03
bx 2
01
00
b0 /
b0 .
b0 -
b0 ,
b0 +
b0 *
0)
0(
1'
bx &
0%
b0 $
0#
0"
1!
$end
#5000
0!
#10000
1!
#15000
0!
#20000
b1111 *"
1!
1#
#25000
0!
#30000
1!
#35000
0!
#40000
1!
#45000
1y
0!
1v
#50000
b1 |
1!
#55000
0!
#60000
b10 |
1!
#65000
1q
1]
1I
15
0!
b11010000 `
b11010000 Z"
1a
b11000000 L
b11000000 Y"
1M
b10110000 8
b10110000 X"
19
b10100000 $
b10100000 W"
1%
#70000
b1111 ~
b1111 _"
1m
1Y
1E
11
b0 k"
b1 g
b1 f
0^"
b1 S
b1 R
0]"
b1 ?
b1 >
0\"
b1 +
b1 *
0["
b1111 l"
b10100000 D"
b10100000 i"
1`"
0c
1a"
0O
1b"
0;
1c"
0'
b1 i
b1 U
b1 A
b1 -
b11 |
b1 h
b1 r
b1 T
b1 ^
b1 @
b1 J
b1 ,
b1 6
bx11010000 n
b11010000 b
b11010000 e"
bx11000000 Z
b11000000 N
b11000000 f"
bx10110000 F
b10110000 :
b10110000 g"
bx10100000 2
b10100000 &
b10100000 h"
1!
#75000
0!
b11010001 `
b11010001 Z"
b11000001 L
b11000001 Y"
b10110001 8
b10110001 X"
b10100001 $
b10100001 W"
#80000
b1111 k"
1["
1\"
1]"
1^"
01
0E
0Y
0m
b10 +
b10 *
b10 ?
b10 >
b10 S
b10 R
b10 g
b10 f
b10 -
b10 A
b10 U
b10 i
b10 ,
b10 6
b10 @
b10 J
b10 T
b10 ^
b10 h
b10 r
b100 |
bx1010000110100000 2
bx1011000110110000 F
bx1100000111000000 Z
bx1101000111010000 n
1!
#85000
0!
b11010010 `
b11010010 Z"
b11000010 L
b11000010 Y"
b10110010 8
b10110010 X"
b10100010 $
b10100010 W"
#90000
b11 g
1l
b11 f
b11 S
1X
b11 R
b11 ?
b11 >
b11 +
b11 *
b11 i
b11 U
b11 A
b11 -
b101 |
b11 h
b11 r
b11 T
b11 ^
b11 @
b11 J
b11 ,
b11 6
bx110100101101000111010000 n
bx110000101100000111000000 Z
bx101100101011000110110000 F
bx101000101010000110100000 2
1!
#95000
0!
b11010011 `
b11010011 Z"
b11000011 L
b11000011 Y"
b10110011 8
b10110011 X"
b10100011 $
b10100011 W"
#100000
b100 +
b100 *
b100 ?
b100 >
b0 S
0X
b0 R
0]
b0 g
0l
b0 f
0q
1P
1Q
1d
1e
b100 -
b100 A
b0 U
b0 i
b100 ,
b100 6
b100 @
b100 J
b100 T
b100 ^
b100 h
b100 r
b110 |
bx10100011101000101010000110100000 2
bx10110011101100101011000110110000 F
b11000011110000101100000111000000 Z
b11010011110100101101000111010000 n
1!
#105000
0!
0a
0M
b10110100 8
b10110100 X"
b10100100 $
b10100100 W"
#110000
b101 ?
b101 >
b101 +
b101 *
b101 A
b101 -
b111 |
b101 @
b101 J
b101 ,
b101 6
bx1011010010110011101100101011000110110000 F
bx1010010010100011101000101010000110100000 2
1!
#115000
0!
b10110101 8
b10110101 X"
b10100101 $
b10100101 W"
#120000
b110 +
b110 *
b110 ?
b110 >
b110 -
b110 A
b110 ,
b110 6
b110 @
b110 J
b1000 |
bx101001011010010010100011101000101010000110100000 2
bx101101011011010010110011101100101011000110110000 F
1!
#125000
0!
b10110110 8
b10110110 X"
b10100110 $
b10100110 W"
#130000
b111 ?
1D
b111 >
b111 +
b111 *
b111 A
b111 -
b1001 |
b111 @
b111 J
b111 ,
b111 6
bx10110110101101011011010010110011101100101011000110110000 F
bx10100110101001011010010010100011101000101010000110100000 2
1!
#135000
0!
b10110111 8
b10110111 X"
b10100111 $
b10100111 W"
#140000
b1000 +
b1000 *
b0 ?
0D
b0 >
0I
1<
1=
b1000 -
b0 A
b1000 ,
b1000 6
b1000 @
b1000 J
b1010 |
bx1010011110100110101001011010010010100011101000101010000110100000 2
b1011011110110110101101011011010010110011101100101011000110110000 F
1!
#145000
0!
09
b10101000 $
b10101000 W"
#150000
b1001 +
b1001 *
b1001 -
b1011 |
b1001 ,
b1001 6
bx101010001010011110100110101001011010010010100011101000101010000110100000 2
1!
#155000
0!
b10101001 $
b10101001 W"
#160000
b1010 +
b1010 *
b1010 -
b1010 ,
b1010 6
b1100 |
bx10101001101010001010011110100110101001011010010010100011101000101010000110100000 2
1!
#165000
0!
b10101010 $
b10101010 W"
#170000
b1011 +
b1011 *
b1011 -
b1101 |
b1011 ,
b1011 6
bx1010101010101001101010001010011110100110101001011010010010100011101000101010000110100000 2
1!
#175000
0!
b10101011 $
b10101011 W"
#180000
b1100 +
b1100 *
b1100 -
b1100 ,
b1100 6
b1110 |
bx101010111010101010101001101010001010011110100110101001011010010010100011101000101010000110100000 2
1!
#185000
0!
b10101100 $
b10101100 W"
#190000
b1101 +
b1101 *
b1101 -
b1111 |
b1101 ,
b1101 6
bx10101100101010111010101010101001101010001010011110100110101001011010010010100011101000101010000110100000 2
1!
#195000
0!
b10101101 $
b10101101 W"
#200000
b1110 +
b1110 *
b1110 -
b1110 ,
b1110 6
b10000 |
bx1010110110101100101010111010101010101001101010001010011110100110101001011010010010100011101000101010000110100000 2
1!
#205000
0!
b10101110 $
b10101110 W"
#210000
b1111 +
10
b1111 *
b1111 -
b10001 |
b1111 ,
b1111 6
bx101011101010110110101100101010111010101010101001101010001010011110100110101001011010010010100011101000101010000110100000 2
1!
#215000
0!
b10101111 $
b10101111 W"
#220000
b0 +
00
b0 *
05
1(
1)
b0 -
b10000 ,
b10000 6
b10010 |
b10101111101011101010110110101100101010111010101010101001101010001010011110100110101001011010010010100011101000101010000110100000 2
1!
#225000
0!
0%
#230000
b10011 |
1!
#235000
0!
#240000
b10100 |
1!
#245000
0!
#250000
b10101 |
1!
#255000
0!
#260000
b10110 |
1!
#265000
0!
#270000
b10111 |
1!
#275000
0!
#280000
b11000 |
1!
#285000
0!
#290000
b11001 |
1!
#295000
0!
#300000
b11010 |
1!
#305000
0!
#310000
b11011 |
1!
#315000
0!
#320000
b11100 |
1!
#325000
0!
#330000
b11101 |
1!
#335000
0!
#340000
b11110 |
1!
#345000
0!
#350000
b11111 |
1!
#355000
0!
#360000
b100000 |
1!
#365000
0!
#370000
b100001 |
1!
#375000
0!
#380000
b100010 |
1!
#385000
0!
#390000
b100011 |
1!
#395000
0!
#400000
b100100 |
1!
#405000
0!
#410000
b100101 |
1!
#415000
0!
#420000
b100110 |
1!
#425000
0!
#430000
b100111 |
1!
#435000
0!
#440000
b101000 |
1!
#445000
0!
#450000
b101001 |
1!
#455000
0!
#460000
b101010 |
1!
#465000
0!
#470000
b101011 |
1!
#475000
0!
#480000
b101100 |
1!
#485000
0!
#490000
b101101 |
1!
#495000
0!
#500000
b101110 |
1!
#505000
0!
#510000
b101111 |
1!
#515000
0!
#520000
b110000 |
1!
#525000
0!
#530000
b110001 |
1!
#535000
0!
#540000
b110010 |
1!
#545000
0!
#550000
b110011 |
1!
#555000
0!
#560000
b110100 |
1!
#565000
0!
#570000
b110101 |
1!
#575000
0!
#580000
b110110 |
1!
#585000
0!
#590000
b110111 |
1!
#595000
0!
#600000
b111000 |
1!
#605000
0!
#610000
b111001 |
1!
#615000
0!
#620000
b111010 |
1!
#625000
0!
#630000
b111011 |
1!
#635000
0!
#640000
b111100 |
1!
#645000
0!
#650000
b111101 |
1!
#655000
0!
#660000
b111110 |
1!
#665000
0!
#670000
b111111 |
1!
#675000
0!
#680000
b1000000 |
1!
#685000
0!
#690000
b1000001 |
1!
#695000
0!
#700000
b1000010 |
1!
#705000
0!
#710000
b1000011 |
1!
#715000
0!
#720000
b1000100 |
1!
#725000
0!
#730000
b1000101 |
1!
#735000
0!
#740000
b1000110 |
1!
#745000
0!
#750000
b1000111 |
1!
#755000
0!
#760000
b1001000 |
1!
#765000
0!
#770000
b1001001 |
1!
#775000
0!
#780000
b1001010 |
1!
#785000
0!
#790000
b1001011 |
1!
#795000
0!
#800000
b1001100 |
1!
#805000
0!
#810000
b1001101 |
1!
#815000
0!
#820000
b1001110 |
1!
#825000
0!
#830000
b1001111 |
1!
#835000
0!
#840000
b1010000 |
1!
#845000
0!
#850000
b1010001 |
1!
#855000
0!
#860000
b1010010 |
1!
#865000
0!
#870000
b1010011 |
1!
#875000
0!
#880000
b1010100 |
1!
#885000
0!
#890000
b1010101 |
1!
#895000
0!
#900000
b1010110 |
1!
#905000
0!
#910000
b1010111 |
1!
#915000
0!
#920000
b1011000 |
1!
#925000
0!
#930000
b1011001 |
1!
#935000
0!
#940000
b1011010 |
1!
#945000
0!
#950000
b1011011 |
1!
#955000
0!
#960000
b1011100 |
1!
#965000
0!
#970000
b1011101 |
1!
#975000
0!
#980000
b1011110 |
1!
#985000
0!
#990000
b1011111 |
1!
#995000
0!
#1000000
b1100000 |
1!
#1005000
0!
#1010000
b1100001 |
1!
#1015000
0!
#1020000
b1100010 |
1!
#1025000
0!
#1030000
b1100011 |
1!
#1035000
0!
#1040000
b1100100 |
1!
#1045000
0!
#1050000
b1100101 |
1!
#1055000
0!
#1060000
b1100110 |
1!
#1065000
0!
#1070000
b1100111 |
1!
#1075000
0!
#1080000
b1101000 |
1!
#1085000
0!
#1090000
b1101001 |
1!
#1095000
0!
#1100000
b1101010 |
1!
#1105000
0!
#1110000
b1101011 |
1!
#1115000
0!
#1120000
b1101100 |
1!
#1125000
0!
#1130000
b1101101 |
1!
#1135000
0!
#1140000
b1101110 |
1!
#1145000
0!
#1150000
b1101111 |
1!
#1155000
0!
#1160000
b1110000 |
1!
#1165000
0!
#1170000
b1110001 |
1!
#1175000
0!
#1180000
b1110010 |
1!
#1185000
0!
#1190000
b1110011 |
1!
#1195000
0!
#1200000
b1110100 |
1!
#1205000
0!
#1210000
b1110101 |
1!
#1215000
0!
#1220000
b1110110 |
1!
#1225000
0!
#1230000
b1110111 |
1!
#1235000
0!
#1240000
b1111000 |
1!
#1245000
0!
#1250000
b1111001 |
1!
#1255000
0!
#1260000
b1111010 |
1!
#1265000
0!
#1270000
b1111011 |
1!
#1275000
0!
#1280000
b1111100 |
1!
#1285000
0!
#1290000
b1111101 |
1!
#1295000
0!
#1300000
b1111110 |
1!
#1305000
0!
#1310000
0."
b100 3"
1+"
b11 ,"
b11 '"
b11 /"
b11 7"
11"
1#"
b1111 %"
b1111 -"
b1111 4"
b1111 6"
b1111 &"
0x
b1111111 |
1!
#1315000
0!
#1320000
b10 '"
b10 /"
b10 7"
01"
b111 %"
b111 -"
b111 4"
b111 6"
09"
b10 >"
b10 ,"
b10 3"
b10 $"
b10 :"
b10 B"
b11010000 D"
b11010000 i"
1o
1""
b111 !"
b111 8"
b111 ?"
b111 A"
1U"
1_
b10000000 |
b111 *"
b111 )"
1E"
b1000 ("
b1000 j"
1!
#1325000
0!
#1330000
1Q"
b1 K"
b1 J"
1S"
b1 >"
b1 ,"
b11 g
1l
b11 f
1C"
0G"
1[
0o
b11 '"
b11 /"
b11 7"
b100 3"
b1 $"
b1 :"
b1 B"
b1011 %"
b1011 -"
b1011 4"
b1011 6"
0d
b11000000 D"
b11000000 i"
b1 M"
1K
0_
b11 !"
b11 8"
b11 ?"
b11 A"
b11010001 b
b11010001 e"
b1 k
b1 L"
b1 V"
1E"
b100 ("
b100 j"
b11 )"
b1011 *"
b10000001 |
b1 j
b1 p
bx11010000 R"
b11010000 F"
b11010000 d"
1!
#1335000
0!
