val/common_level1/arbiter_weighted_round_robin_wrapper/dump.vcd
$date
	Thu Jan 18 14:49:19 2024
$end
$version
	Icarus Verilog
$end
$timescale
	1ps
$end
$scope module weighted_round_robin_wrapper $end
$scope module u_fifo_sync_A $end
$var wire 1 ! i_clk $end
$var wire 1 " i_read $end
$var wire 1 # i_rst_n $end
$var wire 8 $ i_wr_data [7:0] $end
$var wire 1 % i_write $end
$var wire 8 & ow_rd_data [7:0] $end
$var wire 1 ' ow_rd_empty $end
$var wire 1 ( ow_wr_full $end
$var wire 1 ) w_ptr_xor $end
$var wire 6 * w_almost_full_count [5:0] $end
$var wire 6 + w_almost_empty_count [5:0] $end
$var wire 7 , r_wr_ptr_bin [6:0] $end
$var wire 6 - r_wr_addr [5:0] $end
$var wire 7 . r_rd_ptr_bin [6:0] $end
$var wire 6 / r_rd_addr [5:0] $end
$var wire 1 0 ow_wr_almost_full $end
$var wire 1 1 ow_rd_almost_empty $end
$var wire 320 2 flat_r_mem [319:0] $end
$scope begin gen_flatten_memory[0] $end
$upscope $end
$scope begin gen_flatten_memory[1] $end
$upscope $end
$scope begin gen_flatten_memory[2] $end
$upscope $end
$scope begin gen_flatten_memory[3] $end
$upscope $end
$scope begin gen_flatten_memory[4] $end
$upscope $end
$scope begin gen_flatten_memory[5] $end
$upscope $end
$scope begin gen_flatten_memory[6] $end
$upscope $end
$scope begin gen_flatten_memory[7] $end
$upscope $end
$scope begin gen_flatten_memory[8] $end
$upscope $end
$scope begin gen_flatten_memory[9] $end
$upscope $end
$scope begin gen_flatten_memory[10] $end
$upscope $end
$scope begin gen_flatten_memory[11] $end
$upscope $end
$scope begin gen_flatten_memory[12] $end
$upscope $end
$scope begin gen_flatten_memory[13] $end
$upscope $end
$scope begin gen_flatten_memory[14] $end
$upscope $end
$scope begin gen_flatten_memory[15] $end
$upscope $end
$scope begin gen_flatten_memory[16] $end
$upscope $end
$scope begin gen_flatten_memory[17] $end
$upscope $end
$scope begin gen_flatten_memory[18] $end
$upscope $end
$scope begin gen_flatten_memory[19] $end
$upscope $end
$scope begin gen_flatten_memory[20] $end
$upscope $end
$scope begin gen_flatten_memory[21] $end
$upscope $end
$scope begin gen_flatten_memory[22] $end
$upscope $end
$scope begin gen_flatten_memory[23] $end
$upscope $end
$scope begin gen_flatten_memory[24] $end
$upscope $end
$scope begin gen_flatten_memory[25] $end
$upscope $end
$scope begin gen_flatten_memory[26] $end
$upscope $end
$scope begin gen_flatten_memory[27] $end
$upscope $end
$scope begin gen_flatten_memory[28] $end
$upscope $end
$scope begin gen_flatten_memory[29] $end
$upscope $end
$scope begin gen_flatten_memory[30] $end
$upscope $end
$scope begin gen_flatten_memory[31] $end
$upscope $end
$scope begin gen_flatten_memory[32] $end
$upscope $end
$scope begin gen_flatten_memory[33] $end
$upscope $end
$scope begin gen_flatten_memory[34] $end
$upscope $end
$scope begin gen_flatten_memory[35] $end
$upscope $end
$scope begin gen_flatten_memory[36] $end
$upscope $end
$scope begin gen_flatten_memory[37] $end
$upscope $end
$scope begin gen_flatten_memory[38] $end
$upscope $end
$scope begin gen_flatten_memory[39] $end
$upscope $end
$scope module read_counter $end
$var wire 1 ! i_clk $end
$var wire 1 3 i_enable $end
$var wire 1 # i_rst_n $end
$var reg 7 4 o_counter_bin [6:0] $end
$upscope $end
$scope module write_counter $end
$var wire 1 ! i_clk $end
$var wire 1 5 i_enable $end
$var wire 1 # i_rst_n $end
$var reg 7 6 o_counter_bin [6:0] $end
$upscope $end
$upscope $end
$upscope $end
$scope module weighted_round_robin_wrapper $end
$scope module u_fifo_sync_B $end
$var wire 1 ! i_clk $end
$var wire 1 7 i_read $end
$var wire 1 # i_rst_n $end
$var wire 8 8 i_wr_data [7:0] $end
$var wire 1 9 i_write $end
$var wire 8 : ow_rd_data [7:0] $end
$var wire 1 ; ow_rd_empty $end
$var wire 1 < ow_wr_full $end
$var wire 1 = w_ptr_xor $end
$var wire 5 > w_almost_full_count [4:0] $end
$var wire 5 ? w_almost_empty_count [4:0] $end
$var wire 6 @ r_wr_ptr_bin [5:0] $end
$var wire 5 A r_wr_addr [4:0] $end
$var wire 6 B r_rd_ptr_bin [5:0] $end
$var wire 5 C r_rd_addr [4:0] $end
$var wire 1 D ow_wr_almost_full $end
$var wire 1 E ow_rd_almost_empty $end
$var wire 192 F flat_r_mem [191:0] $end
$scope begin gen_flatten_memory[0] $end
$upscope $end
$scope begin gen_flatten_memory[1] $end
$upscope $end
$scope begin gen_flatten_memory[2] $end
$upscope $end
$scope begin gen_flatten_memory[3] $end
$upscope $end
$scope begin gen_flatten_memory[4] $end
$upscope $end
$scope begin gen_flatten_memory[5] $end
$upscope $end
$scope begin gen_flatten_memory[6] $end
$upscope $end
$scope begin gen_flatten_memory[7] $end
$upscope $end
$scope begin gen_flatten_memory[8] $end
$upscope $end
$scope begin gen_flatten_memory[9] $end
$upscope $end
$scope begin gen_flatten_memory[10] $end
$upscope $end
$scope begin gen_flatten_memory[11] $end
$upscope $end
$scope begin gen_flatten_memory[12] $end
$upscope $end
$scope begin gen_flatten_memory[13] $end
$upscope $end
$scope begin gen_flatten_memory[14] $end
$upscope $end
$scope begin gen_flatten_memory[15] $end
$upscope $end
$scope begin gen_flatten_memory[16] $end
$upscope $end
$scope begin gen_flatten_memory[17] $end
$upscope $end
$scope begin gen_flatten_memory[18] $end
$upscope $end
$scope begin gen_flatten_memory[19] $end
$upscope $end
$scope begin gen_flatten_memory[20] $end
$upscope $end
$scope begin gen_flatten_memory[21] $end
$upscope $end
$scope begin gen_flatten_memory[22] $end
$upscope $end
$scope begin gen_flatten_memory[23] $end
$upscope $end
$scope module read_counter $end
$var wire 1 ! i_clk $end
$var wire 1 G i_enable $end
$var wire 1 # i_rst_n $end
$var reg 6 H o_counter_bin [5:0] $end
$upscope $end
$scope module write_counter $end
$var wire 1 ! i_clk $end
$var wire 1 I i_enable $end
$var wire 1 # i_rst_n $end
$var reg 6 J o_counter_bin [5:0] $end
$upscope $end
$upscope $end
$upscope $end
$scope module weighted_round_robin_wrapper $end
$scope module u_fifo_sync_C $end
$var wire 1 ! i_clk $end
$var wire 1 K i_read $end
$var wire 1 # i_rst_n $end
$var wire 8 L i_wr_data [7:0] $end
$var wire 1 M i_write $end
$var wire 8 N ow_rd_data [7:0] $end
$var wire 1 O ow_rd_empty $end
$var wire 1 P ow_wr_full $end
$var wire 1 Q w_ptr_xor $end
$var wire 4 R w_almost_full_count [3:0] $end
$var wire 4 S w_almost_empty_count [3:0] $end
$var wire 5 T r_wr_ptr_bin [4:0] $end
$var wire 4 U r_wr_addr [3:0] $end
$var wire 5 V r_rd_ptr_bin [4:0] $end
$var wire 4 W r_rd_addr [3:0] $end
$var wire 1 X ow_wr_almost_full $end
$var wire 1 Y ow_rd_almost_empty $end
$var wire 96 Z flat_r_mem [95:0] $end
$scope begin gen_flatten_memory[0] $end
$upscope $end
$scope begin gen_flatten_memory[1] $end
$upscope $end
$scope begin gen_flatten_memory[2] $end
$upscope $end
$scope begin gen_flatten_memory[3] $end
$upscope $end
$scope begin gen_flatten_memory[4] $end
$upscope $end
$scope begin gen_flatten_memory[5] $end
$upscope $end
$scope begin gen_flatten_memory[6] $end
$upscope $end
$scope begin gen_flatten_memory[7] $end
$upscope $end
$scope begin gen_flatten_memory[8] $end
$upscope $end
$scope begin gen_flatten_memory[9] $end
$upscope $end
$scope begin gen_flatten_memory[10] $end
$upscope $end
$scope begin gen_flatten_memory[11] $end
$upscope $end
$scope module read_counter $end
$var wire 1 ! i_clk $end
$var wire 1 [ i_enable $end
$var wire 1 # i_rst_n $end
$var reg 5 \ o_counter_bin [4:0] $end
$upscope $end
$scope module write_counter $end
$var wire 1 ! i_clk $end
$var wire 1 ] i_enable $end
$var wire 1 # i_rst_n $end
$var reg 5 ^ o_counter_bin [4:0] $end
$upscope $end
$upscope $end
$upscope $end
$scope module weighted_round_robin_wrapper $end
$scope module u_fifo_sync_D $end
$var wire 1 ! i_clk $end
$var wire 1 _ i_read $end
$var wire 1 # i_rst_n $end
$var wire 4 ` i_wr_data [3:0] $end
$var wire 1 a i_write $end
$var wire 4 b ow_rd_data [3:0] $end
$var wire 1 c ow_rd_empty $end
$var wire 1 d ow_wr_full $end
$var wire 1 e w_ptr_xor $end
$var wire 3 f w_almost_full_count [2:0] $end
$var wire 3 g w_almost_empty_count [2:0] $end
$var wire 4 h r_wr_ptr_bin [3:0] $end
$var wire 3 i r_wr_addr [2:0] $end
$var wire 4 j r_rd_ptr_bin [3:0] $end
$var wire 3 k r_rd_addr [2:0] $end
$var wire 1 l ow_wr_almost_full $end
$var wire 1 m ow_rd_almost_empty $end
$var wire 24 n flat_r_mem [23:0] $end
$scope begin gen_flatten_memory[0] $end
$upscope $end
$scope begin gen_flatten_memory[1] $end
$upscope $end
$scope begin gen_flatten_memory[2] $end
$upscope $end
$scope begin gen_flatten_memory[3] $end
$upscope $end
$scope begin gen_flatten_memory[4] $end
$upscope $end
$scope begin gen_flatten_memory[5] $end
$upscope $end
$scope module read_counter $end
$var wire 1 ! i_clk $end
$var wire 1 o i_enable $end
$var wire 1 # i_rst_n $end
$var reg 4 p o_counter_bin [3:0] $end
$upscope $end
$scope module write_counter $end
$var wire 1 ! i_clk $end
$var wire 1 q i_enable $end
$var wire 1 # i_rst_n $end
$var reg 4 r o_counter_bin [3:0] $end
$upscope $end
$upscope $end
$upscope $end
$scope module weighted_round_robin_wrapper $end
$scope module u_pwm $end
$var wire 1 ! i_clk $end
$var wire 11 s i_duty [10:0] $end
$var wire 11 t i_period [10:0] $end
$var wire 11 u i_repeat_count [10:0] $end
$var wire 1 # i_rst_n $end
$var wire 1 v i_start $end
$var wire 1 w ow_done $end
$var reg 1 x o_pwm $end
$scope begin gen_channel[0] $end
$var wire 1 y w_counting $end
$var wire 1 z w_done_repeat $end
$var wire 1 { w_count_met $end
$var reg 11 | r_count [10:0] $end
$var reg 11 } r_repeat_value [10:0] $end
$upscope $end
$upscope $end
$upscope $end
$scope module weighted_round_robin_wrapper $end
$scope module u_weighted_round_robin $end
$var wire 1 x i_block_arb $end
$var wire 1 ! i_clk $end
$var wire 16 ~ i_max_thresh [15:0] $end
$var wire 4 !" i_req [3:0] $end
$var wire 1 # i_rst_n $end
$var wire 4 "" w_req_post [3:0] $end
$var wire 1 #" w_replenish $end
$var wire 4 $" w_mask_req [3:0] $end
$var wire 4 %" w_has_crd [3:0] $end
$var wire 16 &" w_crd_cnt_incr [15:0] $end
$var wire 4 '" ow_grant [3:0] $end
$var reg 16 (" r_crd_cnt [15:0] $end
$var reg 16 )" w_crd_cnt_next [15:0] $end
$scope begin gen_credit_mgt[0] $end
$upscope $end
$scope begin gen_credit_mgt[1] $end
$upscope $end
$scope begin gen_credit_mgt[2] $end
$upscope $end
$scope begin gen_credit_mgt[3] $end
$upscope $end
$scope module u_rrb_arb $end
$var wire 1 ! i_clk $end
$var wire 1 #" i_replenish $end
$var wire 4 *" i_req [3:0] $end
$var wire 1 # i_rst_n $end
$var wire 4 +" w_mask_req [3:0] $end
$var wire 1 ," w_select_raw $end
$var wire 4 -" w_raw_grant [3:0] $end
$var wire 4 ." w_mask_grant [3:0] $end
$var wire 4 /" ow_grant [3:0] $end
$var reg 4 0" r_mask [3:0] $end
$scope module u_arb_mask $end
$var wire 4 1" i_req [3:0] $end
$var reg 4 2" ow_grant [3:0] $end
$var reg 1 3" w_found $end
$scope begin $ivl_for_loop0 $end
$var integer 32 4" i [31:0] $end
$upscope $end
$upscope $end
$scope module u_arb_raw $end
$var wire 4 5" i_req [3:0] $end
$var reg 4 6" ow_grant [3:0] $end
$var reg 1 7" w_found $end
$scope begin $ivl_for_loop0 $end
$var integer 32 8" i [31:0] $end
$upscope $end
$upscope $end
$scope begin $ivl_for_loop1 $end
$var integer 32 9" i [31:0] $end
$upscope $end
$upscope $end
$upscope $end
$upscope $end
$scope module weighted_round_robin_wrapper $end
$scope module u_fifo_sync_E $end
$var wire 1 ! i_clk $end
$var wire 1 :" i_read $end
$var wire 1 # i_rst_n $end
$var wire 8 ;" i_wr_data [7:0] $end
$var wire 1 <" i_write $end
$var wire 8 =" ow_rd_data [7:0] $end
$var wire 1 >" ow_rd_empty $end
$var wire 1 ?" ow_wr_full $end
$var wire 1 @" w_ptr_xor $end
$var wire 2 A" w_almost_full_count [1:0] $end
$var wire 2 B" w_almost_empty_count [1:0] $end
$var wire 3 C" r_wr_ptr_bin [2:0] $end
$var wire 2 D" r_wr_addr [1:0] $end
$var wire 3 E" r_rd_ptr_bin [2:0] $end
$var wire 2 F" r_rd_addr [1:0] $end
$var wire 1 G" ow_wr_almost_full $end
$var wire 1 H" ow_rd_almost_empty $end
$var wire 32 I" flat_r_mem [31:0] $end
$scope begin gen_flatten_memory[0] $end
$upscope $end
$scope begin gen_flatten_memory[1] $end
$upscope $end
$scope begin gen_flatten_memory[2] $end
$upscope $end
$scope begin gen_flatten_memory[3] $end
$upscope $end
$scope module read_counter $end
$var wire 1 ! i_clk $end
$var wire 1 J" i_enable $end
$var wire 1 # i_rst_n $end
$var reg 3 K" o_counter_bin [2:0] $end
$upscope $end
$scope module write_counter $end
$var wire 1 ! i_clk $end
$var wire 1 L" i_enable $end
$var wire 1 # i_rst_n $end
$var reg 3 M" o_counter_bin [2:0] $end
$upscope $end
$upscope $end
$upscope $end
$scope module weighted_round_robin_wrapper $end
$var wire 1 ! i_clk $end
$var wire 1 # i_rst_n $end
$var wire 8 N" i_wr_data_A [7:0] $end
$var wire 8 O" i_wr_data_B [7:0] $end
$var wire 8 P" i_wr_data_C [7:0] $end
$var wire 8 Q" i_wr_data_D [7:0] $end
$var wire 1 % i_write_A $end
$var wire 1 9 i_write_B $end
$var wire 1 M i_write_C $end
$var wire 1 a i_write_D $end
$var wire 1 R" req_A_mask $end
$var wire 1 S" req_B_mask $end
$var wire 1 T" req_C_mask $end
$var wire 1 U" req_D_mask $end
$var wire 1 v start_pwm $end
$var wire 4 V" request [3:0] $end
$var wire 1 W" req_D $end
$var wire 1 X" req_C $end
$var wire 1 Y" req_B $end
$var wire 1 Z" req_A $end
$var wire 1 x pwm_sig $end
$var wire 1 ?" ow_wr_full_E $end
$var wire 1 d ow_wr_full_D $end
$var wire 1 P ow_wr_full_C $end
$var wire 1 < ow_wr_full_B $end
$var wire 1 ( ow_wr_full_A $end
$var wire 1 G" ow_wr_almost_full_E $end
$var wire 1 l ow_wr_almost_full_D $end
$var wire 1 X ow_wr_almost_full_C $end
$var wire 1 D ow_wr_almost_full_B $end
$var wire 1 0 ow_wr_almost_full_A $end
$var wire 1 >" ow_rd_empty_E $end
$var wire 1 c ow_rd_empty_D $end
$var wire 1 O ow_rd_empty_C $end
$var wire 1 ; ow_rd_empty_B $end
$var wire 1 ' ow_rd_empty_A $end
$var wire 8 [" ow_rd_data_E [7:0] $end
$var wire 8 \" ow_rd_data_D [7:0] $end
$var wire 8 ]" ow_rd_data_C [7:0] $end
$var wire 8 ^" ow_rd_data_B [7:0] $end
$var wire 8 _" ow_rd_data_A [7:0] $end
$var wire 1 H" ow_rd_almost_empty_E $end
$var wire 1 m ow_rd_almost_empty_D $end
$var wire 1 Y ow_rd_almost_empty_C $end
$var wire 1 E ow_rd_almost_empty_B $end
$var wire 1 1 ow_rd_almost_empty_A $end
$var wire 1 <" i_write_E $end
$var wire 8 `" i_wr_data_E [7:0] $end
$var wire 1 :" i_read_E $end
$var wire 1 _ i_read_D $end
$var wire 1 K i_read_C $end
$var wire 1 7 i_read_B $end
$var wire 1 " i_read_A $end
$var wire 4 a" grant [3:0] $end
$var wire 1 w done $end
$var reg 4 b" req_mask [3:0] $end
$var reg 4 c" req_orig [3:0] $end
$scope module u_fifo_sync_A $end
$scope begin gen_flatten_memory[0] $end
$upscope $end
$scope begin gen_flatten_memory[1] $end
$upscope $end
$scope begin gen_flatten_memory[2] $end
$upscope $end
$scope begin gen_flatten_memory[3] $end
$upscope $end
$scope begin gen_flatten_memory[4] $end
$upscope $end
$scope begin gen_flatten_memory[5] $end
$upscope $end
$scope begin gen_flatten_memory[6] $end
$upscope $end
$scope begin gen_flatten_memory[7] $end
$upscope $end
$scope begin gen_flatten_memory[8] $end
$upscope $end
$scope begin gen_flatten_memory[9] $end
$upscope $end
$scope begin gen_flatten_memory[10] $end
$upscope $end
$scope begin gen_flatten_memory[11] $end
$upscope $end
$scope begin gen_flatten_memory[12] $end
$upscope $end
$scope begin gen_flatten_memory[13] $end
$upscope $end
$scope begin gen_flatten_memory[14] $end
$upscope $end
$scope begin gen_flatten_memory[15] $end
$upscope $end
$scope begin gen_flatten_memory[16] $end
$upscope $end
$scope begin gen_flatten_memory[17] $end
$upscope $end
$scope begin gen_flatten_memory[18] $end
$upscope $end
$scope begin gen_flatten_memory[19] $end
$upscope $end
$scope begin gen_flatten_memory[20] $end
$upscope $end
$scope begin gen_flatten_memory[21] $end
$upscope $end
$scope begin gen_flatten_memory[22] $end
$upscope $end
$scope begin gen_flatten_memory[23] $end
$upscope $end
$scope begin gen_flatten_memory[24] $end
$upscope $end
$scope begin gen_flatten_memory[25] $end
$upscope $end
$scope begin gen_flatten_memory[26] $end
$upscope $end
$scope begin gen_flatten_memory[27] $end
$upscope $end
$scope begin gen_flatten_memory[28] $end
$upscope $end
$scope begin gen_flatten_memory[29] $end
$upscope $end
$scope begin gen_flatten_memory[30] $end
$upscope $end
$scope begin gen_flatten_memory[31] $end
$upscope $end
$scope begin gen_flatten_memory[32] $end
$upscope $end
$scope begin gen_flatten_memory[33] $end
$upscope $end
$scope begin gen_flatten_memory[34] $end
$upscope $end
$scope begin gen_flatten_memory[35] $end
$upscope $end
$scope begin gen_flatten_memory[36] $end
$upscope $end
$scope begin gen_flatten_memory[37] $end
$upscope $end
$scope begin gen_flatten_memory[38] $end
$upscope $end
$scope begin gen_flatten_memory[39] $end
$upscope $end
$scope module read_counter $end
$upscope $end
$scope module write_counter $end
$upscope $end
$upscope $end
$scope module u_fifo_sync_B $end
$scope begin gen_flatten_memory[0] $end
$upscope $end
$scope begin gen_flatten_memory[1] $end
$upscope $end
$scope begin gen_flatten_memory[2] $end
$upscope $end
$scope begin gen_flatten_memory[3] $end
$upscope $end
$scope begin gen_flatten_memory[4] $end
$upscope $end
$scope begin gen_flatten_memory[5] $end
$upscope $end
$scope begin gen_flatten_memory[6] $end
$upscope $end
$scope begin gen_flatten_memory[7] $end
$upscope $end
$scope begin gen_flatten_memory[8] $end
$upscope $end
$scope begin gen_flatten_memory[9] $end
$upscope $end
$scope begin gen_flatten_memory[10] $end
$upscope $end
$scope begin gen_flatten_memory[11] $end
$upscope $end
$scope begin gen_flatten_memory[12] $end
$upscope $end
$scope begin gen_flatten_memory[13] $end
$upscope $end
$scope begin gen_flatten_memory[14] $end
$upscope $end
$scope begin gen_flatten_memory[15] $end
$upscope $end
$scope begin gen_flatten_memory[16] $end
$upscope $end
$scope begin gen_flatten_memory[17] $end
$upscope $end
$scope begin gen_flatten_memory[18] $end
$upscope $end
$scope begin gen_flatten_memory[19] $end
$upscope $end
$scope begin gen_flatten_memory[20] $end
$upscope $end
$scope begin gen_flatten_memory[21] $end
$upscope $end
$scope begin gen_flatten_memory[22] $end
$upscope $end
$scope begin gen_flatten_memory[23] $end
$upscope $end
$scope module read_counter $end
$upscope $end
$scope module write_counter $end
$upscope $end
$upscope $end
$scope module u_fifo_sync_C $end
$scope begin gen_flatten_memory[0] $end
$upscope $end
$scope begin gen_flatten_memory[1] $end
$upscope $end
$scope begin gen_flatten_memory[2] $end
$upscope $end
$scope begin gen_flatten_memory[3] $end
$upscope $end
$scope begin gen_flatten_memory[4] $end
$upscope $end
$scope begin gen_flatten_memory[5] $end
$upscope $end
$scope begin gen_flatten_memory[6] $end
$upscope $end
$scope begin gen_flatten_memory[7] $end
$upscope $end
$scope begin gen_flatten_memory[8] $end
$upscope $end
$scope begin gen_flatten_memory[9] $end
$upscope $end
$scope begin gen_flatten_memory[10] $end
$upscope $end
$scope begin gen_flatten_memory[11] $end
$upscope $end
$scope module read_counter $end
$upscope $end
$scope module write_counter $end
$upscope $end
$upscope $end
$scope module u_fifo_sync_D $end
$scope begin gen_flatten_memory[0] $end
$upscope $end
$scope begin gen_flatten_memory[1] $end
$upscope $end
$scope begin gen_flatten_memory[2] $end
$upscope $end
$scope begin gen_flatten_memory[3] $end
$upscope $end
$scope begin gen_flatten_memory[4] $end
$upscope $end
$scope begin gen_flatten_memory[5] $end
$upscope $end
$scope module read_counter $end
$upscope $end
$scope module write_counter $end
$upscope $end
$upscope $end
$scope module u_fifo_sync_E $end
$scope begin gen_flatten_memory[0] $end
$upscope $end
$scope begin gen_flatten_memory[1] $end
$upscope $end
$scope begin gen_flatten_memory[2] $end
$upscope $end
$scope begin gen_flatten_memory[3] $end
$upscope $end
$scope module read_counter $end
$upscope $end
$scope module write_counter $end
$upscope $end
$upscope $end
$scope module u_pwm $end
$scope begin gen_channel[0] $end
$upscope $end
$upscope $end
$scope module u_weighted_round_robin $end
$scope begin gen_credit_mgt[0] $end
$upscope $end
$scope begin gen_credit_mgt[1] $end
$upscope $end
$scope begin gen_credit_mgt[2] $end
$upscope $end
$scope begin gen_credit_mgt[3] $end
$upscope $end
$scope module u_rrb_arb $end
$scope module u_arb_mask $end
$scope begin $ivl_for_loop0 $end
$upscope $end
$upscope $end
$scope module u_arb_raw $end
$scope begin $ivl_for_loop0 $end
$upscope $end
$upscope $end
$scope begin $ivl_for_loop1 $end
$upscope $end
$upscope $end
$upscope $end
$upscope $end
$enddefinitions $end
#0
$dumpvars
b0 c"
b0 b"
b0 a"
bx `"
bx _"
bx ^"
bx ]"
b0xxxx \"
bx ["
0Z"
0Y"
0X"
0W"
b0 V"
0U"
0T"
0S"
0R"
b0 Q"
b0 P"
b0 O"
b0 N"
b0 M"
0L"
b0 K"
0J"
bx I"
0H"
0G"
b0 F"
b0 E"
b0 D"
b0 C"
b0 B"
b0 A"
0@"
0?"
1>"
bx ="
0<"
bx ;"
0:"
b0 9"
b100 8"
07"
b0 6"
b0 5"
b100 4"
03"
b0 2"
b0 1"
b1111 0"
b0 /"
b0 ."
b0 -"
1,"
b0 +"
b0 *"
b0 )"
b0 ("
b0 '"
b1000100010001 &"
b1111 %"
b0 $"
1#"
b0 ""
b0 !"
b110010000100001 ~
b0 }
b0 |
0{
0z
0y
1x
0w
0v
b1 u
b11111111111 t
b1111111 s
b0 r
0q
b0 p
0o
bx n
0m
0l
b0 k
b0 j
b0 i
b0 h
b0 g
b0 f
0e
0d
1c
bx b
0a
b0 `
0_
b0 ^
0]
b0 \
0[
bx Z
0Y
0X
b0 W
b0 V
b0 U
b0 T
b0 S
b0 R
0Q
0P
1O
bx N
0M
b0 L
0K
b0 J
0I
b0 H
0G
bx F
0E
0D
b0 C
b0 B
b0 A
b0 @
b0 ?
b0 >
0=
0<
1;
bx :
09
b0 8
07
b0 6
05
b0 4
03
bx 2
01
00
b0 /
b0 .
b0 -
b0 ,
b0 +
b0 *
0)
0(
1'
bx &
0%
b0 $
0#
0"
1!
$end
#5000
0!
#10000
1!
#15000
1#
0!
#20000
b0 0"
b100 9"
1!
#25000
0!
#30000
b100 9"
1!
#35000
1y
1v
0!
#40000
b1 |
b100 9"
1!
#45000
15
b10100000 $
b10100000 N"
1%
0!
#50000
1#"
b0 !"
b0 V"
11
b0 b"
b1 +
b1 *
0R"
b100 8"
b100 4"
b1 c"
b10100000 ;"
b10100000 `"
1Z"
0'
b1 -
b10 |
b1 ,
b1 6
bx10100000 2
b10100000 &
b10100000 _"
b100 9"
1!
#55000
b10100001 $
b10100001 N"
0!
#60000
0#"
b1 !"
b1 V"
b100 8"
b100 4"
b1 b"
1R"
01
b10 +
b10 *
b10 -
b10 ,
b10 6
b11 |
bx1010000110100000 2
b100 9"
1!
#65000
b10100010 $
b10100010 N"
0!
#70000
b11 +
b11 *
b11 -
b100 |
b11 ,
b11 6
bx101000101010000110100000 2
b100 9"
1!
#75000
b10100011 $
b10100011 N"
0!
#80000
b100 +
b100 *
b100 -
b100 ,
b100 6
b101 |
bx10100011101000101010000110100000 2
b100 9"
1!
#85000
b10100100 $
b10100100 N"
0!
#90000
b101 +
b101 *
b101 -
b110 |
b101 ,
b101 6
bx1010010010100011101000101010000110100000 2
b100 9"
1!
#95000
b10100101 $
b10100101 N"
0!
#100000
b110 +
b110 *
b110 -
b110 ,
b110 6
b111 |
bx101001011010010010100011101000101010000110100000 2
b100 9"
1!
#105000
b10100110 $
b10100110 N"
0!
#110000
b111 +
b111 *
b111 -
b1000 |
b111 ,
b111 6
bx10100110101001011010010010100011101000101010000110100000 2
b100 9"
1!
#115000
b10100111 $
b10100111 N"
0!
#120000
b1000 +
b1000 *
b1000 -
b1000 ,
b1000 6
b1001 |
bx1010011110100110101001011010010010100011101000101010000110100000 2
b100 9"
1!
#125000
b10101000 $
b10101000 N"
0!
#130000
b1001 +
b1001 *
b1001 -
b1010 |
b1001 ,
b1001 6
bx101010001010011110100110101001011010010010100011101000101010000110100000 2
b100 9"
1!
#135000
b10101001 $
b10101001 N"
0!
#140000
b1010 +
b1010 *
b1010 -
b1010 ,
b1010 6
b1011 |
bx10101001101010001010011110100110101001011010010010100011101000101010000110100000 2
b100 9"
1!
#145000
b10101010 $
b10101010 N"
0!
#150000
b1011 +
b1011 *
b1011 -
b1100 |
b1011 ,
b1011 6
bx1010101010101001101010001010011110100110101001011010010010100011101000101010000110100000 2
b100 9"
1!
#155000
b10101011 $
b10101011 N"
0!
#160000
b1100 +
b1100 *
b1100 -
b1100 ,
b1100 6
b1101 |
bx101010111010101010101001101010001010011110100110101001011010010010100011101000101010000110100000 2
b100 9"
1!
#165000
b10101100 $
b10101100 N"
0!
#170000
b1101 +
b1101 *
b1101 -
b1110 |
b1101 ,
b1101 6
bx10101100101010111010101010101001101010001010011110100110101001011010010010100011101000101010000110100000 2
b100 9"
1!
#175000
b10101101 $
b10101101 N"
0!
#180000
b1110 +
b1110 *
b1110 -
b1110 ,
b1110 6
b1111 |
bx1010110110101100101010111010101010101001101010001010011110100110101001011010010010100011101000101010000110100000 2
b100 9"
1!
#185000
b10101110 $
b10101110 N"
0!
#190000
b1111 +
b1111 *
b1111 -
b10000 |
b1111 ,
b1111 6
bx101011101010110110101100101010111010101010101001101010001010011110100110101001011010010010100011101000101010000110100000 2
b100 9"
1!
#195000
b10101111 $
b10101111 N"
0!
#200000
b10000 +
b10000 *
b10000 -
b10000 ,
b10000 6
b10001 |
bx10101111101011101010110110101100101010111010101010101001101010001010011110100110101001011010010010100011101000101010000110100000 2
b100 9"
1!
#205000
b10110000 $
b10110000 N"
0!
#210000
b10001 +
b10001 *
b10001 -
b10010 |
b10001 ,
b10001 6
bx1011000010101111101011101010110110101100101010111010101010101001101010001010011110100110101001011010010010100011101000101010000110100000 2
b100 9"
1!
#215000
b10110001 $
b10110001 N"
0!
#220000
b10010 +
b10010 *
b10010 -
b10010 ,
b10010 6
b10011 |
bx101100011011000010101111101011101010110110101100101010111010101010101001101010001010011110100110101001011010010010100011101000101010000110100000 2
b100 9"
1!
#225000
b10110010 $
b10110010 N"
0!
#230000
b10011 +
b10011 *
b10011 -
b10100 |
b10011 ,
b10011 6
bx10110010101100011011000010101111101011101010110110101100101010111010101010101001101010001010011110100110101001011010010010100011101000101010000110100000 2
b100 9"
1!
#235000
b10110011 $
b10110011 N"
0!
#240000
b10100 +
b10100 *
b10100 -
b10100 ,
b10100 6
b10101 |
bx1011001110110010101100011011000010101111101011101010110110101100101010111010101010101001101010001010011110100110101001011010010010100011101000101010000110100000 2
b100 9"
1!
#245000
b10110100 $
b10110100 N"
0!
#250000
b10101 +
b10101 *
b10101 -
b10110 |
b10101 ,
b10101 6
bx101101001011001110110010101100011011000010101111101011101010110110101100101010111010101010101001101010001010011110100110101001011010010010100011101000101010000110100000 2
b100 9"
1!
#255000
b10110101 $
b10110101 N"
0!
#260000
b10110 +
b10110 *
b10110 -
b10110 ,
b10110 6
b10111 |
bx10110101101101001011001110110010101100011011000010101111101011101010110110101100101010111010101010101001101010001010011110100110101001011010010010100011101000101010000110100000 2
b100 9"
1!
#265000
b10110110 $
b10110110 N"
0!
#270000
b10111 +
b10111 *
b10111 -
b11000 |
b10111 ,
b10111 6
bx1011011010110101101101001011001110110010101100011011000010101111101011101010110110101100101010111010101010101001101010001010011110100110101001011010010010100011101000101010000110100000 2
b100 9"
1!
#275000
b10110111 $
b10110111 N"
0!
#280000
b11000 +
b11000 *
b11000 -
b11000 ,
b11000 6
b11001 |
bx101101111011011010110101101101001011001110110010101100011011000010101111101011101010110110101100101010111010101010101001101010001010011110100110101001011010010010100011101000101010000110100000 2
b100 9"
1!
#285000
b10111000 $
b10111000 N"
0!
#290000
b11001 +
b11001 *
b11001 -
b11010 |
b11001 ,
b11001 6
bx10111000101101111011011010110101101101001011001110110010101100011011000010101111101011101010110110101100101010111010101010101001101010001010011110100110101001011010010010100011101000101010000110100000 2
b100 9"
1!
#295000
b10111001 $
b10111001 N"
0!
#300000
b11010 +
b11010 *
b11010 -
b11010 ,
b11010 6
b11011 |
bx1011100110111000101101111011011010110101101101001011001110110010101100011011000010101111101011101010110110101100101010111010101010101001101010001010011110100110101001011010010010100011101000101010000110100000 2
b100 9"
1!
#305000
b10111010 $
b10111010 N"
0!
#310000
b11011 +
b11011 *
b11011 -
b11100 |
b11011 ,
b11011 6
bx101110101011100110111000101101111011011010110101101101001011001110110010101100011011000010101111101011101010110110101100101010111010101010101001101010001010011110100110101001011010010010100011101000101010000110100000 2
b100 9"
1!
#315000
b10111011 $
b10111011 N"
0!
