val/common_level0/dataint_ecc_hamming_encode_secded/dump.vcd
$date
	Thu Feb 22 18:27:51 2024
$end
$version
	Icarus Verilog
$end
$timescale
	1ps
$end
$scope module dataint_ecc_hamming_encode_secded $end
$var wire 8 ! i_data [7:0] $end
$var reg 13 " ow_encoded_data [12:0] $end
$var reg 13 # w_covered_bits [12:0] $end
$var reg 13 $ w_data_with_parity [12:0] $end
$var integer 32 % bit_index [31:0] $end
$var integer 32 & i [31:0] $end
$var integer 32 ' parity_pos [31:0] $end
$scope function bit_position $end
$upscope $end
$scope function get_covered_bits $end
$upscope $end
$upscope $end
$enddefinitions $end
#0
$dumpvars
b1000 '
b100 &
b1101 %
b0 $
b1111110000000 #
b0 "
b0 !
$end
#5000
b1000000000010 "
b1101 %
b1111110000000 #
b1000 '
b1000000000010 $
b100 &
b1 !
#10000
b1101 %
b1111110000000 #
b1000 '
b100 &
b1000000000010 $
b10 !
#15000
b0 "
b1101 %
b1111110000000 #
b1000 '
b100 &
b0 $
b11 !
#20000
b1000000110100 "
b1101 %
b1111110000000 #
b1000 '
b1000000110100 $
b100 &
b100 !
#25000
b110110 "
b1101 %
b1111110000000 #
b1000 '
b100 &
b110110 $
b101 !
#30000
b1101 %
b1111110000000 #
b1000 '
b100 &
b110110 $
b110 !
#35000
b1000000110100 "
b1101 %
b1111110000000 #
b1000 '
b100 &
b1000000110100 $
b111 !
#40000
b1010110 "
b1101 %
b1111110000000 #
b1000 '
b100 &
b1010110 $
b1000 !
#45000
b1000001010100 "
b1101 %
b1111110000000 #
b1000 '
b100 &
b1000001010100 $
b1001 !
#50000
b1101 %
b1111110000000 #
b1000 '
b100 &
b1000001010100 $
b1010 !
#55000
b1010110 "
b1101 %
b1111110000000 #
b1000 '
b100 &
b1010110 $
b1011 !
#60000
b1000001100010 "
b1101 %
b1111110000000 #
b1000 '
b100 &
b1000001100010 $
b1100 !
#65000
b1100000 "
b1101 %
b1111110000000 #
b1000 '
b100 &
b1100000 $
b1101 !
#70000
b1101 %
b1111110000000 #
b1000 '
b100 &
b1100000 $
b1110 !
#75000
b1000001100010 "
b1101 %
b1111110000000 #
b1000 '
b100 &
b1000001100010 $
b1111 !
#80000
b1000000000010 "
b1101 %
b1111110000000 #
b1000 '
b100 &
b1000000000010 $
b10000 !
#85000
b0 "
b1101 %
b1111110000000 #
b1000 '
b100 &
b0 $
b10001 !
#90000
b1101 %
b1111110000000 #
b1000 '
b0 $
b100 &
b10010 !
#95000
b1000000000010 "
b1101 %
b1111110000000 #
b1000 '
b1000000000010 $
b100 &
b10011 !
#100000
b110110 "
b1101 %
b1111110000000 #
b1000 '
b100 &
b110110 $
b10100 !
#105000
b1000000110100 "
b1101 %
b1111110000000 #
b1000 '
b100 &
b1000000110100 $
b10101 !
#110000
b1101 %
b1111110000000 #
b1000 '
b100 &
b1000000110100 $
b10110 !
#115000
b110110 "
b1101 %
b1111110000000 #
b1000 '
b100 &
b110110 $
b10111 !
#120000
b1000001010100 "
b1101 %
b1111110000000 #
b1000 '
b100 &
b1000001010100 $
b11000 !
#125000
b1010110 "
b1101 %
b1111110000000 #
b1000 '
b100 &
b1010110 $
b11001 !
#130000
b1101 %
b1111110000000 #
b1000 '
b100 &
b1010110 $
b11010 !
#135000
b1000001010100 "
b1101 %
b1111110000000 #
b1000 '
b100 &
b1000001010100 $
b11011 !
#140000
b1100000 "
b1101 %
b1111110000000 #
b1000 '
b100 &
b1100000 $
b11100 !
#145000
b1000001100010 "
b1101 %
b1111110000000 #
b1000 '
b100 &
b1000001100010 $
b11101 !
#150000
b1101 %
b1111110000000 #
b1000 '
b100 &
b1000001100010 $
b11110 !
#155000
b1100000 "
b1101 %
b1111110000000 #
b1000 '
b100 &
b1100000 $
b11111 !
#160000
b1001100000100 "
b1101 %
b1111110000000 #
b1000 '
b100 &
b1001100000100 $
b100000 !
#165000
b1100000110 "
b1101 %
b1111110000000 #
b1000 '
b100 &
b1100000110 $
b100001 !
#170000
b1101 %
b1111110000000 #
b1000 '
b100 &
b1100000110 $
b100010 !
#175000
b1001100000100 "
b1101 %
b1111110000000 #
b1000 '
b100 &
b1001100000100 $
b100011 !
#180000
b1100110000 "
b1101 %
b1111110000000 #
b1000 '
b100 &
b1100110000 $
b100100 !
#185000
b1001100110010 "
b1101 %
b1111110000000 #
b1000 '
b100 &
b1001100110010 $
b100101 !
#190000
b1101 %
b1111110000000 #
b1000 '
b100 &
b1001100110010 $
b100110 !
#195000
b1100110000 "
b1101 %
b1111110000000 #
b1000 '
b100 &
b1100110000 $
b100111 !
#200000
b1001101010010 "
b1101 %
b1111110000000 #
b1000 '
b100 &
b1001101010010 $
b101000 !
#205000
b1101010000 "
b1101 %
b1111110000000 #
b1000 '
b100 &
b1101010000 $
b101001 !
#210000
b1101 %
b1111110000000 #
b1000 '
b100 &
b1101010000 $
b101010 !
#215000
b1001101010010 "
b1101 %
b1111110000000 #
b1000 '
b100 &
b1001101010010 $
b101011 !
#220000
b1101100110 "
b1101 %
b1111110000000 #
b1000 '
b100 &
b1101100110 $
b101100 !
#225000
b1001101100100 "
b1101 %
b1111110000000 #
b1000 '
b100 &
b1001101100100 $
b101101 !
#230000
b1101 %
b1111110000000 #
b1000 '
b100 &
b1001101100100 $
b101110 !
#235000
b1101100110 "
b1101 %
b1111110000000 #
b1000 '
b100 &
b1101100110 $
b101111 !
#240000
b1100000110 "
b1101 %
b1111110000000 #
b1000 '
b100 &
b1100000110 $
b110000 !
#245000
b1001100000100 "
b1101 %
b1111110000000 #
b1000 '
b100 &
b1001100000100 $
b110001 !
#250000
b1101 %
b1111110000000 #
b1000 '
b100 &
b1001100000100 $
b110010 !
#255000
b1100000110 "
b1101 %
b1111110000000 #
b1000 '
b100 &
b1100000110 $
b110011 !
#260000
b1001100110010 "
b1101 %
b1111110000000 #
b1000 '
b100 &
b1001100110010 $
b110100 !
#265000
b1100110000 "
b1101 %
b1111110000000 #
b1000 '
b100 &
b1100110000 $
b110101 !
#270000
b1101 %
b1111110000000 #
b1000 '
b100 &
b1100110000 $
b110110 !
#275000
b1001100110010 "
b1101 %
b1111110000000 #
b1000 '
b100 &
b1001100110010 $
b110111 !
#280000
b1101010000 "
b1101 %
b1111110000000 #
b1000 '
b100 &
b1101010000 $
b111000 !
#285000
b1001101010010 "
b1101 %
b1111110000000 #
b1000 '
b100 &
b1001101010010 $
b111001 !
#290000
b1101 %
b1111110000000 #
b1000 '
b100 &
b1001101010010 $
b111010 !
#295000
b1101010000 "
b1101 %
b1111110000000 #
b1000 '
b100 &
b1101010000 $
b111011 !
#300000
b1001101100100 "
b1101 %
b1111110000000 #
b1000 '
b100 &
b1001101100100 $
b111100 !
#305000
b1101100110 "
b1101 %
b1111110000000 #
b1000 '
b100 &
b1101100110 $
b111101 !
#310000
b1101 %
b1111110000000 #
b1000 '
b100 &
b1101100110 $
b111110 !
#315000
b1001101100100 "
b1101 %
b1111110000000 #
b1000 '
b100 &
b1001101100100 $
b111111 !
#320000
b10100000110 "
b1101 %
b1111110000000 #
b1000 '
b100 &
b10100000110 $
b1000000 !
#325000
b1010100000100 "
b1101 %
b1111110000000 #
b1000 '
b100 &
b1010100000100 $
b1000001 !
#330000
b1101 %
b1111110000000 #
b1000 '
b100 &
b1010100000100 $
b1000010 !
#335000
b10100000110 "
b1101 %
b1111110000000 #
b1000 '
b100 &
b10100000110 $
b1000011 !
#340000
b1010100110010 "
b1101 %
b1111110000000 #
b1000 '
b100 &
b1010100110010 $
b1000100 !
#345000
b10100110000 "
b1101 %
b1111110000000 #
b1000 '
b100 &
b10100110000 $
b1000101 !
#350000
b1101 %
b1111110000000 #
b1000 '
b100 &
b10100110000 $
b1000110 !
#355000
b1010100110010 "
b1101 %
b1111110000000 #
b1000 '
b100 &
b1010100110010 $
b1000111 !
#360000
b10101010000 "
b1101 %
b1111110000000 #
b1000 '
b100 &
b10101010000 $
b1001000 !
#365000
b1010101010010 "
b1101 %
b1111110000000 #
b1000 '
b100 &
b1010101010010 $
b1001001 !
#370000
b1101 %
b1111110000000 #
b1000 '
b100 &
b1010101010010 $
b1001010 !
#375000
b10101010000 "
b1101 %
b1111110000000 #
b1000 '
b100 &
b10101010000 $
b1001011 !
#380000
b1010101100100 "
b1101 %
b1111110000000 #
b1000 '
b100 &
b1010101100100 $
b1001100 !
#385000
b10101100110 "
b1101 %
b1111110000000 #
b1000 '
b100 &
b10101100110 $
b1001101 !
#390000
b1101 %
b1111110000000 #
b1000 '
b100 &
b10101100110 $
b1001110 !
#395000
b1010101100100 "
b1101 %
b1111110000000 #
b1000 '
b100 &
b1010101100100 $
b1001111 !
#400000
b1010100000100 "
b1101 %
b1111110000000 #
b1000 '
b100 &
b1010100000100 $
b1010000 !
#405000
b10100000110 "
b1101 %
b1111110000000 #
b1000 '
b100 &
b10100000110 $
b1010001 !
#410000
b1101 %
b1111110000000 #
b1000 '
b100 &
b10100000110 $
b1010010 !
#415000
b1010100000100 "
b1101 %
b1111110000000 #
b1000 '
b100 &
b1010100000100 $
b1010011 !
#420000
b10100110000 "
b1101 %
b1111110000000 #
b1000 '
b100 &
b10100110000 $
b1010100 !
#425000
b1010100110010 "
b1101 %
b1111110000000 #
b1000 '
b100 &
b1010100110010 $
b1010101 !
#430000
b1101 %
b1111110000000 #
b1000 '
b100 &
b1010100110010 $
b1010110 !
#435000
b10100110000 "
b1101 %
b1111110000000 #
b1000 '
b100 &
b10100110000 $
b1010111 !
#440000
b1010101010010 "
b1101 %
b1111110000000 #
b1000 '
b100 &
b1010101010010 $
b1011000 !
#445000
b10101010000 "
b1101 %
b1111110000000 #
b1000 '
b100 &
b10101010000 $
b1011001 !
#450000
b1101 %
b1111110000000 #
b1000 '
b100 &
b10101010000 $
b1011010 !
#455000
b1010101010010 "
b1101 %
b1111110000000 #
b1000 '
b100 &
b1010101010010 $
b1011011 !
#460000
b10101100110 "
b1101 %
b1111110000000 #
b1000 '
b100 &
b10101100110 $
b1011100 !
#465000
b1010101100100 "
b1101 %
b1111110000000 #
b1000 '
b100 &
b1010101100100 $
b1011101 !
#470000
b1101 %
b1111110000000 #
b1000 '
b100 &
b1010101100100 $
b1011110 !
#475000
b10101100110 "
b1101 %
b1111110000000 #
b1000 '
b100 &
b10101100110 $
b1011111 !
#480000
b1011000000010 "
b1101 %
b1111110000000 #
b1000 '
b100 &
b1011000000010 $
b1100000 !
#485000
b11000000000 "
b1101 %
b1111110000000 #
b1000 '
b100 &
b11000000000 $
b1100001 !
#490000
b1101 %
b1111110000000 #
b1000 '
b100 &
b11000000000 $
b1100010 !
#495000
b1011000000010 "
b1101 %
b1111110000000 #
b1000 '
b100 &
b1011000000010 $
b1100011 !
#500000
b11000110110 "
b1101 %
b1111110000000 #
b1000 '
b100 &
b11000110110 $
b1100100 !
#505000
b1011000110100 "
b1101 %
b1111110000000 #
b1000 '
b100 &
b1011000110100 $
b1100101 !
#510000
b1101 %
b1111110000000 #
b1000 '
b100 &
b1011000110100 $
b1100110 !
#515000
b11000110110 "
b1101 %
b1111110000000 #
b1000 '
b100 &
b11000110110 $
b1100111 !
#520000
b1011001010100 "
b1101 %
b1111110000000 #
b1000 '
b100 &
b1011001010100 $
b1101000 !
#525000
b11001010110 "
b1101 %
b1111110000000 #
b1000 '
b100 &
b11001010110 $
b1101001 !
#530000
b1101 %
b1111110000000 #
b1000 '
b100 &
b11001010110 $
b1101010 !
#535000
b1011001010100 "
b1101 %
b1111110000000 #
b1000 '
b100 &
b1011001010100 $
b1101011 !
#540000
b11001100000 "
b1101 %
b1111110000000 #
b1000 '
b100 &
b11001100000 $
b1101100 !
#545000
b1011001100010 "
b1101 %
b1111110000000 #
b1000 '
b100 &
b1011001100010 $
b1101101 !
#550000
b1101 %
b1111110000000 #
b1000 '
b100 &
b1011001100010 $
b1101110 !
#555000
b11001100000 "
b1101 %
b1111110000000 #
b1000 '
b100 &
b11001100000 $
b1101111 !
#560000
b11000000000 "
b1101 %
b1111110000000 #
b1000 '
b100 &
b11000000000 $
b1110000 !
#565000
b1011000000010 "
b1101 %
b1111110000000 #
b1000 '
b100 &
b1011000000010 $
b1110001 !
#570000
b1101 %
b1111110000000 #
b1000 '
b100 &
b1011000000010 $
b1110010 !
#575000
b11000000000 "
b1101 %
b1111110000000 #
b1000 '
b100 &
b11000000000 $
b1110011 !
#580000
b1011000110100 "
b1101 %
b1111110000000 #
b1000 '
b100 &
b1011000110100 $
b1110100 !
#585000
b11000110110 "
b1101 %
b1111110000000 #
b1000 '
b100 &
b11000110110 $
b1110101 !
#590000
b1101 %
b1111110000000 #
b1000 '
b100 &
b11000110110 $
b1110110 !
#595000
b1011000110100 "
b1101 %
b1111110000000 #
b1000 '
b100 &
b1011000110100 $
b1110111 !
#600000
b11001010110 "
b1101 %
b1111110000000 #
b1000 '
b100 &
b11001010110 $
b1111000 !
#605000
b1011001010100 "
b1101 %
b1111110000000 #
b1000 '
b100 &
b1011001010100 $
b1111001 !
#610000
b1101 %
b1111110000000 #
b1000 '
b100 &
b1011001010100 $
b1111010 !
#615000
b11001010110 "
b1101 %
b1111110000000 #
b1000 '
b100 &
b11001010110 $
b1111011 !
#620000
b1011001100010 "
b1101 %
b1111110000000 #
b1000 '
b100 &
b1011001100010 $
b1111100 !
#625000
b11001100000 "
b1101 %
b1111110000000 #
b1000 '
b100 &
b11001100000 $
b1111101 !
#630000
b1101 %
b1111110000000 #
b1000 '
b100 &
b11001100000 $
b1111110 !
#635000
b1011001100010 "
b1101 %
b1111110000000 #
b1000 '
b100 &
b1011001100010 $
b1111111 !
#640000
b1100100010000 "
b1101 %
b1111110000000 #
b1000 '
b100 &
b1100100010000 $
b10000000 !
#645000
b100100010010 "
b1101 %
b1111110000000 #
b1000 '
b100 &
b100100010010 $
b10000001 !
#650000
b1101 %
b1111110000000 #
b1000 '
b100 &
b100100010010 $
b10000010 !
#655000
b1100100010000 "
b1101 %
b1111110000000 #
b1000 '
b100 &
b1100100010000 $
b10000011 !
#660000
b100100100100 "
b1101 %
b1111110000000 #
b1000 '
b100 &
b100100100100 $
b10000100 !
#665000
b1100100100110 "
b1101 %
b1111110000000 #
b1000 '
b100 &
b1100100100110 $
b10000101 !
#670000
b1101 %
b1111110000000 #
b1000 '
b100 &
b1100100100110 $
b10000110 !
#675000
b100100100100 "
b1101 %
b1111110000000 #
b1000 '
b100 &
b100100100100 $
b10000111 !
#680000
b1100101000110 "
b1101 %
b1111110000000 #
b1000 '
b100 &
b1100101000110 $
b10001000 !
#685000
b100101000100 "
b1101 %
b1111110000000 #
b1000 '
b100 &
b100101000100 $
b10001001 !
#690000
b1101 %
b1111110000000 #
b1000 '
b100 &
b100101000100 $
b10001010 !
#695000
b1100101000110 "
b1101 %
b1111110000000 #
b1000 '
b100 &
b1100101000110 $
b10001011 !
#700000
b100101110010 "
b1101 %
b1111110000000 #
b1000 '
b100 &
b100101110010 $
b10001100 !
#705000
b1100101110000 "
b1101 %
b1111110000000 #
b1000 '
b100 &
b1100101110000 $
b10001101 !
#710000
b1101 %
b1111110000000 #
b1000 '
b100 &
b1100101110000 $
b10001110 !
#715000
b100101110010 "
b1101 %
b1111110000000 #
b1000 '
b100 &
b100101110010 $
b10001111 !
#720000
b100100010010 "
b1101 %
b1111110000000 #
b1000 '
b100 &
b100100010010 $
b10010000 !
#725000
b1100100010000 "
b1101 %
b1111110000000 #
b1000 '
b100 &
b1100100010000 $
b10010001 !
#730000
b1101 %
b1111110000000 #
b1000 '
b100 &
b1100100010000 $
b10010010 !
#735000
b100100010010 "
b1101 %
b1111110000000 #
b1000 '
b100 &
b100100010010 $
b10010011 !
#740000
b1100100100110 "
b1101 %
b1111110000000 #
b1000 '
b100 &
b1100100100110 $
b10010100 !
#745000
b100100100100 "
b1101 %
b1111110000000 #
b1000 '
b100 &
b100100100100 $
b10010101 !
#750000
b1101 %
b1111110000000 #
b1000 '
b100 &
b100100100100 $
b10010110 !
#755000
b1100100100110 "
b1101 %
b1111110000000 #
b1000 '
b100 &
b1100100100110 $
b10010111 !
#760000
b100101000100 "
b1101 %
b1111110000000 #
b1000 '
b100 &
b100101000100 $
b10011000 !
#765000
b1100101000110 "
b1101 %
b1111110000000 #
b1000 '
b100 &
b1100101000110 $
b10011001 !
#770000
b1101 %
b1111110000000 #
b1000 '
b100 &
b1100101000110 $
b10011010 !
#775000
b100101000100 "
b1101 %
b1111110000000 #
b1000 '
b100 &
b100101000100 $
b10011011 !
#780000
b1100101110000 "
b1101 %
b1111110000000 #
b1000 '
b100 &
b1100101110000 $
b10011100 !
#785000
b100101110010 "
b1101 %
b1111110000000 #
b1000 '
b100 &
b100101110010 $
b10011101 !
#790000
b1101 %
b1111110000000 #
b1000 '
b100 &
b100101110010 $
b10011110 !
#795000
b1100101110000 "
b1101 %
b1111110000000 #
b1000 '
b100 &
b1100101110000 $
b10011111 !
#800000
b101000010100 "
b1101 %
b1111110000000 #
b1000 '
b100 &
b101000010100 $
b10100000 !
#805000
b1101000010110 "
b1101 %
b1111110000000 #
b1000 '
b100 &
b1101000010110 $
b10100001 !
#810000
b1101 %
b1111110000000 #
b1000 '
b100 &
b1101000010110 $
b10100010 !
#815000
b101000010100 "
b1101 %
b1111110000000 #
b1000 '
b100 &
b101000010100 $
b10100011 !
#820000
b1101000100000 "
b1101 %
b1111110000000 #
b1000 '
b100 &
b1101000100000 $
b10100100 !
#825000
b101000100010 "
b1101 %
b1111110000000 #
b1000 '
b100 &
b101000100010 $
b10100101 !
#830000
b1101 %
b1111110000000 #
b1000 '
b100 &
b101000100010 $
b10100110 !
#835000
b1101000100000 "
b1101 %
b1111110000000 #
b1000 '
b100 &
b1101000100000 $
b10100111 !
#840000
b101001000010 "
b1101 %
b1111110000000 #
b1000 '
b100 &
b101001000010 $
b10101000 !
#845000
b1101001000000 "
b1101 %
b1111110000000 #
b1000 '
b100 &
b1101001000000 $
b10101001 !
#850000
b1101 %
b1111110000000 #
b1000 '
b100 &
b1101001000000 $
b10101010 !
#855000
b101001000010 "
b1101 %
b1111110000000 #
b1000 '
b100 &
b101001000010 $
b10101011 !
#860000
b1101001110110 "
b1101 %
b1111110000000 #
b1000 '
b100 &
b1101001110110 $
b10101100 !
#865000
b101001110100 "
b1101 %
b1111110000000 #
b1000 '
b100 &
b101001110100 $
b10101101 !
#870000
b1101 %
b1111110000000 #
b1000 '
b100 &
b101001110100 $
b10101110 !
#875000
b1101001110110 "
b1101 %
b1111110000000 #
b1000 '
b100 &
b1101001110110 $
b10101111 !
#880000
b1101000010110 "
b1101 %
b1111110000000 #
b1000 '
b100 &
b1101000010110 $
b10110000 !
#885000
b101000010100 "
b1101 %
b1111110000000 #
b1000 '
b100 &
b101000010100 $
b10110001 !
#890000
b1101 %
b1111110000000 #
b1000 '
b100 &
b101000010100 $
b10110010 !
#895000
b1101000010110 "
b1101 %
b1111110000000 #
b1000 '
b100 &
b1101000010110 $
b10110011 !
#900000
b101000100010 "
b1101 %
b1111110000000 #
b1000 '
b100 &
b101000100010 $
b10110100 !
#905000
b1101000100000 "
b1101 %
b1111110000000 #
b1000 '
b100 &
b1101000100000 $
b10110101 !
#910000
b1101 %
b1111110000000 #
b1000 '
b100 &
b1101000100000 $
b10110110 !
#915000
b101000100010 "
b1101 %
b1111110000000 #
b1000 '
b100 &
b101000100010 $
b10110111 !
#920000
b1101001000000 "
b1101 %
b1111110000000 #
b1000 '
b100 &
b1101001000000 $
b10111000 !
#925000
b101001000010 "
b1101 %
b1111110000000 #
b1000 '
b100 &
b101001000010 $
b10111001 !
#930000
b1101 %
b1111110000000 #
b1000 '
b100 &
b101001000010 $
b10111010 !
#935000
b1101001000000 "
b1101 %
b1111110000000 #
b1000 '
b100 &
b1101001000000 $
b10111011 !
#940000
b101001110100 "
b1101 %
b1111110000000 #
b1000 '
b100 &
b101001110100 $
b10111100 !
#945000
b1101001110110 "
b1101 %
b1111110000000 #
b1000 '
b100 &
b1101001110110 $
b10111101 !
#950000
b1101 %
b1111110000000 #
b1000 '
b100 &
b1101001110110 $
b10111110 !
#955000
b101001110100 "
b1101 %
b1111110000000 #
b1000 '
b100 &
b101001110100 $
b10111111 !
#960000
b1110000010110 "
b1101 %
b1111110000000 #
b1000 '
b100 &
b1110000010110 $
b11000000 !
#965000
b110000010100 "
b1101 %
b1111110000000 #
b1000 '
b100 &
b110000010100 $
b11000001 !
#970000
b1101 %
b1111110000000 #
b1000 '
b100 &
b110000010100 $
b11000010 !
#975000
b1110000010110 "
b1101 %
b1111110000000 #
b1000 '
b100 &
b1110000010110 $
b11000011 !
#980000
b110000100010 "
b1101 %
b1111110000000 #
b1000 '
b100 &
b110000100010 $
b11000100 !
#985000
b1110000100000 "
b1101 %
b1111110000000 #
b1000 '
b100 &
b1110000100000 $
b11000101 !
#990000
b1101 %
b1111110000000 #
b1000 '
b100 &
b1110000100000 $
b11000110 !
#995000
b110000100010 "
b1101 %
b1111110000000 #
b1000 '
b100 &
b110000100010 $
b11000111 !
#1000000
b1110001000000 "
b1101 %
b1111110000000 #
b1000 '
b100 &
b1110001000000 $
b11001000 !
#1005000
b110001000010 "
b1101 %
b1111110000000 #
b1000 '
b100 &
b110001000010 $
b11001001 !
#1010000
b1101 %
b1111110000000 #
b1000 '
b100 &
b110001000010 $
b11001010 !
#1015000
b1110001000000 "
b1101 %
b1111110000000 #
b1000 '
b100 &
b1110001000000 $
b11001011 !
#1020000
b110001110100 "
b1101 %
b1111110000000 #
b1000 '
b100 &
b110001110100 $
b11001100 !
#1025000
b1110001110110 "
b1101 %
b1111110000000 #
b1000 '
b100 &
b1110001110110 $
b11001101 !
#1030000
b1101 %
b1111110000000 #
b1000 '
b100 &
b1110001110110 $
b11001110 !
#1035000
b110001110100 "
b1101 %
b1111110000000 #
b1000 '
b100 &
b110001110100 $
b11001111 !
#1040000
b110000010100 "
b1101 %
b1111110000000 #
b1000 '
b100 &
b110000010100 $
b11010000 !
#1045000
b1110000010110 "
b1101 %
b1111110000000 #
b1000 '
b100 &
b1110000010110 $
b11010001 !
#1050000
b1101 %
b1111110000000 #
b1000 '
b100 &
b1110000010110 $
b11010010 !
#1055000
b110000010100 "
b1101 %
b1111110000000 #
b1000 '
b100 &
b110000010100 $
b11010011 !
#1060000
b1110000100000 "
b1101 %
b1111110000000 #
b1000 '
b100 &
b1110000100000 $
b11010100 !
#1065000
b110000100010 "
b1101 %
b1111110000000 #
b1000 '
b100 &
b110000100010 $
b11010101 !
#1070000
b1101 %
b1111110000000 #
b1000 '
b100 &
b110000100010 $
b11010110 !
#1075000
b1110000100000 "
b1101 %
b1111110000000 #
b1000 '
b100 &
b1110000100000 $
b11010111 !
#1080000
b110001000010 "
b1101 %
b1111110000000 #
b1000 '
b100 &
b110001000010 $
b11011000 !
#1085000
b1110001000000 "
b1101 %
b1111110000000 #
b1000 '
b100 &
b1110001000000 $
b11011001 !
#1090000
b1101 %
b1111110000000 #
b1000 '
b100 &
b1110001000000 $
b11011010 !
#1095000
b110001000010 "
b1101 %
b1111110000000 #
b1000 '
b100 &
b110001000010 $
b11011011 !
#1100000
b1110001110110 "
b1101 %
b1111110000000 #
b1000 '
b100 &
b1110001110110 $
b11011100 !
#1105000
b110001110100 "
b1101 %
b1111110000000 #
b1000 '
b100 &
b110001110100 $
b11011101 !
#1110000
b1101 %
b1111110000000 #
b1000 '
b100 &
b110001110100 $
b11011110 !
#1115000
b1110001110110 "
b1101 %
b1111110000000 #
b1000 '
b100 &
b1110001110110 $
b11011111 !
#1120000
b111100010010 "
b1101 %
b1111110000000 #
b1000 '
b100 &
b111100010010 $
b11100000 !
#1125000
b1111100010000 "
b1101 %
b1111110000000 #
b1000 '
b100 &
b1111100010000 $
b11100001 !
#1130000
b1101 %
b1111110000000 #
b1000 '
b100 &
b1111100010000 $
b11100010 !
#1135000
b111100010010 "
b1101 %
b1111110000000 #
b1000 '
b100 &
b111100010010 $
b11100011 !
#1140000
b1111100100110 "
b1101 %
b1111110000000 #
b1000 '
b100 &
b1111100100110 $
b11100100 !
#1145000
b111100100100 "
b1101 %
b1111110000000 #
b1000 '
b100 &
b111100100100 $
b11100101 !
#1150000
b1101 %
b1111110000000 #
b1000 '
b100 &
b111100100100 $
b11100110 !
#1155000
b1111100100110 "
b1101 %
b1111110000000 #
b1000 '
b100 &
b1111100100110 $
b11100111 !
#1160000
b111101000100 "
b1101 %
b1111110000000 #
b1000 '
b100 &
b111101000100 $
b11101000 !
#1165000
b1111101000110 "
b1101 %
b1111110000000 #
b1000 '
b100 &
b1111101000110 $
b11101001 !
#1170000
b1101 %
b1111110000000 #
b1000 '
b100 &
b1111101000110 $
b11101010 !
#1175000
b111101000100 "
b1101 %
b1111110000000 #
b1000 '
b100 &
b111101000100 $
b11101011 !
#1180000
b1111101110000 "
b1101 %
b1111110000000 #
b1000 '
b100 &
b1111101110000 $
b11101100 !
#1185000
b111101110010 "
b1101 %
b1111110000000 #
b1000 '
b100 &
b111101110010 $
b11101101 !
#1190000
b1101 %
b1111110000000 #
b1000 '
b100 &
b111101110010 $
b11101110 !
#1195000
b1111101110000 "
b1101 %
b1111110000000 #
b1000 '
b100 &
b1111101110000 $
b11101111 !
#1200000
b1111100010000 "
b1101 %
b1111110000000 #
b1000 '
b100 &
b1111100010000 $
b11110000 !
#1205000
b111100010010 "
b1101 %
b1111110000000 #
b1000 '
b100 &
b111100010010 $
b11110001 !
#1210000
b1101 %
b1111110000000 #
b1000 '
b100 &
b111100010010 $
b11110010 !
#1215000
b1111100010000 "
b1101 %
b1111110000000 #
b1000 '
b100 &
b1111100010000 $
b11110011 !
#1220000
b111100100100 "
b1101 %
b1111110000000 #
b1000 '
b100 &
b111100100100 $
b11110100 !
#1225000
b1111100100110 "
b1101 %
b1111110000000 #
b1000 '
b100 &
b1111100100110 $
b11110101 !
#1230000
b1101 %
b1111110000000 #
b1000 '
b100 &
b1111100100110 $
b11110110 !
#1235000
b111100100100 "
b1101 %
b1111110000000 #
b1000 '
b100 &
b111100100100 $
b11110111 !
#1240000
b1111101000110 "
b1101 %
b1111110000000 #
b1000 '
b100 &
b1111101000110 $
b11111000 !
#1245000
b111101000100 "
b1101 %
b1111110000000 #
b1000 '
b100 &
b111101000100 $
b11111001 !
#1250000
b1101 %
b1111110000000 #
b1000 '
b100 &
b111101000100 $
b11111010 !
#1255000
b1111101000110 "
b1101 %
b1111110000000 #
b1000 '
b100 &
b1111101000110 $
b11111011 !
#1260000
b111101110010 "
b1101 %
b1111110000000 #
b1000 '
b100 &
b111101110010 $
b11111100 !
#1265000
b1111101110000 "
b1101 %
b1111110000000 #
b1000 '
b100 &
b1111101110000 $
b11111101 !
#1270000
b1101 %
b1111110000000 #
b1000 '
b100 &
b1111101110000 $
b11111110 !
#1275000
b111101110010 "
b1101 %
b1111110000000 #
b1000 '
b100 &
b111101110010 $
b11111111 !
