val/common_level0/fifo_async/dump.vcd
$date
	Sun Feb 18 12:51:43 2024
$end
$version
	Icarus Verilog
$end
$timescale
	1ps
$end
$scope module fifo_async $end
$var wire 1 ! i_rd_clk $end
$var wire 1 " i_rd_rst_n $end
$var wire 1 # i_read $end
$var wire 1 $ i_wr_clk $end
$var wire 8 % i_wr_data [7:0] $end
$var wire 1 & i_wr_rst_n $end
$var wire 1 ' i_write $end
$var wire 8 ( ow_rd_data [7:0] $end
$var wire 4 ) w_wr_ptr_bin_next [3:0] $end
$var wire 4 * w_wdom_rd_ptr_bin [3:0] $end
$var wire 4 + w_rdom_wr_ptr_bin [3:0] $end
$var wire 4 , w_rd_ptr_bin_next [3:0] $end
$var wire 4 - r_wr_ptr_gray [3:0] $end
$var wire 4 . r_wr_ptr_bin [3:0] $end
$var wire 3 / r_wr_addr [2:0] $end
$var wire 4 0 r_wdom_rd_ptr_gray [3:0] $end
$var wire 4 1 r_rdom_wr_ptr_gray [3:0] $end
$var wire 4 2 r_rd_ptr_gray [3:0] $end
$var wire 4 3 r_rd_ptr_bin [3:0] $end
$var wire 3 4 r_rd_addr [2:0] $end
$var wire 1 5 o_wr_full $end
$var wire 1 6 o_wr_almost_full $end
$var wire 1 7 o_rd_empty $end
$var wire 1 8 o_rd_almost_empty $end
$var wire 64 9 flat_r_mem [63:0] $end
$scope begin gen_flatten_memory[0] $end
$upscope $end
$scope begin gen_flatten_memory[1] $end
$upscope $end
$scope begin gen_flatten_memory[2] $end
$upscope $end
$scope begin gen_flatten_memory[3] $end
$upscope $end
$scope begin gen_flatten_memory[4] $end
$upscope $end
$scope begin gen_flatten_memory[5] $end
$upscope $end
$scope begin gen_flatten_memory[6] $end
$upscope $end
$scope begin gen_flatten_memory[7] $end
$upscope $end
$scope module fifo_control_inst $end
$var wire 1 ! i_rd_clk $end
$var wire 1 " i_rd_rst_n $end
$var wire 1 $ i_wr_clk $end
$var wire 1 & i_wr_rst_n $end
$var wire 1 : w_rd_empty_d $end
$var wire 1 ; w_rdom_ptr_xor $end
$var wire 1 < w_wdom_ptr_xor $end
$var wire 1 = w_wr_full_d $end
$var wire 1 > w_wr_almost_full_d $end
$var wire 1 ? w_rd_almost_empty_d $end
$var wire 3 @ w_almost_full_count [2:0] $end
$var wire 3 A w_almost_empty_count [2:0] $end
$var wire 4 B iw_wr_ptr_bin [3:0] $end
$var wire 4 C iw_wdom_rd_ptr_bin [3:0] $end
$var wire 4 D iw_rdom_wr_ptr_bin [3:0] $end
$var wire 4 E iw_rd_ptr_bin [3:0] $end
$var reg 1 8 o_rd_almost_empty $end
$var reg 1 7 o_rd_empty $end
$var reg 1 6 o_wr_almost_full $end
$var reg 1 5 o_wr_full $end
$upscope $end
$scope module rd_ptr_counter_gray $end
$var wire 1 ! i_clk $end
$var wire 1 F i_enable $end
$var wire 1 " i_rst_n $end
$var wire 4 G ow_counter_bin_next [3:0] $end
$var wire 4 H w_counter_gray [3:0] $end
$var wire 4 I w_counter_bin [3:0] $end
$var reg 4 J o_counter_bin [3:0] $end
$var reg 4 K o_counter_gray [3:0] $end
$upscope $end
$scope module rd_ptr_gray2bin_inst $end
$var wire 4 L ow_binary [3:0] $end
$var wire 4 M i_gray [3:0] $end
$scope begin gen_gray_to_bin[0] $end
$upscope $end
$scope begin gen_gray_to_bin[1] $end
$upscope $end
$scope begin gen_gray_to_bin[2] $end
$upscope $end
$scope begin gen_gray_to_bin[3] $end
$upscope $end
$upscope $end
$scope module rd_ptr_gray_cross_inst $end
$var wire 1 $ i_clk $end
$var wire 4 N i_d [3:0] $end
$var wire 1 & i_rst_n $end
$var wire 4 O o_q [3:0] $end
$var wire 8 P flat_r_q [7:0] $end
$var reg 8 Q r_q_array [7:0] $end
$scope begin gen_flatten_memory[0] $end
$upscope $end
$scope begin gen_flatten_memory[1] $end
$upscope $end
$scope begin $ivl_for_loop0 $end
$var integer 32 R i [31:0] $end
$upscope $end
$upscope $end
$scope module wr_ptr_counter_gray $end
$var wire 1 $ i_clk $end
$var wire 1 S i_enable $end
$var wire 1 & i_rst_n $end
$var wire 4 T ow_counter_bin_next [3:0] $end
$var wire 4 U w_counter_gray [3:0] $end
$var wire 4 V w_counter_bin [3:0] $end
$var reg 4 W o_counter_bin [3:0] $end
$var reg 4 X o_counter_gray [3:0] $end
$upscope $end
$scope module wr_ptr_gray2bin_inst $end
$var wire 4 Y ow_binary [3:0] $end
$var wire 4 Z i_gray [3:0] $end
$scope begin gen_gray_to_bin[0] $end
$upscope $end
$scope begin gen_gray_to_bin[1] $end
$upscope $end
$scope begin gen_gray_to_bin[2] $end
$upscope $end
$scope begin gen_gray_to_bin[3] $end
$upscope $end
$upscope $end
$scope module wr_ptr_gray_cross_inst $end
$var wire 1 ! i_clk $end
$var wire 4 [ i_d [3:0] $end
$var wire 1 " i_rst_n $end
$var wire 4 \ o_q [3:0] $end
$var wire 8 ] flat_r_q [7:0] $end
$var reg 8 ^ r_q_array [7:0] $end
$scope begin gen_flatten_memory[0] $end
$upscope $end
$scope begin gen_flatten_memory[1] $end
$upscope $end
$scope begin $ivl_for_loop0 $end
$var integer 32 _ i [31:0] $end
$upscope $end
$upscope $end
$upscope $end
$enddefinitions $end
#0
$dumpvars
b0 _
b0 ^
b0 ]
bx \
b0 [
bx Z
bx Y
b0 X
b0 W
b0 V
b0 U
b0 T
0S
b0 R
b0 Q
b0 P
bx O
b0 N
bx M
bx L
b0 K
b0 J
b0 I
b0 H
b0 G
0F
b0 E
bx D
bx C
b0 B
bx A
bx @
x?
x>
x=
x<
x;
x:
bx 9
08
07
06
05
b0 4
b0 3
b0 2
bx 1
bx 0
b0 /
b0 .
b0 -
b0 ,
bx +
bx *
b0 )
bx (
0'
0&
b0 %
1$
0#
0"
1!
$end
#1000
0?
b0 A
0>
b0 @
b0 +
b0 D
b0 Y
b0 1
b0 Z
b0 \
b0 *
b0 C
b0 L
b0 0
b0 M
b0 O
#2000
1:
0=
0;
0<
#5000
0$
#7500
0!
#10000
1$
#15000
0$
1!
#20000
1$
#22500
0!
#25000
0$
#30000
17
b10 R
b10 _
1$
1!
1"
1&
#30100
b1 @
b1 U
b1 )
b1 B
b1 T
b1 V
1S
b11100001 %
1'
#35000
0$
#37500
0!
#40000
b10 @
b11 U
b10 )
b10 B
b10 T
b10 V
b1 /
b1 -
b1 X
b1 [
b1 .
b1 W
bx11100001 9
b11100001 (
b10 R
1$
#40100
b1 @
b1 U
b1 )
b1 B
b1 T
b1 V
0S
0'
#45000
b1 ]
b1 ^
b10 _
0$
1!
#50000
b10 @
b11 U
b10 )
b10 B
b10 T
b10 V
1S
b111011 %
1'
b10 R
1$
#52500
0!
#55000
0$
#60000
b11 @
b10 U
b11 )
b11 B
b11 T
b11 V
b10 /
b10001 ]
b11 -
b11 X
b11 [
b10 .
b10 W
bx0011101111100001 9
b10001 ^
b10 R
b10 _
1$
1!
#60100
b10 @
b11 U
b10 )
b10 B
b10 T
b10 V
0S
0'
#61000
1?
b1 A
0:
b1 +
b1 D
b1 Y
b1 1
b1 Z
b1 \
#65000
0$
#67500
0!
#70000
b11 @
b10 U
b11 )
b11 B
b11 T
b11 V
1S
b11 %
1'
b10 R
1$
#75000
b10011 ]
18
07
b10011 ^
b10 _
0$
1!
#80000
b100 @
b110 U
b100 )
b100 B
b100 T
b100 V
b11 /
b10 -
b10 X
b10 [
b11 .
b11 W
bx000000110011101111100001 9
b10 R
1$
#80100
b11 @
b10 U
b11 )
b11 B
b11 T
b11 V
0S
0'
#82500
0!
#85000
0$
#90000
b100 @
b110 U
b100 )
b100 B
b100 T
b100 V
1S
b101110 %
1'
b110010 ]
b110010 ^
b10 R
b10 _
1$
1!
#91000
b10 A
b10 +
b10 D
b10 Y
b11 1
b11 Z
b11 \
#95000
0$
#97500
0!
#100000
b101 @
b111 U
b101 )
b101 B
b101 T
b101 V
b100 /
b110 -
b110 X
b110 [
b100 .
b100 W
bx00101110000000110011101111100001 9
b10 R
1$
#100100
b100 @
b110 U
b100 )
b100 B
b100 T
b100 V
0S
0'
#105000
b100110 ]
b100110 ^
b10 _
0$
1!
#106000
0?
b11 A
b11 +
b11 D
b11 Y
b10 1
b10 Z
b10 \
#110000
b101 @
b111 U
b101 )
b101 B
b101 T
b101 V
1S
b10001 %
1'
b10 R
1$
#112500
0!
#115000
0$
#120000
1>
b110 @
b101 U
b110 )
b110 B
b110 T
b110 V
b101 /
b1100110 ]
b111 -
b111 X
b111 [
b101 .
b101 W
bx0001000100101110000000110011101111100001 9
b1100110 ^
08
b10 R
b10 _
1$
1!
#120100
0>
b101 @
b111 U
b101 )
b101 B
b101 T
b101 V
0S
0'
#121000
b100 A
b100 +
b100 D
b100 Y
b110 1
b110 Z
b110 \
#125000
0$
#127500
0!
#130000
1>
b110 @
b101 U
b110 )
b110 B
b110 T
b110 V
1S
b101010 %
1'
b10 R
1$
#135000
b1100111 ]
b1100111 ^
b10 _
0$
1!
#140000
b111 @
b100 U
b111 )
b111 B
b111 T
b111 V
b110 /
b101 -
b101 X
b101 [
b110 .
b110 W
16
bx001010100001000100101110000000110011101111100001 9
b10 R
1$
#140100
b110 @
b101 U
b110 )
b110 B
b110 T
b110 V
0S
0'
#142500
0!
#145000
0$
#150000
b111 @
b100 U
b111 )
b111 B
b111 T
b111 V
1S
b110010 %
1'
b1110101 ]
b1110101 ^
b10 R
b10 _
1$
1!
#151000
b101 A
b101 +
b101 D
b101 Y
b111 1
b111 Z
b111 \
#155000
0$
#157500
0!
#160000
0>
b0 @
b1100 U
b1000 )
b1000 B
b1000 T
b1000 V
b111 /
b100 -
b100 X
b100 [
b111 .
b111 W
bx00110010001010100001000100101110000000110011101111100001 9
b10 R
1$
#160100
1>
b111 @
b100 U
b111 )
b111 B
b111 T
b111 V
0S
0'
#165000
b1010100 ]
b1010100 ^
b10 _
0$
1!
#166000
b110 A
b110 +
b110 D
b110 Y
b101 1
b101 Z
b101 \
#170000
0>
b0 @
b1100 U
b1000 )
b1000 B
b1000 T
b1000 V
1S
b10110101 %
1'
b10 R
1$
#171000
1=
1<
#172500
0!
#175000
0$
#180000
b0 /
0S
b1000100 ]
b1100 -
b1100 X
b1100 [
b1000 .
b1000 W
06
15
b1011010100110010001010100001000100101110000000110011101111100001 9
b1000100 ^
b10 R
b10 _
1$
1!
#180100
0'
#181000
b111 A
b111 +
b111 D
b111 Y
b100 1
b100 Z
b100 \
#185000
0$
#187500
0!
#190000
b0 %
b10 R
1$
#195000
b1001100 ]
b1001100 ^
b10 _
0$
1!
#200000
b10 R
1$
#202500
0!
#205000
0$
#210000
b110 A
b1 H
b1 ,
b1 E
b1 G
b1 I
1F
1#
b11001100 ]
b11001100 ^
b10 R
b10 _
1$
1!
#211000
b111 A
b1000 +
b1000 D
b1000 Y
b1100 1
b1100 Z
b1100 \
#212000
1;
#215000
0$
#217500
0!
#220000
b10 R
1$
#225000
b110 A
b11 H
b10 ,
b10 E
b10 G
b10 I
b111011 (
b1 4
b1 2
b1 K
b1 N
b1 3
b1 J
b10 _
0$
1!
#225100
b111 A
b1 H
b1 ,
b1 E
b1 G
b1 I
0F
0#
#230000
b1 P
b1 Q
b10 R
1$
#232500
0!
#235000
0$
#240000
b10001 P
b10001 Q
b10 R
b10 _
1$
1!
#241000
1>
b111 @
0=
b1 *
b1 C
b1 L
b1 0
b1 M
b1 O
#245000
0$
#247500
0!
#250000
16
05
b10 R
1$
#250100
b110 @
1=
b1101 U
b1001 )
b1001 B
b1001 T
b1001 V
1S
b1111001 %
1'
#255000
b110 A
b11 H
b10 ,
b10 E
b10 G
b10 I
1F
1#
b10 _
0$
1!
#260000
b1 /
0S
b1101 -
b1101 X
b1101 [
b1001 .
b1001 W
15
b1011010100110010001010100001000100101110000000110011101101111001 9
b10 R
1$
#260100
0'
#262500
0!
#265000
0$
#270000
b0 %
b101 A
b10 H
b11 ,
b11 E
b11 G
b11 I
b11 (
b10 4
b11001101 ]
b11 2
b11 K
b11 N
b10 3
b10 J
b11001101 ^
b10 R
b10 _
1$
1!
#270100
b110 A
b11 H
b10 ,
b10 E
b10 G
b10 I
0F
0#
#275000
0$
#277500
0!
#280000
b10011 P
b10011 Q
b10 R
1$
#285000
b11011101 ]
b11011101 ^
b10 _
0$
1!
#286000
b101 A
b1001 +
b1001 D
b1001 Y
b1101 1
b1101 Z
b1101 \
#290000
b110011 P
b110011 Q
b10 R
1$
#291000
0>
b101 @
0=
b10 *
b10 C
b10 L
b11 0
b11 M
b11 O
#292500
0!
#295000
0$
#300000
b100 A
b10 H
b11 ,
b11 E
b11 G
b11 I
1F
1#
06
05
b10 R
b10 _
1$
1!
#300100
b100 @
1=
b1111 U
b1010 )
b1010 B
b1010 T
b1010 V
1S
b1000 %
1'
#305000
0$
#307500
0!
#310000
b100 @
1=
b1111 U
0S
b1010 )
b1010 B
b1010 T
b1010 V
b10 /
15
b1111 -
b1111 X
b1111 [
b1010 .
b1010 W
b1011010100110010001010100001000100101110000000110000100001111001 9
b10 R
1$
#310100
0'
#315000
b11 A
b110 H
b100 ,
b100 E
b100 G
b100 I
b101110 (
b11 4
b11011111 ]
b10 2
b10 K
b10 N
b11 3
b11 J
b11011111 ^
b10 _
0$
1!
#315100
b100 A
b10 H
b11 ,
b11 E
b11 G
b11 I
0F
0#
#320000
b0 %
b110010 P
b110010 Q
b10 R
1$
#322500
0!
#325000
0$
#330000
b100010 P
b11111111 ]
b100010 Q
b11111111 ^
b10 R
b10 _
1$
1!
#331000
b11 @
b11 A
0=
b11 *
b11 C
b11 L
b10 0
b10 M
b10 O
b1010 +
b1010 D
b1010 Y
b1111 1
b1111 Z
b1111 \
#335000
0$
#337500
0!
#340000
05
b10 R
1$
#340100
b10 @
1=
b1110 U
b1011 )
b1011 B
b1011 T
b1011 V
1S
b1111 %
1'
#345000
1?
b10 A
b110 H
b100 ,
b100 E
b100 G
b100 I
1F
1#
b10 _
0$
1!
#350000
b10 @
1=
b1110 U
0S
b1011 )
b1011 B
b1011 T
b1011 V
b11 /
15
b1110 -
b1110 X
b1110 [
b1011 .
b1011 W
b1011010100110010001010100001000100101110000011110000100001111001 9
b10 R
1$
#350100
0'
#352500
0!
#355000
0$
#360000
b0 %
b1 A
b111 H
b101 ,
b101 E
b101 G
b101 I
b10001 (
b100 4
b11111110 ]
b110 2
b110 K
b110 N
b100 3
b100 J
18
b11111110 ^
b10 R
b10 _
1$
1!
#360100
b10 A
b110 H
b100 ,
b100 E
b100 G
b100 I
0F
0#
#365000
0$
#367500
0!
#370000
b100110 P
b100110 Q
b10 R
1$
#375000
b11101110 ]
b11101110 ^
b10 _
0$
1!
#376000
b1 A
b1011 +
b1011 D
b1011 Y
b1110 1
b1110 Z
b1110 \
#380000
b1100110 P
b1100110 Q
b10 R
1$
#381000
b1 @
0=
b100 *
b100 C
b100 L
b110 0
b110 M
b110 O
#382500
0!
#385000
0$
#390000
0?
b0 A
b111 H
b101 ,
b101 E
b101 G
b101 I
1F
1#
05
b10 R
b10 _
1$
1!
#390100
b0 @
1=
b1010 U
b1100 )
b1100 B
b1100 T
b1100 V
1S
b1000 %
1'
#395000
0$
#397500
0!
#400000
b100 /
0S
b1010 -
b1010 X
b1010 [
b1100 .
b1100 W
15
b1011010100110010001010100001000100001000000011110000100001111001 9
b10 R
1$
#400100
0'
#405000
b111 A
b101 H
b110 ,
b110 E
b110 G
b110 I
b101010 (
b101 4
b11101010 ]
08
b111 2
b111 K
b111 N
b101 3
b101 J
b11101010 ^
b10 _
0$
1!
#405100
b0 A
b111 H
b101 ,
b101 E
b101 G
b101 I
0F
0#
#410000
b0 %
b1100111 P
b1100111 Q
b10 R
1$
#412500
0!
#415000
0$
#420000
b1110111 P
b10101010 ]
b1110111 Q
b10101010 ^
b10 R
b10 _
1$
1!
#421000
1>
b111 @
b111 A
0=
b101 *
b101 C
b101 L
b111 0
b111 M
b111 O
b1100 +
b1100 D
b1100 Y
b1010 1
b1010 Z
b1010 \
#425000
0$
#427500
0!
#430000
16
05
b10 R
1$
#430100
b110 @
1=
b1011 U
b1101 )
b1101 B
b1101 T
b1101 V
1S
b10110001 %
1'
#435000
b110 A
b101 H
b110 ,
b110 E
b110 G
b110 I
1F
1#
b10 _
0$
1!
#440000
b101 /
0S
b1011 -
b1011 X
b1011 [
b1101 .
b1101 W
15
b1011010100110010001010101011000100001000000011110000100001111001 9
b10 R
1$
#440100
0'
#442500
0!
#445000
0$
#450000
b0 %
b101 A
b100 H
b111 ,
b111 E
b111 G
b111 I
b110010 (
b110 4
b10101011 ]
b101 2
b101 K
b101 N
b110 3
b110 J
b10101011 ^
b10 R
b10 _
1$
1!
#450100
b110 A
b101 H
b110 ,
b110 E
b110 G
b110 I
0F
0#
#455000
0$
#457500
0!
#460000
b1110101 P
b1110101 Q
b10 R
1$
#465000
b10111011 ]
b10111011 ^
b10 _
0$
1!
#466000
b101 A
b1101 +
b1101 D
b1101 Y
b1011 1
b1011 Z
b1011 \
#470000
b1010101 P
b1010101 Q
b10 R
1$
#471000
0>
b101 @
0=
b110 *
b110 C
b110 L
b101 0
b101 M
b101 O
#472500
0!
#475000
0$
#480000
b100 A
b100 H
b111 ,
b111 E
b111 G
b111 I
1F
1#
06
05
b10 R
b10 _
1$
1!
#480100
b100 @
1=
b1001 U
b1110 )
b1110 B
b1110 T
b1110 V
1S
b11110111 %
1'
#485000
0$
#487500
0!
#490000
b100 @
1=
b1001 U
0S
b1110 )
b1110 B
b1110 T
b1110 V
b110 /
15
b1001 -
b1001 X
b1001 [
b1110 .
b1110 W
b1011010100110010111101111011000100001000000011110000100001111001 9
b10 R
1$
#490100
0'
#495000
b11 A
b1100 H
b1000 ,
b1000 E
b1000 G
b1000 I
b10110101 (
b111 4
b10111001 ]
b100 2
b100 K
b100 N
b111 3
b111 J
b10111001 ^
b10 _
0$
1!
#495100
b100 A
b100 H
b111 ,
b111 E
b111 G
b111 I
0F
0#
#500000
b0 %
b1010100 P
b1010100 Q
b10 R
1$
#502500
0!
#505000
0$
#510000
b1000100 P
b10011001 ]
b1000100 Q
b10011001 ^
b10 R
b10 _
1$
1!
#511000
b11 @
b11 A
0=
b111 *
b111 C
b111 L
b100 0
b100 M
b100 O
b1110 +
b1110 D
b1110 Y
b1001 1
b1001 Z
b1001 \
#515000
0$
#517500
0!
#520000
05
b10 R
1$
#520100
b10 @
1=
b1000 U
b1111 )
b1111 B
b1111 T
b1111 V
1S
b11101101 %
1'
#525000
1?
b10 A
b1100 H
b1000 ,
b1000 E
b1000 G
b1000 I
1F
1#
b10 _
0$
1!
#526000
0?
b110 A
0;
#530000
b10 @
1=
b1000 U
0S
b1111 )
b1111 B
b1111 T
b1111 V
b111 /
15
b1000 -
b1000 X
b1000 [
b1111 .
b1111 W
b1011010111101101111101111011000100001000000011110000100001111001 9
b10 R
1$
#530100
0'
#532500
0!
#535000
0$
#540000
b0 %
b101 A
b1101 H
b1001 ,
b1001 E
b1001 G
b1001 I
b1111001 (
b0 4
b10011000 ]
b1100 2
b1100 K
b1100 N
b1000 3
b1000 J
b10011000 ^
b10 R
b10 _
1$
1!
#540100
b110 A
b1100 H
b1000 ,
b1000 E
b1000 G
b1000 I
0F
0#
#545000
0$
#547500
0!
#550000
b1001100 P
b1001100 Q
b10 R
1$
#555000
b10001000 ]
b10001000 ^
b10 _
0$
1!
#556000
b111 A
b1111 +
b1111 D
b1111 Y
b1000 1
b1000 Z
b1000 \
#560000
b11001100 P
b11001100 Q
b10 R
1$
#561000
b1 @
0=
b1000 *
b1000 C
b1000 L
b1100 0
b1100 M
b1100 O
#562000
1>
b111 @
0<
#562500
0!
#565000
0$
#570000
b110 A
b1101 H
b1001 ,
b1001 E
b1001 G
b1001 I
1F
1#
16
05
b10 R
b10 _
1$
1!
#570100
0>
b0 @
b0 U
b0 )
b0 B
b0 T
b0 V
1S
b1001100 %
1'
#571100
1=
1<
#575000
0$
#577500
0!
#580000
b0 /
0S
b0 -
b0 X
b0 [
b0 .
b0 W
06
15
b100110011101101111101111011000100001000000011110000100001111001 9
b10 R
1$
#580100
0'
#585000
b101 A
b1111 H
b1010 ,
b1010 E
b1010 G
b1010 I
b1000 (
b1 4
b10000000 ]
b1101 2
b1101 K
b1101 N
b1001 3
b1001 J
b10000000 ^
b10 _
0$
1!
#585100
b110 A
b1101 H
b1001 ,
b1001 E
b1001 G
b1001 I
0F
0#
#590000
b0 %
b11001101 P
b11001101 Q
b10 R
1$
#592500
0!
#595000
0$
#600000
b11011101 P
b0 ]
b11011101 Q
b0 ^
b10 R
b10 _
1$
1!
#601000
1>
b111 @
b111 A
0=
b1001 *
b1001 C
b1001 L
b1101 0
b1101 M
b1101 O
b0 +
b0 D
b0 Y
b0 1
b0 Z
b0 \
#602000
1;
#605000
0$
#607500
0!
#610000
16
05
b10 R
1$
#615000
b110 A
b1111 H
b1010 ,
b1010 E
b1010 G
b1010 I
1F
1#
b10 _
0$
1!
#620000
b10 R
1$
#622500
0!
#625000
0$
#630000
b101 A
b1110 H
b1011 ,
b1011 E
b1011 G
b1011 I
b1111 (
b10 4
b1111 2
b1111 K
b1111 N
b1010 3
b1010 J
b10 R
b10 _
1$
1!
#630100
b110 A
b1111 H
b1010 ,
b1010 E
b1010 G
b1010 I
0F
0#
#635000
0$
#637500
0!
#640000
b11011111 P
b11011111 Q
b10 R
1$
#645000
b10 _
0$
1!
#650000
b11111111 P
b11111111 Q
b10 R
1$
#651000
b110 @
b1010 *
b1010 C
b1010 L
b1111 0
b1111 M
b1111 O
#652500
0!
#655000
0$
#660000
b101 A
b1110 H
b1011 ,
b1011 E
b1011 G
b1011 I
1F
1#
b10 R
b10 _
1$
1!
#665000
0$
#667500
0!
#670000
b10 R
1$
#675000
b100 A
b1010 H
b1100 ,
b1100 E
b1100 G
b1100 I
b1000 (
b11 4
b1110 2
b1110 K
b1110 N
b1011 3
b1011 J
b10 _
0$
1!
#675100
b101 A
b1110 H
b1011 ,
b1011 E
b1011 G
b1011 I
0F
0#
#680000
b11111110 P
b11111110 Q
b10 R
1$
#682500
0!
#685000
0$
#690000
b11101110 P
b11101110 Q
b10 R
b10 _
1$
1!
#691000
0>
b101 @
b1011 *
b1011 C
b1011 L
b1110 0
b1110 M
b1110 O
#695000
0$
#697500
0!
#700000
06
b10 R
1$
#705000
b100 A
b1010 H
b1100 ,
b1100 E
b1100 G
b1100 I
1F
1#
b10 _
0$
1!
#710000
b10 R
1$
#712500
0!
#715000
0$
#720000
b11 A
b1011 H
b1101 ,
b1101 E
b1101 G
b1101 I
b10110001 (
b100 4
b1010 2
b1010 K
b1010 N
b1100 3
b1100 J
b10 R
b10 _
1$
1!
#720100
b100 A
b1010 H
b1100 ,
b1100 E
b1100 G
b1100 I
0F
0#
#725000
0$
#727500
0!
#730000
b11101010 P
b11101010 Q
b10 R
1$
#735000
b10 _
0$
1!
#740000
b10101010 P
b10101010 Q
b10 R
1$
#741000
b100 @
b1100 *
b1100 C
b1100 L
b1010 0
b1010 M
b1010 O
#742500
0!
#745000
0$
#750000
b11 A
b1011 H
b1101 ,
b1101 E
b1101 G
b1101 I
1F
1#
b10 R
b10 _
1$
1!
#755000
0$
#757500
0!
#760000
b10 R
1$
#765000
1?
b10 A
b1001 H
b1110 ,
b1110 E
b1110 G
b1110 I
b11110111 (
b101 4
b1011 2
b1011 K
b1011 N
b1101 3
b1101 J
b10 _
0$
1!
#765100
0?
b11 A
b1011 H
b1101 ,
b1101 E
b1101 G
b1101 I
0F
0#
#770000
b10101011 P
b10101011 Q
b10 R
1$
#772500
0!
#775000
0$
#780000
b10111011 P
b10111011 Q
b10 R
b10 _
1$
1!
#781000
b11 @
b1101 *
b1101 C
b1101 L
b1011 0
b1011 M
b1011 O
#785000
0$
#787500
0!
#790000
b10 R
1$
#795000
1?
b10 A
b1001 H
b1110 ,
b1110 E
b1110 G
b1110 I
1F
1#
b10 _
0$
1!
#800000
b10 R
1$
#802500
0!
#805000
0$
#810000
b1 A
b1000 H
b1111 ,
b1111 E
b1111 G
b1111 I
b11101101 (
b110 4
b1001 2
b1001 K
b1001 N
b1110 3
b1110 J
18
b10 R
b10 _
1$
1!
#810100
b10 A
b1001 H
b1110 ,
b1110 E
b1110 G
b1110 I
0F
0#
#815000
0$
#817500
0!
#820000
b10111001 P
b10111001 Q
b10 R
1$
#825000
b10 _
0$
1!
#830000
b10011001 P
b10011001 Q
b10 R
1$
#831000
b10 @
b1110 *
b1110 C
b1110 L
b1001 0
b1001 M
b1001 O
#832500
0!
#835000
0$
#840000
b1 A
b1000 H
b1111 ,
b1111 E
b1111 G
b1111 I
1F
1#
b10 R
b10 _
1$
1!
#845000
0$
#847500
0!
#850000
b10 R
1$
#855000
0?
b0 A
b0 H
b0 ,
b0 E
b0 G
b0 I
b1001100 (
b111 4
b1000 2
b1000 K
b1000 N
b1111 3
b1111 J
b10 _
0$
1!
#855100
1?
b1 A
b1000 H
b1111 ,
b1111 E
b1111 G
b1111 I
0F
0#
#860000
b10011000 P
b10011000 Q
b10 R
1$
#862500
0!
#865000
0$
#870000
b10001000 P
b10001000 Q
b10 R
b10 _
1$
1!
#871000
b1 @
b1111 *
b1111 C
b1111 L
b1000 0
b1000 M
b1000 O
#875000
0$
#877500
0!
#880000
b10 R
1$
#885000
0?
b0 A
b0 H
b0 ,
b0 E
b0 G
b0 I
1F
1#
b10 _
0$
1!
#886000
1:
0;
#890000
b10 R
1$
#892500
0!
#895000
0$
#900000
b1111001 (
b0 4
0F
b0 2
b0 K
b0 N
b0 3
b0 J
08
17
b10 R
b10 _
1$
1!
#900100
0#
#905000
0$
#907500
0!
#910000
b10000000 P
b10000000 Q
b10 R
1$
#915000
b10 _
0$
1!
#920000
b0 P
b0 Q
b10 R
1$
#921000
b0 @
1=
b0 *
b0 C
b0 L
b0 0
b0 M
b0 O
#922000
0=
0<
#922500
0!
#925000
0$
#930000
b10 R
b10 _
1$
1!
#935000
0$
#937500
0!
#940000
b10 R
1$
#945000
b10 _
0$
1!
#950000
b10 R
1$
#952500
0!
#955000
0$
#960000
b10 R
b10 _
1$
1!
#965000
0$
#967500
0!
#970000
b10 R
1$
#975000
b10 _
0$
1!
#980000
b10 R
1$
#982500
0!
#985000
0$
#990000
b10 R
b10 _
1$
1!
#995000
0$
#997500
0!
#1000000
b10 R
1$
#1005000
b10 _
0$
1!
#1010000
b10 R
1$
#1012500
0!
#1015000
0$
#1020000
b10 R
b10 _
1$
1!
#1025000
0$
#1027500
0!
#1030000
b10 R
1$
#1035000
b10 _
0$
1!
#1040000
b10 R
1$
#1042500
0!
#1045000
0$
#1050000
b10 R
b10 _
1$
1!
#1055000
0$
#1057500
0!
#1060000
b10 R
1$
#1065000
b10 _
0$
1!
#1070000
b10 R
1$
#1072500
0!
#1075000
0$
#1080000
b10 R
b10 _
1$
1!
#1085000
0$
#1087500
0!
#1090000
b10 R
1$
#1095000
b10 _
0$
1!
#1100000
b10 R
1$
#1102500
0!
#1105000
0$
#1110000
b10 R
b10 _
1$
1!
#1115000
0$
#1117500
0!
#1120000
b10 R
1$
#1125000
b10 _
0$
1!
#1130000
b10 R
1$
#1132500
0!
#1135000
0$
#1140000
b10 R
b10 _
1$
1!
#1145000
0$
#1147500
0!
#1150000
b10 R
1$
#1155000
b10 _
0$
1!
#1160000
b10 R
1$
#1162500
0!
#1165000
0$
#1170000
b10 R
b10 _
1$
1!
#1175000
0$
#1177500
0!
#1180000
b10 R
1$
#1185000
b10 _
0$
1!
#1190000
b10 R
1$
#1192500
0!
#1195000
0$
#1200000
b10 R
b10 _
1$
1!
#1205000
0$
#1207500
0!
#1210000
b10 R
1$
#1215000
b10 _
0$
1!
#1220000
b10 R
1$
#1222500
0!
#1225000
0$
#1230000
b10 R
b10 _
1$
1!
#1230100
b1 @
b1 U
b1 )
b1 B
b1 T
b1 V
1S
b111010 %
1'
#1235000
0$
#1237500
0!
#1240000
b10 @
b11 U
b10 )
b10 B
b10 T
b10 V
b1 /
b1 -
b1 X
b1 [
b1 .
b1 W
b100110011101101111101111011000100001000000011110000100000111010 9
b111010 (
b10 R
1$
#1240100
b1 @
b1 U
b1 )
b1 B
b1 T
b1 V
0S
0'
#1245000
b1 ]
b1 ^
b10 _
0$
1!
#1250000
b10 R
1$
#1252500
0!
#1255000
0$
#1260000
b10001 ]
b10001 ^
b10 R
b10 _
1$
1!
#1261000
1?
b1 A
0:
b1 +
b1 D
b1 Y
b1 1
b1 Z
b1 \
#1265000
0$
#1267500
0!
#1270000
b10 R
1$
#1275000
18
07
b10 _
0$
1!
#1280000
b10 R
1$
#1282500
0!
#1285000
0$
#1290000
b10 R
b10 _
1$
1!
#1295000
0$
#1297500
0!
#1300000
b10 R
1$
#1305000
b10 _
0$
1!
#1310000
b10 R
1$
#1312500
0!
#1315000
0$
#1320000
b10 R
b10 _
1$
1!
#1325000
0$
#1327500
0!
#1330000
b10 R
1$
#1335000
b10 _
0$
1!
#1340000
b10 @
b11 U
b10 )
b10 B
b10 T
b10 V
1S
b111 %
1'
b10 R
1$
#1342500
0!
#1345000
0$
#1350000
b11 @
b10 U
b11 )
b11 B
b11 T
b11 V
b10 /
b11 -
b11 X
b11 [
b10 .
b10 W
b100110011101101111101111011000100001000000011110000011100111010 9
b10 R
b10 _
1$
1!
#1350100
b10 @
b11 U
b10 )
b10 B
b10 T
b10 V
0S
0'
#1355000
0$
#1357500
0!
#1360000
b10 R
1$
#1365000
b10011 ]
b10011 ^
b10 _
0$
1!
#1370000
b10 R
1$
#1372500
0!
#1375000
0$
#1380000
b110011 ]
b110011 ^
b10 R
b10 _
1$
1!
#1381000
b10 A
b10 +
b10 D
b10 Y
b11 1
b11 Z
b11 \
#1385000
0$
#1387500
0!
