val/common_level0/sim_build/dump.vcd
$date
	Thu Feb 29 07:16:30 2024
$end
$version
	Icarus Verilog
$end
$timescale
	1ps
$end
$scope module arbiter_round_robin $end
$var wire 1 ! i_block_arb $end
$var wire 1 " i_clk $end
$var wire 4 # i_req [3:0] $end
$var wire 1 $ i_rst_n $end
$var wire 4 % w_req_masked [3:0] $end
$var wire 1 & w_vld_ffs_reqm $end
$var wire 1 ' w_vld_ffs_req $end
$var wire 3 ( w_reqm_location [2:0] $end
$var wire 4 ) w_req_win_mask [3:0] $end
$var wire 4 * w_req_post [3:0] $end
$var wire 3 + w_req_location [2:0] $end
$var reg 4 , o_gnt [3:0] $end
$var reg 4 - r_mask [3:0] $end
$var reg 4 . r_win_mask_only [3:0] $end
$var reg 1 / w_win_vld $end
$var reg 3 0 w_winner [2:0] $end
$scope module u_req_leading_one_trailing_one $end
$var wire 4 1 i_data [3:0] $end
$var wire 1 2 ow_all_zeroes $end
$var wire 1 ' ow_valid $end
$var wire 3 3 ow_trailingone [2:0] $end
$var wire 3 4 ow_leadingone [2:0] $end
$var wire 1 5 ow_all_ones $end
$var reg 4 6 ow_leadingone_vector [3:0] $end
$var reg 4 7 ow_trailingone_vector [3:0] $end
$scope module u_find_first_set $end
$var wire 4 8 i_data [3:0] $end
$var reg 3 9 ow_index [2:0] $end
$scope function find_set_index $end
$scope begin $ivl_for_loop0 $end
$upscope $end
$upscope $end
$upscope $end
$scope module u_find_last_set $end
$var wire 4 : i_data [3:0] $end
$var reg 3 ; ow_index [2:0] $end
$scope function find_last_set_index $end
$scope begin $ivl_for_loop1 $end
$upscope $end
$upscope $end
$upscope $end
$upscope $end
$scope module u_reqm_leading_one_trailing_one $end
$var wire 4 < i_data [3:0] $end
$var wire 1 = ow_all_zeroes $end
$var wire 1 & ow_valid $end
$var wire 3 > ow_trailingone [2:0] $end
$var wire 3 ? ow_leadingone [2:0] $end
$var wire 1 @ ow_all_ones $end
$var reg 4 A ow_leadingone_vector [3:0] $end
$var reg 4 B ow_trailingone_vector [3:0] $end
$scope module u_find_first_set $end
$var wire 4 C i_data [3:0] $end
$var reg 3 D ow_index [2:0] $end
$scope function find_set_index $end
$scope begin $ivl_for_loop0 $end
$upscope $end
$upscope $end
$upscope $end
$scope module u_find_last_set $end
$var wire 4 E i_data [3:0] $end
$var reg 3 F ow_index [2:0] $end
$scope function find_last_set_index $end
$scope begin $ivl_for_loop1 $end
$upscope $end
$upscope $end
$upscope $end
$upscope $end
$upscope $end
$enddefinitions $end
#0
$dumpvars
b0 F
b0 E
b0 D
b0 C
b0 B
b0 A
0@
b0 ?
b0 >
1=
b0 <
b0 ;
bz :
b0 9
bz 8
b0 7
b0 6
x5
b0 4
b0 3
x2
bz 1
b0 0
0/
b0 .
b0 -
b0 ,
b0 +
bz *
bz )
b0 (
x'
0&
b0 %
0$
bz #
1"
0!
$end
#5000
0"
#10000
1"
#15000
1$
0"
#20000
b1111 .
1"
#25000
02
1/
05
1'
b1 )
b1 1
b1 8
b1 :
b1 *
b1 #
0"
#30000
b1 ,
b1110 .
1"
#35000
b1 7
b1 6
b1 0
b1 4
b1 9
b1 +
b1 3
b1 ;
b10 )
b10 1
b10 8
b10 :
b10 *
b10 #
0"
#40000
b1101 .
b1 -
b10 ,
1"
#45000
b10 7
b10 6
b10 0
b10 4
b10 9
b10 +
b10 3
b10 ;
b100 )
b100 1
b100 8
b100 :
b100 *
b100 #
0"
#50000
b100 ,
b11 -
b1011 .
1"
#55000
b100 7
b100 6
b11 0
b11 4
b11 9
b11 +
b11 3
b11 ;
b1000 )
b1000 1
b1000 8
b1000 :
b1000 *
b1000 #
0"
#60000
b111 .
b111 -
b1000 ,
1"
#65000
b1 B
0=
02
b1 7
b0 6
b1 (
b1 >
b1 F
b1 0
b0 4
b0 9
b1 +
b1 3
b1 ;
1&
b11 %
b11 <
b11 C
b11 E
1'
b11 )
b11 1
b11 8
b11 :
b11 *
b11 #
0"
#70000
b0 B
b0 0
b0 +
b0 3
b0 ;
b0 7
b0 (
b0 >
b0 F
b1 )
b1 1
b1 8
b1 :
b1 %
b1 <
b1 C
b1 E
b10 ,
b1 -
b1101 .
1"
#75000
b10 7
b10 6
b10 0
b10 4
b10 9
b10 +
b10 3
b10 ;
b100 )
b100 1
b100 8
b100 :
1=
0&
b0 %
b0 <
b0 C
b0 E
b110 *
b110 #
0"
#80000
b1 4
b1 9
b1 +
b1 3
b1 ;
b10 )
b10 1
b10 8
b10 :
0=
b1 B
b1 A
b1 0
b1 7
b1 6
b1 ?
b1 D
b1 (
b1 >
b1 F
1&
b10 %
b10 <
b10 C
b10 E
b1011 .
b11 -
b100 ,
1"
#85000
b11 0
b11 4
b11 9
b11 +
b11 3
b11 ;
b1000 )
b1000 1
b1000 8
b1000 :
1=
b0 B
b0 A
b100 7
b100 6
b0 ?
b0 D
b0 (
b0 >
b0 F
0&
b0 %
b0 <
b0 C
b0 E
b1100 *
b1100 #
0"
#90000
0=
b10 B
b10 A
b10 0
b10 4
b10 9
b10 +
b10 3
b10 ;
b10 7
b10 6
b10 ?
b10 D
b10 (
b10 >
b10 F
b100 )
b100 1
b100 8
b100 :
1&
b100 %
b100 <
b100 C
b100 E
b1000 ,
b111 -
b111 .
1"
#95000
b0 4
b0 9
b10 B
b0 A
b111 )
b111 1
b111 8
b111 :
b10 7
b0 6
b0 ?
b0 D
b111 %
b111 <
b111 C
b111 E
b1111 *
b1111 #
0"
#100000
b11 +
b11 3
b11 ;
b1 B
b1 0
b1011 )
b1011 1
b1011 8
b1011 :
b100 7
b1 (
b1 >
b1 F
b11 %
b11 <
b11 C
b11 E
b1011 .
b11 -
b100 ,
1"
#105000
0"
#105001
12
1=
b0 B
0/
b0 0
b0 +
b0 3
b0 ;
b0 7
b0 (
b0 >
b0 F
0'
b0 )
b0 1
b0 8
b0 :
0&
b0 %
b0 <
b0 C
b0 E
b0 ,
b0 -
b0 .
0$
1"
#110001
0"
#115001
1"
#120001
1$
0"
#125001
02
b100 7
1/
b11 0
b11 +
b11 3
b11 ;
15
1'
b1111 )
b1111 1
b1111 8
b1111 :
b1111 .
1"
#130001
b0 7
b0 0
b0 +
b0 3
b0 ;
05
b1 )
b1 1
b1 8
b1 :
b1 *
b1 #
0"
#135001
b1110 .
b1 ,
1"
#140001
b1 7
b1 6
b1 0
b1 4
b1 9
b1 +
b1 3
b1 ;
b10 )
b10 1
b10 8
b10 :
b10 *
b10 #
0"
#145001
b10 ,
b1 -
b1101 .
1"
#150001
b10 7
b10 6
b10 0
b10 4
b10 9
b10 +
b10 3
b10 ;
b100 )
b100 1
b100 8
b100 :
b100 *
b100 #
0"
#155001
b1011 .
b11 -
b100 ,
1"
#160001
b100 7
b100 6
b11 0
b11 4
b11 9
b11 +
b11 3
b11 ;
b1000 )
b1000 1
b1000 8
b1000 :
b1000 *
b1000 #
0"
#165001
b1000 ,
b111 -
b111 .
1"
#170001
b1 B
0=
02
b1 7
b0 6
b1 (
b1 >
b1 F
b1 0
b0 4
b0 9
b1 +
b1 3
b1 ;
1&
b11 %
b11 <
b11 C
b11 E
1'
b11 )
b11 1
b11 8
b11 :
b11 *
b11 #
0"
#175001
b0 +
b0 3
b0 ;
b0 B
b0 0
b1 )
b1 1
b1 8
b1 :
b0 7
b0 (
b0 >
b0 F
b1 %
b1 <
b1 C
b1 E
b1101 .
b1 -
b10 ,
1"
#180001
b10 7
b10 6
b10 0
b10 4
b10 9
b10 +
b10 3
b10 ;
b100 )
b100 1
b100 8
b100 :
1=
0&
b0 %
b0 <
b0 C
b0 E
b110 *
b110 #
0"
#185001
0=
b1 B
b1 A
b1 0
b1 4
b1 9
b1 +
b1 3
b1 ;
b1 7
b1 6
b1 ?
b1 D
b1 (
b1 >
b1 F
b10 )
b10 1
b10 8
b10 :
1&
b10 %
b10 <
b10 C
b10 E
b100 ,
b11 -
b1011 .
1"
#190001
b11 0
b11 4
b11 9
b11 +
b11 3
b11 ;
b1000 )
b1000 1
b1000 8
b1000 :
1=
b0 B
b0 A
b100 7
b100 6
b0 ?
b0 D
b0 (
b0 >
b0 F
0&
b0 %
b0 <
b0 C
b0 E
b1100 *
b1100 #
0"
#195001
b10 4
b10 9
b10 +
b10 3
b10 ;
b100 )
b100 1
b100 8
b100 :
0=
b10 B
b10 A
b10 0
b10 7
b10 6
b10 ?
b10 D
b10 (
b10 >
b10 F
1&
b100 %
b100 <
b100 C
b100 E
b111 .
b111 -
b1000 ,
1"
#200001
b0 4
b0 9
b10 B
b0 A
b111 )
b111 1
b111 8
b111 :
b10 7
b0 6
b0 ?
b0 D
b111 %
b111 <
b111 C
b111 E
b1111 *
b1111 #
0"
#205001
b1 B
b1 0
b11 +
b11 3
b11 ;
b100 7
b1 (
b1 >
b1 F
b1011 )
b1011 1
b1011 8
b1011 :
b11 %
b11 <
b11 C
b11 E
b100 ,
b11 -
b1011 .
1"
