val/common_level0/fifo_async_div2/dump.vcd
$date
	Sun Feb 18 12:54:52 2024
$end
$version
	Icarus Verilog
$end
$timescale
	1ps
$end
$scope module fifo_async_div2 $end
$var wire 1 ! i_rd_clk $end
$var wire 1 " i_rd_rst_n $end
$var wire 1 # i_read $end
$var wire 1 $ i_wr_clk $end
$var wire 8 % i_wr_data [7:0] $end
$var wire 1 & i_wr_rst_n $end
$var wire 1 ' i_write $end
$var wire 8 ( ow_rd_data [7:0] $end
$var wire 5 ) w_wr_ptr_bin_next [4:0] $end
$var wire 5 * w_wdom_rd_ptr_bin [4:0] $end
$var wire 5 + w_rdom_wr_ptr_bin [4:0] $end
$var wire 5 , w_rd_ptr_bin_next [4:0] $end
$var wire 10 - r_wr_ptr_gray [9:0] $end
$var wire 5 . r_wr_ptr_bin [4:0] $end
$var wire 4 / r_wr_addr [3:0] $end
$var wire 10 0 r_wdom_rd_ptr_gray [9:0] $end
$var wire 10 1 r_rdom_wr_ptr_gray [9:0] $end
$var wire 10 2 r_rd_ptr_gray [9:0] $end
$var wire 5 3 r_rd_ptr_bin [4:0] $end
$var wire 4 4 r_rd_addr [3:0] $end
$var wire 1 5 o_wr_full $end
$var wire 1 6 o_wr_almost_full $end
$var wire 1 7 o_rd_empty $end
$var wire 1 8 o_rd_almost_empty $end
$var wire 80 9 flat_r_mem [79:0] $end
$scope begin gen_flatten_memory[0] $end
$upscope $end
$scope begin gen_flatten_memory[1] $end
$upscope $end
$scope begin gen_flatten_memory[2] $end
$upscope $end
$scope begin gen_flatten_memory[3] $end
$upscope $end
$scope begin gen_flatten_memory[4] $end
$upscope $end
$scope begin gen_flatten_memory[5] $end
$upscope $end
$scope begin gen_flatten_memory[6] $end
$upscope $end
$scope begin gen_flatten_memory[7] $end
$upscope $end
$scope begin gen_flatten_memory[8] $end
$upscope $end
$scope begin gen_flatten_memory[9] $end
$upscope $end
$scope module fifo_control_inst $end
$var wire 1 ! i_rd_clk $end
$var wire 1 " i_rd_rst_n $end
$var wire 1 $ i_wr_clk $end
$var wire 1 & i_wr_rst_n $end
$var wire 1 : w_rd_empty_d $end
$var wire 1 ; w_rdom_ptr_xor $end
$var wire 1 < w_wdom_ptr_xor $end
$var wire 1 = w_wr_full_d $end
$var wire 1 > w_wr_almost_full_d $end
$var wire 1 ? w_rd_almost_empty_d $end
$var wire 4 @ w_almost_full_count [3:0] $end
$var wire 4 A w_almost_empty_count [3:0] $end
$var wire 5 B iw_wr_ptr_bin [4:0] $end
$var wire 5 C iw_wdom_rd_ptr_bin [4:0] $end
$var wire 5 D iw_rdom_wr_ptr_bin [4:0] $end
$var wire 5 E iw_rd_ptr_bin [4:0] $end
$var reg 1 8 o_rd_almost_empty $end
$var reg 1 7 o_rd_empty $end
$var reg 1 6 o_wr_almost_full $end
$var reg 1 5 o_wr_full $end
$upscope $end
$scope module rd_ptr_counter_bin $end
$var wire 1 ! i_clk $end
$var wire 1 F i_enable $end
$var wire 1 " i_rst_n $end
$var reg 5 G o_counter_bin [4:0] $end
$var reg 5 H ow_counter_bin_next [4:0] $end
$upscope $end
$scope module rd_ptr_counter_gray $end
$var wire 1 ! i_clk $end
$var wire 1 I i_enable $end
$var wire 1 " i_rst_n $end
$var reg 10 J o_counter_gray [9:0] $end
$upscope $end
$scope module rd_ptr_gray2bin_inst $end
$var wire 1 $ i_clk $end
$var wire 1 & i_rst_n $end
$var wire 1 K w_valid $end
$var wire 5 L w_trailingone [4:0] $end
$var wire 5 M w_leadingone [4:0] $end
$var wire 1 N w_all_zeroes $end
$var wire 1 O w_all_ones $end
$var wire 5 P ow_binary [4:0] $end
$var wire 10 Q i_gray [9:0] $end
$var reg 5 R w_binary [4:0] $end
$scope module u_leading_one_trailing_one $end
$var wire 1 N ow_all_zeroes $end
$var wire 1 K ow_valid $end
$var wire 5 S ow_trailingone [4:0] $end
$var wire 5 T ow_leadingone [4:0] $end
$var wire 1 O ow_all_ones $end
$var wire 10 U i_data [9:0] $end
$var reg 10 V ow_leadingone_vector [9:0] $end
$var reg 10 W ow_trailingone_vector [9:0] $end
$scope module u_find_first_set $end
$var wire 10 X i_data [9:0] $end
$var reg 5 Y ow_index [4:0] $end
$scope function find_set_index $end
$scope begin $ivl_for_loop0 $end
$upscope $end
$upscope $end
$upscope $end
$scope module u_find_last_set $end
$var wire 10 Z i_data [9:0] $end
$var reg 5 [ ow_index [4:0] $end
$scope function find_last_set_index $end
$scope begin $ivl_for_loop1 $end
$upscope $end
$upscope $end
$upscope $end
$upscope $end
$upscope $end
$scope module rd_ptr_gray_cross_inst $end
$var wire 1 $ i_clk $end
$var wire 10 \ i_d [9:0] $end
$var wire 1 & i_rst_n $end
$var wire 10 ] o_q [9:0] $end
$var wire 20 ^ flat_r_q [19:0] $end
$var reg 20 _ r_q_array [19:0] $end
$scope begin gen_flatten_memory[0] $end
$upscope $end
$scope begin gen_flatten_memory[1] $end
$upscope $end
$scope begin $ivl_for_loop2 $end
$var integer 32 ` i [31:0] $end
$upscope $end
$upscope $end
$scope module wr_ptr_counter_bin $end
$var wire 1 $ i_clk $end
$var wire 1 a i_enable $end
$var wire 1 & i_rst_n $end
$var reg 5 b o_counter_bin [4:0] $end
$var reg 5 c ow_counter_bin_next [4:0] $end
$upscope $end
$scope module wr_ptr_counter_gray $end
$var wire 1 $ i_clk $end
$var wire 1 d i_enable $end
$var wire 1 & i_rst_n $end
$var reg 10 e o_counter_gray [9:0] $end
$upscope $end
$scope module wr_ptr_gray2bin_inst $end
$var wire 1 ! i_clk $end
$var wire 1 " i_rst_n $end
$var wire 1 f w_valid $end
$var wire 5 g w_trailingone [4:0] $end
$var wire 5 h w_leadingone [4:0] $end
$var wire 1 i w_all_zeroes $end
$var wire 1 j w_all_ones $end
$var wire 5 k ow_binary [4:0] $end
$var wire 10 l i_gray [9:0] $end
$var reg 5 m w_binary [4:0] $end
$scope module u_leading_one_trailing_one $end
$var wire 1 i ow_all_zeroes $end
$var wire 1 f ow_valid $end
$var wire 5 n ow_trailingone [4:0] $end
$var wire 5 o ow_leadingone [4:0] $end
$var wire 1 j ow_all_ones $end
$var wire 10 p i_data [9:0] $end
$var reg 10 q ow_leadingone_vector [9:0] $end
$var reg 10 r ow_trailingone_vector [9:0] $end
$scope module u_find_first_set $end
$var wire 10 s i_data [9:0] $end
$var reg 5 t ow_index [4:0] $end
$scope function find_set_index $end
$scope begin $ivl_for_loop0 $end
$upscope $end
$upscope $end
$upscope $end
$scope module u_find_last_set $end
$var wire 10 u i_data [9:0] $end
$var reg 5 v ow_index [4:0] $end
$scope function find_last_set_index $end
$scope begin $ivl_for_loop1 $end
$upscope $end
$upscope $end
$upscope $end
$upscope $end
$upscope $end
$scope module wr_ptr_gray_cross_inst $end
$var wire 1 ! i_clk $end
$var wire 10 w i_d [9:0] $end
$var wire 1 " i_rst_n $end
$var wire 10 x o_q [9:0] $end
$var wire 20 y flat_r_q [19:0] $end
$var reg 20 z r_q_array [19:0] $end
$scope begin gen_flatten_memory[0] $end
$upscope $end
$scope begin gen_flatten_memory[1] $end
$upscope $end
$scope begin $ivl_for_loop2 $end
$var integer 32 { i [31:0] $end
$upscope $end
$upscope $end
$upscope $end
$enddefinitions $end
#0
$dumpvars
b0 {
b0 z
b0 y
bx x
b0 w
b0 v
bx u
b0 t
bx s
b0 r
b0 q
bx p
b0 o
b0 n
b1 m
bx l
bx0001 k
xj
xi
b0 h
b0 g
xf
b0 e
0d
b0 c
b0 b
0a
b0 `
b0 _
b0 ^
bx ]
b0 \
b0 [
bx Z
b0 Y
bx X
b0 W
b0 V
bx U
b0 T
b0 S
b1 R
bx Q
bx0001 P
xO
xN
b0 M
b0 L
xK
b0 J
0I
b0 H
b0 G
0F
b0 E
bx0001 D
bx0001 C
b0 B
bx001 A
b1xx1 @
x?
x>
0=
x<
x;
0:
bx 9
08
07
06
05
b0 4
b0 3
b0 2
bx 1
bx 0
b0 /
b0 .
b0 -
b0 ,
bx0001 +
bx0001 *
b0 )
bx (
0'
0&
b0 %
1$
0#
0"
1!
$end
#1000
bx0x0 A
bx0x0 @
x:
x=
b0 m
b0 R
1i
b0 +
b0 D
b0 k
1N
b0 *
b0 C
b0 P
0f
0j
b0 1
b0 l
b0 p
b0 s
b0 u
b0 x
0K
0O
b0 0
b0 Q
b0 U
b0 X
b0 Z
b0 ]
#2000
0?
b0 A
0>
b0 @
1:
0=
0;
0<
#5000
0$
#7500
0!
#10000
1$
#15000
0$
1!
#20000
1$
#22500
0!
#25000
0$
#30000
1$
1!
#35000
0$
#37500
0!
#40000
1$
#45000
0$
1!
#50000
1$
#52500
0!
#55000
0$
#60000
1$
1!
#65000
0$
#67500
0!
#70000
1$
#75000
0$
1!
#80000
1$
#82500
0!
#85000
0$
#90000
1$
1!
#95000
0$
#97500
0!
#100000
1$
#105000
0$
1!
#110000
1$
#112500
0!
#115000
0$
#120000
1$
1!
#125000
0$
#127500
0!
#130000
1$
#135000
0$
1!
#140000
1$
#142500
0!
#145000
0$
#150000
1$
1!
#155000
0$
#157500
0!
#160000
1$
#165000
0$
1!
#170000
1$
#172500
0!
#175000
0$
#180000
1$
1!
#185000
0$
#187500
0!
#190000
1$
#195000
0$
1!
#200000
1$
#202500
0!
#205000
0$
#210000
1$
1!
#215000
0$
#217500
0!
#220000
1$
#225000
0$
1!
#230000
1$
#232500
0!
#235000
0$
#240000
1$
1!
#245000
0$
#247500
0!
#250000
1$
#255000
0$
1!
#260000
1$
#262500
0!
#265000
0$
#270000
1$
1!
#275000
0$
#277500
0!
#280000
1$
#285000
0$
1!
#290000
1$
#292500
0!
#295000
0$
#300000
17
b10 `
b10 {
1$
1!
1"
1&
#300100
b1 @
b1 )
b1 B
b1 c
1a
1d
b11100001 %
1'
#305000
0$
#307500
0!
#310000
b10 @
b10 )
b10 B
b10 c
b1 /
b1 -
b1 e
b1 w
b1 .
b1 b
bx11100001 9
b11100001 (
b10 `
1$
#310100
b1 @
b1 )
b1 B
b1 c
0a
0d
0'
#315000
b1 y
b1 z
b10 {
0$
1!
#320000
b10 `
1$
#322500
0!
#325000
0$
#330000
b10000000001 y
b10000000001 z
b10 `
b10 {
1$
1!
#331000
1?
b1 A
0:
b1 +
b1 D
b1 k
b1 m
0i
1f
b1 1
b1 l
b1 p
b1 s
b1 u
b1 x
#335000
0$
#337500
0!
#340000
b10 `
1$
#345000
18
07
b10 {
0$
1!
#350000
b10 `
1$
#352500
0!
#355000
0$
#360000
b10 `
b10 {
1$
1!
#365000
0$
#367500
0!
#370000
b10 `
1$
#375000
b10 {
0$
1!
#380000
b10 `
1$
#382500
0!
#385000
0$
#390000
b10 `
b10 {
1$
1!
#390100
b10 @
b10 )
b10 B
b10 c
1a
1d
b111011 %
1'
#395000
0$
#397500
0!
#400000
b11 @
b11 )
b11 B
b11 c
b10 /
b10 .
b10 b
b11 -
b11 e
b11 w
bx0011101111100001 9
b10 `
1$
#400100
b10 @
b10 )
b10 B
b10 c
0a
0d
0'
#405000
b10000000011 y
b10000000011 z
b10 {
0$
1!
#410000
b10 `
1$
#412500
0!
#415000
0$
#420000
b110000000011 y
b110000000011 z
b10 `
b10 {
1$
1!
#421000
b10 A
b10 +
b10 D
b10 k
b1 r
b10 m
b1 g
b1 n
b1 v
b11 1
b11 l
b11 p
b11 s
b11 u
b11 x
#425000
0$
#427500
0!
#430000
b10 `
1$
#435000
b10 {
0$
1!
#440000
b10 `
1$
#442500
0!
#445000
0$
#450000
b10 `
b10 {
1$
1!
#455000
0$
#457500
0!
#460000
b10 `
1$
#465000
b10 {
0$
1!
#470000
b10 `
1$
#472500
0!
#475000
0$
#480000
b10 `
b10 {
1$
1!
#480100
b11 @
b11 )
b11 B
b11 c
1a
1d
b11 %
1'
#485000
0$
#487500
0!
#490000
b100 @
b100 )
b100 B
b100 c
b11 /
b111 -
b111 e
b111 w
b11 .
b11 b
bx000000110011101111100001 9
b10 `
1$
#490100
b11 @
b11 )
b11 B
b11 c
0a
0d
0'
#495000
b110000000111 y
b110000000111 z
b10 {
0$
1!
#500000
b10 `
1$
#502500
0!
#505000
0$
#510000
b1110000000111 y
b1110000000111 z
b10 `
b10 {
1$
1!
#511000
0?
b11 A
b11 +
b11 D
b11 k
b10 r
b11 m
b10 g
b10 n
b10 v
b111 1
b111 l
b111 p
b111 s
b111 u
b111 x
#515000
0$
#517500
0!
#520000
b10 `
1$
#525000
08
b10 {
0$
1!
#530000
b10 `
1$
#532500
0!
#535000
0$
#540000
b10 `
b10 {
1$
1!
#545000
0$
#547500
0!
#550000
b10 `
1$
#555000
b10 {
0$
1!
#560000
b10 `
1$
#562500
0!
#565000
0$
#570000
b10 `
b10 {
1$
1!
#570100
b100 @
b100 )
b100 B
b100 c
1a
1d
b101110 %
1'
#575000
0$
#577500
0!
#580000
b101 @
b101 )
b101 B
b101 c
b100 /
b100 .
b100 b
b1111 -
b1111 e
b1111 w
bx00101110000000110011101111100001 9
b10 `
1$
#580100
b100 @
b100 )
b100 B
b100 c
0a
0d
0'
#585000
b1110000001111 y
b1110000001111 z
b10 {
0$
1!
#590000
b10 `
1$
#592500
0!
#595000
0$
#600000
b11110000001111 y
b11110000001111 z
b10 `
b10 {
1$
1!
#601000
b100 A
b100 +
b100 D
b100 k
b100 r
b100 m
b11 g
b11 n
b11 v
b1111 1
b1111 l
b1111 p
b1111 s
b1111 u
b1111 x
#605000
0$
#607500
0!
#610000
b10 `
1$
#615000
b10 {
0$
1!
#620000
b10 `
1$
#622500
0!
#625000
0$
#630000
b10 `
b10 {
1$
1!
#635000
0$
#637500
0!
#640000
b10 `
1$
#645000
b10 {
0$
1!
#650000
b10 `
1$
#652500
0!
#655000
0$
#660000
b10 `
b10 {
1$
1!
#660100
b101 @
b101 )
b101 B
b101 c
1a
1d
b10001 %
1'
#665000
0$
#667500
0!
#670000
b110 @
b110 )
b110 B
b110 c
b101 /
b11111 -
b11111 e
b11111 w
b101 .
b101 b
bx0001000100101110000000110011101111100001 9
b10 `
1$
#670100
b101 @
b101 )
b101 B
b101 c
0a
0d
0'
#675000
b11110000011111 y
b11110000011111 z
b10 {
0$
1!
#680000
b10 `
1$
#682500
0!
#685000
0$
#690000
b111110000011111 y
b111110000011111 z
b10 `
b10 {
1$
1!
#691000
b101 A
b101 +
b101 D
b101 k
b1000 r
b101 m
b100 g
b100 n
b100 v
b11111 1
b11111 l
b11111 p
b11111 s
b11111 u
b11111 x
#695000
0$
#697500
0!
#700000
b10 `
1$
#705000
b10 {
0$
1!
#710000
b10 `
1$
#712500
0!
#715000
0$
#720000
b10 `
b10 {
1$
1!
#725000
0$
#727500
0!
#730000
b10 `
1$
#735000
b10 {
0$
1!
#740000
b10 `
1$
#742500
0!
#745000
0$
#750000
b10 `
b10 {
1$
1!
#750100
b110 @
b110 )
b110 B
b110 c
1a
1d
b101010 %
1'
#755000
0$
#757500
0!
#760000
b111 @
b111 )
b111 B
b111 c
b110 /
b110 .
b110 b
b111111 -
b111111 e
b111111 w
bx001010100001000100101110000000110011101111100001 9
b10 `
1$
#760100
b110 @
b110 )
b110 B
b110 c
0a
0d
0'
#765000
b111110000111111 y
b111110000111111 z
b10 {
0$
1!
#770000
b10 `
1$
#772500
0!
#775000
0$
#780000
b1111110000111111 y
b1111110000111111 z
b10 `
b10 {
1$
1!
#781000
b110 A
b110 +
b110 D
b110 k
b10000 r
b110 m
b101 g
b101 n
b101 v
b111111 1
b111111 l
b111111 p
b111111 s
b111111 u
b111111 x
#785000
0$
#787500
0!
#790000
b10 `
1$
#795000
b10 {
0$
1!
#800000
b10 `
1$
#802500
0!
#805000
0$
#810000
b10 `
b10 {
1$
1!
#815000
0$
#817500
0!
#820000
b10 `
1$
#825000
b10 {
0$
1!
#830000
b10 `
1$
#832500
0!
#835000
0$
#840000
b10 `
b10 {
1$
1!
#840100
b111 @
b111 )
b111 B
b111 c
1a
1d
b110010 %
1'
#845000
0$
#847500
0!
#850000
1>
b1000 @
b1000 )
b1000 B
b1000 c
b111 /
b1111111 -
b1111111 e
b1111111 w
b111 .
b111 b
bx00110010001010100001000100101110000000110011101111100001 9
b10 `
1$
#850100
0>
b111 @
b111 )
b111 B
b111 c
0a
0d
0'
#855000
b1111110001111111 y
b1111110001111111 z
b10 {
0$
1!
#860000
b10 `
1$
#862500
0!
#865000
0$
#870000
b11111110001111111 y
b11111110001111111 z
b10 `
b10 {
1$
1!
#871000
b111 A
b111 +
b111 D
b111 k
b100000 r
b111 m
b110 g
b110 n
b110 v
b1111111 1
b1111111 l
b1111111 p
b1111111 s
b1111111 u
b1111111 x
#875000
0$
#877500
0!
#880000
b10 `
1$
#885000
b10 {
0$
1!
#890000
b10 `
1$
#892500
0!
#895000
0$
#900000
b10 `
b10 {
1$
1!
#905000
0$
#907500
0!
#910000
b10 `
1$
#915000
b10 {
0$
1!
#920000
b10 `
1$
#922500
0!
#925000
0$
#930000
b10 `
b10 {
1$
1!
#930100
1>
b1000 @
b1000 )
b1000 B
b1000 c
1a
1d
b10110101 %
1'
#935000
0$
#937500
0!
#940000
b1001 @
b1001 )
b1001 B
b1001 c
b1000 /
b1000 .
b1000 b
b11111111 -
b11111111 e
b11111111 w
16
bx1011010100110010001010100001000100101110000000110011101111100001 9
b10 `
1$
#940100
b1000 @
b1000 )
b1000 B
b1000 c
0a
0d
0'
#945000
b11111110011111111 y
b11111110011111111 z
b10 {
0$
1!
#950000
b10 `
1$
#952500
0!
#955000
0$
#960000
b111111110011111111 y
b111111110011111111 z
b10 `
b10 {
1$
1!
#961000
b1000 A
b1000 +
b1000 D
b1000 k
b1000000 r
b1000 m
b111 g
b111 n
b111 v
b11111111 1
b11111111 l
b11111111 p
b11111111 s
b11111111 u
b11111111 x
#965000
0$
#967500
0!
#970000
b10 `
1$
#975000
b10 {
0$
1!
#980000
b10 `
1$
#982500
0!
#985000
0$
#990000
b10 `
b10 {
1$
1!
#995000
0$
#997500
0!
#1000000
b10 `
1$
#1005000
b10 {
0$
1!
#1010000
b10 `
1$
#1012500
0!
#1015000
0$
#1020000
b10 `
b10 {
1$
1!
#1020100
b1001 @
b1001 )
b1001 B
b1001 c
1a
1d
b1111001 %
1'
#1025000
0$
#1027500
0!
#1030000
0>
b0 @
b10000 )
b10000 B
b10000 c
b1001 /
b111111111 -
b111111111 e
b111111111 w
b1001 .
b1001 b
bx011110011011010100110010001010100001000100101110000000110011101111100001 9
b10 `
1$
#1030100
1>
b1001 @
b1001 )
b1001 B
b1001 c
0a
0d
0'
#1035000
b111111110111111111 y
b111111110111111111 z
b10 {
0$
1!
#1040000
b10 `
1$
#1042500
0!
#1045000
0$
#1050000
b1111111110111111111 y
b1111111110111111111 z
b10 `
b10 {
1$
1!
#1051000
b1001 A
b1001 +
b1001 D
b1001 k
b10000000 r
b1001 m
b1000 g
b1000 n
b1000 v
b111111111 1
b111111111 l
b111111111 p
b111111111 s
b111111111 u
b111111111 x
#1055000
0$
#1057500
0!
#1060000
b10 `
1$
#1065000
b10 {
0$
1!
#1070000
b10 `
1$
#1072500
0!
#1075000
0$
#1080000
b10 `
b10 {
1$
1!
#1085000
0$
#1087500
0!
#1090000
b10 `
1$
#1095000
b10 {
0$
1!
#1100000
b10 `
1$
#1102500
0!
#1105000
0$
#1110000
b10 `
b10 {
1$
1!
#1110100
0>
b0 @
b10000 )
b10000 B
b10000 c
1a
1d
b1000 %
1'
#1111100
1>
b1010 @
1=
1<
#1115000
0$
#1117500
0!
#1120000
b0 /
0d
0a
b10000 .
b10000 b
b1111111111 -
b1111111111 e
b1111111111 w
15
b1000011110011011010100110010001010100001000100101110000000110011101111100001 9
b10 `
1$
#1120100
0'
#1125000
b1111111111111111111 y
b1111111111111111111 z
b10 {
0$
1!
#1130000
b10 `
1$
#1132500
0!
#1135000
0$
#1140000
b11111111111111111111 y
b11111111111111111111 z
b10 `
b10 {
1$
1!
#1141000
b0 A
1:
b10000 +
b10000 D
b10000 k
b100000000 r
b0 m
b1001 g
b1001 n
b1001 v
1j
b1111111111 1
b1111111111 l
b1111111111 p
b1111111111 s
b1111111111 u
b1111111111 x
#1142000
b1010 A
0:
1;
#1145000
0$
#1147500
0!
#1150000
b10 `
1$
#1155000
b10 {
0$
1!
#1160000
b10 `
1$
#1162500
0!
#1165000
0$
#1170000
b10 `
b10 {
1$
1!
#1175000
0$
#1177500
0!
#1180000
b10 `
1$
#1185000
b10 {
0$
1!
#1190000
b10 `
1$
#1192500
0!
#1195000
0$
#1200000
b10 `
b10 {
1$
1!
#1200100
b0 %
#1205000
0$
#1207500
0!
#1210000
b10 `
1$
#1215000
b10 {
0$
1!
#1220000
b10 `
1$
#1222500
0!
#1225000
0$
#1230000
b10 `
b10 {
1$
1!
#1230100
b1001 A
b1 ,
b1 E
b1 H
1F
1I
1#
#1235000
0$
#1237500
0!
#1240000
b10 `
1$
#1245000
b1000 A
b10 ,
b10 E
b10 H
b111011 (
b1 4
b1 2
b1 J
b1 \
b1 3
b1 G
b10 {
0$
1!
#1250000
b1 ^
b1 _
b10 `
1$
#1252500
0!
#1255000
0$
#1260000
b111 A
b10000000001 ^
b11 ,
b11 E
b11 H
b11 (
b10 4
b10000000001 _
b10 3
b10 G
b11 2
b11 J
b11 \
b10 `
b10 {
1$
1!
#1261000
b1001 @
0=
b1 *
b1 C
b1 P
b1 R
0N
1K
b1 0
b1 Q
b1 U
b1 X
b1 Z
b1 ]
#1265000
0$
#1267500
0!
#1270000
b10000000011 ^
05
b10000000011 _
b10 `
1$
#1270100
b1000 @
1=
b10001 )
b10001 B
b10001 c
1a
1d
b1111 %
1'
#1275000
b110 A
b100 ,
b100 E
b100 H
b101110 (
b11 4
b111 2
b111 J
b111 \
b11 3
b11 G
b10 {
0$
1!
#1280000
b1 /
0d
0a
b110000000111 ^
b10001 .
b10001 b
b1111111110 -
b1111111110 e
b1111111110 w
15
b110000000111 _
b1000011110011011010100110010001010100001000100101110000000110011101100001111 9
b10 `
1$
#1280100
0'
#1281000
0>
b111 @
0=
b10 *
b10 C
b10 P
b1 W
b10 R
b1 L
b1 S
b1 [
b11 0
b11 Q
b11 U
b11 X
b11 Z
b11 ]
#1282500
0!
#1285000
0$
#1290000
b101 A
b1110000000111 ^
b101 ,
b101 E
b101 H
b10001 (
b100 4
b11111111111111111110 y
b1110000000111 _
06
05
b100 3
b100 G
b1111 2
b1111 J
b1111 \
b11111111111111111110 z
b10 `
b10 {
1$
1!
#1291000
b110 @
b11 *
b11 C
b11 P
b10 W
b11 R
b10 L
b10 S
b10 [
b111 0
b111 Q
b111 U
b111 X
b111 Z
b111 ]
#1295000
0$
#1297500
0!
#1300000
b1110000001111 ^
b1110000001111 _
b10 `
1$
#1305000
b100 A
b11111111101111111110 y
b110 ,
b110 E
b110 H
b101010 (
b101 4
b11111111101111111110 z
b11111 2
b11111 J
b11111 \
b101 3
b101 G
b10 {
0$
1!
#1306000
b11 A
b10001 +
b10001 D
b10001 k
b100000000 r
b1 q
b1 m
b10 W
b1 h
b1 o
b1 t
0j
b1111111110 1
b1111111110 l
b1111111110 p
b1111111110 s
b1111111110 u
b1111111110 x
#1310000
b11110000011111 ^
b11110000011111 _
b10 `
1$
#1311000
b101 @
b100 *
b100 C
b100 P
b100 W
b100 R
b11 L
b11 S
b11 [
b1111 0
b1111 Q
b1111 U
b1111 X
b1111 Z
b1111 ]
#1312500
0!
#1315000
0$
#1320000
1?
b10 A
b111110000011111 ^
b111 ,
b111 E
b111 H
b110010 (
b110 4
b111110000011111 _
b110 3
b110 G
b111111 2
b111111 J
b111111 \
b10 `
b10 {
1$
1!
#1321000
b100 @
b101 *
b101 C
b101 P
b1000 W
b101 R
b100 L
b100 S
b100 [
b11111 0
b11111 Q
b11111 U
b11111 X
b11111 Z
b11111 ]
#1325000
0$
#1327500
0!
#1330000
b111110000111111 ^
b111110000111111 _
b10 `
1$
#1335000
b1 A
b1000 ,
b1000 E
b1000 H
b10110101 (
b111 4
18
b1111111 2
b1111111 J
b1111111 \
b111 3
b111 G
b10 {
0$
1!
#1340000
b1111110001111111 ^
b1111110001111111 _
b10 `
1$
#1341000
b11 @
b110 *
b110 C
b110 P
b10000 W
b110 R
b101 L
b101 S
b101 [
b111111 0
b111111 Q
b111111 U
b111111 X
b111111 Z
b111111 ]
#1342500
0!
#1345000
0$
#1350000
0?
b0 A
b11111110001111111 ^
b1001 ,
b1001 E
b1001 H
b1111001 (
b1000 4
b11111110001111111 _
b1000 3
b1000 G
b11111111 2
b11111111 J
b11111111 \
b10 `
b10 {
1$
1!
#1351000
b10 @
b111 *
b111 C
b111 P
b100000 W
b111 R
b110 L
b110 S
b110 [
b1111111 0
b1111111 Q
b1111111 U
b1111111 X
b1111111 Z
b1111111 ]
#1355000
0$
#1357500
0!
#1360000
b11111110011111111 ^
b11111110011111111 _
b10 `
1$
#1360100
b1 @
b10010 )
b10010 B
b10010 c
1a
1d
b1000 %
1'
#1365000
b1001 A
b10000 ,
b10000 E
b10000 H
b1000 (
b1001 4
08
b111111111 2
b111111111 J
b111111111 \
b1001 3
b1001 G
b10 {
0$
1!
#1366000
1?
b1 A
0;
#1370000
b0 @
b10011 )
b10011 B
b10011 c
b10 /
b111111110111111111 ^
b1111111100 -
b1111111100 e
b1111111100 w
b10010 .
b10010 b
b111111110111111111 _
b1000011110011011010100110010001010100001000100101110000000110000100000001111 9
b10 `
1$
#1370100
b1 @
b10010 )
b10010 B
b10010 c
0a
0d
0'
#1371000
b0 @
b1000 *
b1000 C
b1000 P
b1000000 W
b1000 R
b111 L
b111 S
b111 [
b11111111 0
b11111111 Q
b11111111 U
b11111111 X
b11111111 Z
b11111111 ]
#1372500
0!
#1375000
0$
#1380000
0?
b0 A
1:
b1111111110111111111 ^
b10001 ,
b10001 E
b10001 H
b1111 (
b0 4
b11111111101111111100 y
b1111111110111111111 _
b10000 3
b10000 G
b1111111111 2
b1111111111 J
b1111111111 \
18
b11111111101111111100 z
b10 `
b10 {
1$
1!
#1381000
1>
b1111 @
b1001 *
b1001 C
b1001 P
b10000000 W
b1001 R
b1000 L
b1000 S
b1000 [
b111111111 0
b111111111 Q
b111111111 U
b111111111 X
b111111111 Z
b111111111 ]
#1385000
0$
#1387500
0!
#1390000
b1111111111111111111 ^
16
b1111111111111111111 _
b10 `
1$
#1395000
b0 A
1:
b11111111001111111100 y
0I
0F
b10001 ,
b10001 E
b10001 H
b1000 (
b1 4
b11111111001111111100 z
08
17
b1111111110 2
b1111111110 J
b1111111110 \
b10001 3
b10001 G
b10 {
0$
1!
#1395100
0#
#1396000
1?
b1 A
0:
b10010 +
b10010 D
b10010 k
b100000000 r
b10 q
b10 m
b10000000 W
b10 h
b10 o
b10 t
b1111111100 1
b1111111100 l
b1111111100 p
b1111111100 s
b1111111100 u
b1111111100 x
#1400000
b11111111111111111110 ^
b11111111111111111110 _
b10 `
1$
#1401000
b1000 @
b10000 *
b10000 C
b10000 P
b100000000 W
b0 R
b1001 L
b1001 S
b1001 [
1O
b1111111111 0
b1111111111 Q
b1111111111 U
b1111111111 X
b1111111111 Z
b1111111111 ]
#1402000
0>
b10 @
0<
#1402500
0!
#1405000
0$
#1410000
b11111111101111111110 ^
b11111111101111111110 _
06
18
07
b10 `
b10 {
1$
1!
#1410100
0?
b0 A
1:
b10010 ,
b10010 E
b10010 H
1F
1I
1#
#1411000
b1 @
b10001 *
b10001 C
b10001 P
b100000000 W
b1 V
b1 R
b1 M
b1 T
b1 Y
0O
b1111111110 0
b1111111110 Q
b1111111110 U
b1111111110 X
b1111111110 Z
b1111111110 ]
#1415000
0$
#1417500
0!
#1420000
b10 `
1$
#1425000
b0 A
1:
0I
0F
b10010 ,
b10010 E
b10010 H
b11 (
b10 4
08
17
b1111111100 2
b1111111100 J
b1111111100 \
b10010 3
b10010 G
b10 {
0$
1!
#1425100
0#
#1430000
b11111111101111111100 ^
b11111111101111111100 _
b10 `
1$
#1432500
0!
#1435000
0$
#1440000
b11111111001111111100 ^
b11111111001111111100 _
b10 `
b10 {
1$
1!
#1441000
b0 @
b10010 *
b10010 C
b10010 P
b100000000 W
b10 V
b10 R
b10 M
b10 T
b10 Y
b1111111100 0
b1111111100 Q
b1111111100 U
b1111111100 X
b1111111100 Z
b1111111100 ]
#1445000
0$
#1447500
0!
#1450000
b10 `
1$
#1450100
b1 @
b10011 )
b10011 B
b10011 c
1a
1d
b10110001 %
1'
#1455000
b10 {
0$
1!
#1460000
b10 @
b10100 )
b10100 B
b10100 c
b11 /
b10011 .
b10011 b
b1111111000 -
b1111111000 e
b1111111000 w
b1000011110011011010100110010001010100001000100101110101100010000100000001111 9
b10110001 (
b10 `
1$
#1460100
b1 @
b10011 )
b10011 B
b10011 c
0a
0d
0'
#1462500
0!
#1465000
0$
#1470000
b11111111001111111000 y
b11111111001111111000 z
b10 `
b10 {
1$
1!
#1475000
0$
#1477500
0!
#1480000
b10 `
1$
#1485000
b11111110001111111000 y
b11111110001111111000 z
b10 {
0$
1!
#1486000
1?
b1 A
0:
b10011 +
b10011 D
b10011 k
b100000000 r
b100 q
b11 m
b100000000 W
b10 V
b11 h
b11 o
b11 t
b1111111000 1
b1111111000 l
b1111111000 p
b1111111000 s
b1111111000 u
b1111111000 x
#1490000
b10 `
1$
#1492500
0!
#1495000
0$
#1500000
18
07
b10 `
b10 {
1$
1!
#1500100
0?
b0 A
1:
b10011 ,
b10011 E
b10011 H
1F
1I
1#
#1505000
0$
#1507500
0!
#1510000
b10 `
1$
#1515000
b0 A
1:
0I
0F
b10011 ,
b10011 E
b10011 H
b101110 (
b11 4
08
17
b1111111000 2
b1111111000 J
b1111111000 \
b10011 3
b10011 G
b10 {
0$
1!
#1515100
0#
#1520000
b11111111001111111000 ^
b11111111001111111000 _
b10 `
1$
